93-0000132-2.tif
93-0000209-2.tif
93-0000258-3.tif
93-0000258-4.tif
93-0000258-41.tif
93-0000383-2.tif
93-0000441-2.tif
93-0000634-2.tif
93-0000653-1.tif
93-0000653-2.tif
93-0000681-2.tif
93-0000681-3.tif
93-0000726-1.tif
93-0000739-2.tif
93-0000762-2.tif
93-0000762-21.tif
93-0000889-1.tif
93-0000919-3.tif
93-0000971-2.tif
93-0000971-21.tif
93-0000976-2.tif
93-0001030-2.tif
93-0001030-21.tif
93-0001030-211.tif
93-0001030-1.tif
93-0001072-2.tif
93-0001234-2.tif
93-0001254-3.tif
93-0001254-31.tif
93-0001267-2.tif
93-0001274-1.tif
93-0001313-3.tif
93-0001351-2.tif
93-0001408-2.tif
93-0001463-2.tif
93-0001544-2.tif
93-0001545-2.tif
93-0001546-2.tif
93-0001613-2.tif
93-0001613-21.tif
93-0001668-2.tif
93-0001697-2.tif
93-0001727-2.tif
93-0001730-2.tif
93-0001753-2.tif
93-0001753-2.tif
93-0001776-2.tif
93-0001817-2.tif
93-0001840-2.tif
93-0001929-2.tif
93-0001983-3.tif
93-0001985-2.tif
93-0001985-21.tif
93-0001993-1.tif
93-0001993-3.tif
93-0001993-31.tif
93-0002106-2.tif
93-0002170-2.tif
93-0002193-2.tif
93-0002193-21.tif
93-0002209-2.tif
93-0002211-2.tif
93-0002211-21.tif
93-0002400-2.tif
93-0002400-21.tif
93-0002400-211.tif
93-0002436-2.tif
93-0002480-2.tif
93-0002482-2.tif
93-0002949-2.tif
93-0002975-2.tif
93-0002975-21.tif
93-0002975-211.tif
93-0003070-2.tif
93-0003071-4.tif
93-0003082-2.tif
93-0003130-2.tif
93-0003143-2.tif
93-0003143-21.tif
93-0003143-3.tif
93-0003143-31.tif
93-0003216-3.tif
93-0003216-31.tif
93-0003270-2.tif
93-0003333-2.tif
93-0003333-21.tif
93-0003428-2.tif
93-0003511-2.tif
93-0003596-3.tif
93-0003613-2.tif
93-0003728-2.tif
93-0003795-2.tif
93-0004068-2.tif
93-0004073-3.tif
93-0004073-31.tif
93-0004082-2.tif
93-0004082-21.tif
93-0004192-2.tif
93-0004192-21.tif
93-0004211-2.tif
93-0004211-1.tif
93-0004300-2.tif