95-0000168-2.tif
95-0000275-2.tif
95-0000312-2.tif
95-0000390-2.tif
95-0000390-21.tif
95-0000391-2.tif
95-0000461-2.tif
95-0000467-3.tif
95-0000489-2.tif
95-0000514-2.tif
95-0000695-2.tif
95-0000695-21.tif
95-0000695-211.tif
95-0000695-1.tif
95-0000725-2.tif
95-0000725-21.tif
95-0000725-3.tif
95-0000725-4.tif
95-0000725-41.tif
95-0000773-2.tif
95-0000773-21.tif
95-0000773-3.tif
95-0000773-31.tif
95-0000773-311.tif
95-0000871-5.tif
95-0000899-3.tif
95-0000991-2.tif
95-0001024-2.tif
95-0001041-2.tif
95-0001041-21.tif
95-0001043-1.tif
95-0001043-2.tif
95-0001048-2.tif
95-0001073-2.tif
95-0001238-2.tif
95-0001282-2.tif
95-0001368-2.tif
95-0001391-2.tif
95-0001394-2.tif
95-0001540-2.tif
95-0001540-21.tif
95-0001540-211.tif
95-0001614-2.tif
95-0001615-2.tif
95-0001621-2.tif
95-0001669-2.tif
95-0001669-21.tif
95-0001675-2.tif
95-0001721-2.tif
95-0001818-2.tif
95-0001855-2.tif
95-0001855-21.tif
95-0001855-4.tif
95-0001855-41.tif
95-0001855-5.tif
95-0001923-2.tif
95-0001927-2.tif
95-0002040-2.tif
95-0002044-2.tif
95-0002201-2.tif
95-0002218-2.tif
95-0002245-1.tif
95-0002275-2.tif
95-0002275-3.tif
95-0002319-2.tif
95-0002353-2.tif
95-0002363-2.tif
95-0002388-3.tif
95-0002452-2.tif
95-0002452-21.tif
95-0002469-1.tif
95-0002482-2.tif
95-0002482-21.tif
95-0002593-2.tif
95-0002593-21.tif
95-0002627-2.tif
95-0002627-21.tif
95-0002627-211.tif
95-0002655-2.tif
95-0002777-2.tif
95-0002777-21.tif
95-0002798-2.tif
95-0002818-2.tif
95-0002818-21.tif
95-0002822-2.tif
95-0002851-2.tif
95-0002896-2.tif
95-0003073-2.tif
95-0003125-4.tif
95-0003125-41.tif
95-0003125-1.tif
95-0003132-2.tif
95-0003132-21.tif
95-0003144-2.tif
95-0003144-21.tif
95-0003296-2.tif
95-0003296-21.tif
95-0003312-2.tif
95-0003312-21.tif
95-0003317-1.tif
95-0003320-2.tif
95-0003393-3.tif
95-0003393-31.tif
95-0003438-2.tif
95-0003449-2.tif
95-0003454-2.tif
95-0003493-2.tif
95-0003493-21.tif
95-0003493-3.tif
95-0003543-2.tif
95-0003606-2.tif
95-0003606-21.tif
95-0003633-2.tif
95-0003665-1.tif
95-0003687-2.tif
95-0003716-2.tif
95-0003731-2.tif
95-0003754-2.tif
95-0003765-2.tif
95-0003773-3.tif
95-0003773-31.tif
95-0003773-311.tif
95-0003773-4.tif
95-0003773-41.tif
95-0003818-4.tif
95-0003818-41.tif
95-0003818-411.tif
95-0003830-2.tif
95-0003830-1.tif
95-0003863-2.tif
95-0003863-1.tif
95-0003887-2.tif
95-0004022-2.tif
95-0004034-2.tif
95-0004107-2.tif
95-0004195-2.tif
95-0004208-2.tif
95-0004249-2.tif
95-0004268-2.tif
95-0004345-1.tif
95-0004380-2.tif
95-0004384-2.tif
95-0004384-21.tif
95-0004436-2.tif
95-0004467-2.tif
95-0004467-21.tif