96-0000131-2.tif
96-0000131-21.tif
96-0000135-1.tif
96-0000151-2.tif
96-0000201-2.tif
96-0000220-2.tif
96-0000220-3.tif
96-0000222-2.tif
96-0000287-2.tif
96-0000421-2.tif
96-0000474-2.tif
96-0000526-2.tif
96-0000547-2.tif
96-0000549-2.tif
96-0000584-2.tif
96-0000686-2.tif
96-0000686-1.tif
96-0000704-2.tif
96-0000834-1.tif
96-0000873-2.tif
96-0000877-2.tif
96-0000922-1.tif
96-0000922-11.tif
96-0000922-1.tif
96-0001089-2.tif
96-0001130-3.tif
96-0001130-31.tif
96-0001207-2.tif
96-0001208-3.tif
96-0001311-2.tif
96-0001321-2.tif
96-0001378-3.tif
96-0001378-31.tif
96-0001388-2.tif
96-0001388-21.tif
96-0001388-211.tif
96-0001404-2.tif
96-0001459-2.tif
96-0001504-2.tif
96-0001511-1.tif
96-0001548-2.tif
96-0001559-2.tif
96-0001578-2.tif
96-0001619-2.tif
96-0001619-21.tif
96-0001619-3.tif
96-0001619-4.tif
96-0001619-41.tif
96-0001642-2.tif
96-0001667-2.tif
96-0001674-5.tif
96-0001674-51.tif
96-0001698-2.tif
96-0001698-21.tif
96-0001712-3.tif
96-0001768-2.tif
96-0001792-3.tif
96-0001835-2.tif
96-0001844-2.tif
96-0001857-2.tif
96-0001859-2.tif
96-0001877-2.tif
96-0001886-2.tif
96-0001886-21.tif
96-0002012-2.tif
96-0002051-2.tif
96-0002051-3.tif
96-0002063-2.tif
96-0002125-2.tif
96-0002168-2.tif
96-0002168-21.tif
96-0002216-2.tif
96-0002216-21.tif
96-0002250-2.tif
96-0002263-2.tif
96-0002263-21.tif
96-0002284-1.tif
96-0002296-3.tif
96-0002318-2.tif
96-0002351-3.tif
96-0002379-2.tif
96-0002379-3.tif
96-0002379-31.tif
96-0002397-2.tif
96-0002405-2.tif
96-0002461-2.tif
96-0002563-2.tif
96-0002659-2.tif
96-0002685-2.tif
96-0002690-2.tif
96-0002772-2.tif
96-0002772-21.tif
96-0002786-1.tif
96-0002798-2.tif
96-0003162-2.tif
96-0003162-21.tif
96-0003211-2.tif
96-0003214-2.tif
96-0003214-21.tif
96-0003222-2.tif
96-0003242-3.tif
96-0003258-2.tif
96-0003376-2.tif
96-0003409-3.tif
96-0003409-31.tif
96-0003487-2.tif
96-0003528-1.tif
96-0003616-2.tif
96-0003616-21.tif
96-0003616-211.tif
96-0003625-2.tif
96-0003625-3.tif
96-0003625-31.tif
96-0003733-2.tif
96-0003761-2.tif
96-0003829-1.tif
96-0003887-2.tif
96-0003949-2.tif
96-0003955-2.tif
96-0003958-2.tif
96-0003971-2.tif
96-0003971-21.tif
96-0003992-2.tif
96-0004030-2.tif
96-0004030-21.tif
96-0004163-1.tif
96-0004164-2.tif
96-0004164-21.tif
96-0004180-2.tif
96-0004203-5.tif
96-0004223-3.tif
96-0004227-2.tif
96-0004234-2.tif
96-0004289-2.tif
96-0004307-2-.tif
96-0004307-2.tif
96-0004328-2.tif
96-0004364-2.tif
96-0004379-2.tif
96-0004379-21.tif
96-0004437-2.tif
96-0004437-21.tif
96-0004487-4.tif
96-0004497-2.tif
96-0004581-2.tif
96-0004581-21.tif
96-0004661-2.tif
96-0004792-2.tif
96-0004792-21.tif
96-0004817-2.tif
96-0004886-2.tif
96-0004909-3.tif
96-0005011-2.tif
96-0005011-1.tif
96-0005098-2.tif
96-0005098-21.tif
96-0005098-3.tif
96-0005098-1.tif
96-0005150-2.tif
96-0005233-2.tif
96-0005241-2.tif
96-0005299-2.tif
96-0005310-2.tif
96-0005369-3.tif
96-0005369-31.tif
96-0005477-2.tif
96-0005501-2.tif
96-0005613-2.tif
96-0005617-2.tif
96-0005650-2.tif
96-0005690-3.tif
96-0005690-1.tif
96-0005746-4.tif
96-0005759-2.tif
96-0005783-2.tif
96-0005853-2.tif
96-0005853-21.tif
96-0005874-2.tif
96-0005988-2-.tif
96-0006009-3.tif
96-0006009-4.tif
96-0006009-5.tif
96-0006009-51.tif
96-0006026-2.tif
96-0006084-2.tif
96-0006084-21.tif
96-0006100-2-.tif
96-0006205-2.tif
96-0006317-2.tif