99-0000121-2.tif
99-0000134-2.tif
99-0000152-2.tif
99-0000152-21.tif
99-0000155-1.tif
99-0000158-2.tif
99-0000158-21.tif
99-0000163-1.tif
99-0000184-3.tif
99-0000184-31.tif
99-0000184-1.tif
99-0000233-2.tif
99-0000239-2.tif
99-0000239-21.tif
99-0000239-1.tif
99-0000287-2.tif
99-0000287-1.tif
99-0000305-1.tif
99-0000317-2.tif
99-0000317-21.tif
99-0000335-2.tif
99-0000335-21.tif
99-0000335-211.tif
99-0000335-3.tif
99-0000335-31.tif
99-0000356-2.tif
99-0000374-1.tif
99-0000380-2.tif
99-0000408-2.tif
99-0000435-2.tif
99-0000441-2.tif
99-0000446-3.tif
99-0000446-1.tif
99-0000469-1.tif
99-0000479-2.tif
99-0000490-5.tif
99-0000539-2.tif
99-0000539-21.tif
99-0000541-2.tif
99-0000541-21.tif
99-0000553-3.tif
99-0000553-31.tif
99-0000566-2.tif
99-0000693-2.tif
99-0000693-3.tif
99-0000693-31.tif
99-0000696-2.tif
99-0000712-1.tif
99-0000717-2.tif
99-0000717-21.tif
99-0000719-2.tif
99-0000719-21.tif
99-0000719-211.tif
99-0000728-1.tif
99-0000728-2.tif
99-0000728-1.tif
99-0000781-1.tif
99-0000785-2.tif
99-0000805-1.tif
99-0000807-2.tif
99-0000807-21.tif
99-0000826-2.tif
99-0000831-1.tif
99-0000831-4.tif
99-0000831-41.tif
99-0000831-6.tif
99-0000831-61.tif
99-0000831-611.tif
99-0000831-1.tif
99-0000840-4.tif
99-0000840-6.tif
99-0000840-61.tif
99-0000844-2.tif
99-0000870-1.tif
99-0000870-2.tif
99-0000870-21.tif
99-0000884-2.tif
99-0000884-21.tif
99-0000914-1.tif
99-0000930-2.tif
99-0000930-21.tif
99-0000930-3.tif
99-0000930-4.tif
99-0000965-1.tif
99-0000972-2.tif
99-0001010-2.tif
99-0001033-3.tif
99-0001033-31.tif
99-0001033-4.tif
99-0001057-2.tif
99-0001057-21.tif
99-0001057-211.tif
99-0001057-3.tif
99-0001057-31.tif
99-0001057-311.tif
99-0001068-2.tif
99-0001068-21.tif
99-0001084-2.tif
99-0001107-1.tif
99-0001113-1.tif
99-0001113-2.tif
99-0001131-1.tif
99-0001131-2.tif
99-0001131-3.tif
99-0001140-3.tif
99-0001140-1.tif
99-0001145-1.tif
99-0001145-2.tif
99-0001145-21.tif
99-0001249-1.tif
99-0001256-2.tif
99-0001272-2.tif
99-0001274-2.tif
99-0001338-2.tif
99-0001381-2.tif
99-0001389-4.tif
99-0001407-4.tif
99-0001407-41.tif
99-0001414-2.tif
99-0001414-21.tif
99-0001434-2.tif
99-0001441-2.tif
99-0001441-21.tif
99-0001443-1.tif
99-0001451-1.tif
99-0001466-1.tif
99-0001466-11.tif
99-0001466-2.tif
99-0001466-21.tif
99-0001466-211.tif
99-0001492-2.tif
99-0001493-1.tif
99-0001518-1.tif
99-0001529-2.tif
99-0001529-21.tif
99-0001530-1.tif
99-0001550-2.tif
99-0001550-21.tif
99-0001550-3.tif
99-0001561-3.tif
99-0001561-31.tif
99-0001561-311.tif
99-0001571-2.tif
99-0001571-1.tif
99-0001587-1.tif
99-0001591-2.tif
99-0001645-2.tif
99-0001678-2.tif
99-0001696-1.tif
99-0001696-2.tif
99-0001696-21.tif
99-0001696-1.tif
99-0001778-2.tif
99-0001786-2.tif
99-0001786-21.tif
99-0001791-1.tif
99-0001822-2.tif
99-0001834-2.tif
99-0001839-7.tif
99-0001839-71.tif
99-0001877-1.tif
99-0001884-2.tif
99-0001884-21.tif
99-0001897-2.tif
99-0001898-1.tif
99-0001905-2.tif
99-0001927-2.tif
99-0001953-2.tif
99-0002013-1.tif
99-0002014-1.tif
99-0002054-1.tif
99-0002054-2.tif
99-0002060-2.tif
99-0002060-21.tif
99-0002119-2.tif
99-0002166-2.tif
99-0002166-21.tif
99-0002188-2.tif
99-0002244-3.tif
99-0002248-2.tif
99-0002248-21.tif
99-0002281-2.tif
99-0002281-21.tif
99-0002281-1.tif
99-0002295-1.tif
99-0002312-2.tif
99-0002315-2.tif
99-0002315-21.tif
99-0002340-1.tif
99-0002357-2.tif
99-0002357-21.tif
99-0002371-2.tif
99-0002378-1.tif
99-0002378-2.tif
99-0002389-1.tif
99-0002389-3.tif
99-0002389-5.tif
99-0002389-51.tif
99-0002389-1.tif
99-0002390-2.tif
99-0002396-2.tif
99-0002405-1.tif
99-0002441-2.tif
99-0002441-1.tif
99-0002458-1.tif
99-0002484-2.tif
99-0002512-2.tif
99-0002512-21.tif
99-0002512-211.tif
99-0002523-4.tif
99-0002575-2.tif
99-0002605-2.tif
99-0002605-1.tif
99-0002613-2.tif
99-0002613-21.tif
99-0002613-22.tif
99-0002632-2.tif
99-0002673-2.tif
99-0002673-21.tif
99-0002687-2.tif
99-0002687-21.tif
99-0002687-3.tif
99-0002687-31.tif
99-0002687-4.tif
99-0002692-2.tif
99-0002713-2.tif
99-0002730-2.tif
99-0002733-2.tif
99-0002733-21.tif
99-0002733-1.tif
99-0002794-3.tif
99-0002805-1.tif
99-0002805-11.tif
99-0002805-2.tif
99-0002805-3.tif
99-0002805-31.tif
99-0002805-1.tif
99-0002828-3.tif
99-0002848-2.tif
99-0002848-1.tif
99-0002877-1.tif
99-0002886-2.tif
99-0002911-2.tif
99-0002911-21.tif
99-0002932-2.tif
99-0002935-2.tif
99-0002937-7.tif
99-0002937-71.tif
99-0002937-8.tif
99-0002937-81.tif
99-0002937-1.tif
99-0002938-2.tif
99-0002938-21.tif
99-0002947-2.tif
99-0002951-1.tif
99-0002980-2.tif
99-0002980-21.tif
99-0002985-1.tif
99-0002985-4.tif
99-0002985-41.tif
99-0003028-2.tif
99-0003038-2.tif
99-0003042-1.tif
99-0003065-2.tif
99-0003070-2.tif
99-0003070-21.tif
99-0003074-1.tif
99-0003077-2.tif
99-0003130-1.tif
99-0003147-2.tif
99-0003147-21.tif
99-0003188-2.tif
99-0003188-21.tif
99-0003234-1.tif
99-0003236-3.tif
99-0003237-4.tif
99-0003270-2.tif
99-0003279-2.tif
99-0003279-21.tif
99-0003286-1.tif
99-0003286-2.tif
99-0003286-21.tif
99-0003291-1.tif
99-0003301-2.tif
99-0003304-2.tif
99-0003313-2.tif
99-0003314-2.tif
99-0003323-2.tif
99-0003352-1.tif
99-0003382-1.tif
99-0003383-2.tif
99-0003383-3.tif
99-0003383-5.tif
99-0003383-6.tif
99-0003383-1.tif
99-0003389-2.tif
99-0003465-2.tif
99-0003465-21.tif
99-0003502-1.tif
99-0003506-1.tif
99-0003533-1.tif
99-0003539-1.tif
99-0003539-2.tif
99-0003539-21.tif
99-0003539-1.tif
99-0003547-2.tif
99-0003555-2.tif
99-0003562-1.tif
99-0003565-1.tif
99-0003565-11.tif
99-0003565-2.tif
99-0003565-21.tif
99-0003565-3.tif
99-0003565-31.tif
99-0003568-2.tif
99-0003568-21.tif
99-0003583-3.tif
99-0003594-1.tif
99-0003622-3.tif
99-0003622-31.tif
99-0003623-2.tif
99-0003623-21.tif
99-0003623-1.tif
99-0003624-1.tif
99-0003624-2.tif
99-0003624-21.tif
99-0003625-2.tif
99-0003626-2.tif
99-0003626-4.tif
99-0003647-1.tif
99-0003647-2.tif
99-0003647-21.tif
99-0003662-3.tif
99-0003662-31.tif
99-0003662-1.tif
99-0003687-3.tif
99-0003701-2.tif
99-0003701-21.tif
99-0003701-211.tif
99-0003710-1.tif
99-0003723-1.tif
99-0003723-1.tif
99-0003724-2.tif
99-0003724-21.tif
99-0003726-2.tif
99-0003726-1.tif
99-0003727-2.tif
99-0003727-21.tif
99-0003748-6.tif
99-0003771-8.tif
99-0003782-1.tif
99-0003787-2.tif
99-0003787-21.tif
99-0003787-1.tif
99-0003809-2.tif
99-0003809-21.tif
99-0003811-2.tif
99-0003811-21.tif
99-0003813-2.tif
99-0003813-3.tif
99-0003813-1.tif
99-0003814-2.tif
99-0003814-21.tif
99-0003843-2.tif
99-0003852-2.tif
99-0003852-1.tif
99-0003869-2.tif
99-0003873-1.tif
99-0003890-4.tif
99-0003890-5.tif
99-0003890-1.tif
99-0003900-2.tif
99-0003900-21.tif
99-0003901-3.tif
99-0003901-31.tif
99-0003901-1.tif
99-0003913-1.tif
99-0003968-2.tif
99-0003968-21.tif
99-0003985-2.tif
99-0003985-3.tif
99-0003985-31.tif
99-0004049-2.tif
99-0004049-21.tif
99-0004090-1.tif
99-0004114-2.tif
99-0004140-1.tif
99-0004140-11.tif
99-0004140-2.tif
99-0004140-21.tif
99-0004151-4.tif
99-0004158-1.tif
99-0004160-2.tif
99-0004160-21.tif
99-0004160-1.tif
99-0004185-2.tif
99-0004185-21.tif
99-0004188-1.tif
99-0004190-2.tif
99-0004210-2.tif
99-0004212-1.tif
99-0004212-2.tif
99-0004246-2.tif
99-0004252-1.tif
99-0004293-1.tif
99-0004319-1.tif
99-0004358-3.tif
99-0004376-1.tif
99-0004392-2.tif
99-0004392-21.tif
99-0004392-211.tif
99-0004420-3.tif
99-0004443-2.tif
99-0004503-2.tif
99-0004529-1.tif
99-0004547-2.tif
99-0004560-2.tif
99-0004570-1.tif
99-0004570-11.tif
99-0004570-2.tif
99-0004570-21.tif
99-0004570-211.tif
99-0004570-1.tif
99-0004574-2.tif
99-0004574-21.tif
99-0004593-1.tif
99-0004593-3.tif
99-0004593-1.tif
99-0004602-2.tif
99-0004602-21.tif
99-0004602-3.tif
99-0004602-4.tif
99-0004612-2.tif
99-0004612-3.tif
99-0004630-2.tif
99-0004670-1.tif
99-0004670-2.tif
99-0004670-21.tif
99-0004693-2.tif
99-0004700-2.tif
99-0004703-1.tif
99-0004703-2.tif
99-0004703-21.tif
99-0004707-1.tif
99-0004708-1.tif
99-0004708-2.tif
99-0004708-21.tif
99-0004724-2.tif
99-0004724-21.tif
99-0004729-1.tif
99-0004729-2.tif
99-0004733-2.tif
99-0004733-21.tif
99-0004756-2.tif
99-0004764-2.tif
99-0004781-2.tif
99-0004792-2.tif
99-0004799-2.tif
99-0004813-2.tif
99-0004825-2.tif
99-0004825-3.tif
99-0004825-31.tif
99-0004825-6.tif
99-0004829-2.tif
99-0004829-21.tif
99-0004834-1.tif
99-0004834-2.tif
99-0004834-21.tif
99-0004874-2.tif
99-0004874-3.tif
99-0004874-31.tif
99-0004881-2.tif
99-0004881-21.tif
99-0004898-2.tif
99-0004898-21.tif
99-0004901-2.tif
99-0004902-2.tif
99-0004934-1.tif
99-0004961-2.tif
99-0004962-2.tif
99-0004980-2.tif
99-0004980-21.tif
99-0004992-1.tif
99-0004994-1.tif
99-0004994-3.tif
99-0004994-31.tif
99-0005007-2.tif
99-0005007-21.tif
99-0005026-1.tif
99-0005036-2.tif
99-0005036-4.tif
99-0005041-2.tif
99-0005048-1.tif
99-0005054-1.tif
99-0005054-2.tif
99-0005069-1.tif
99-0005079-1.tif
99-0005083-1.tif
99-0005083-10.tif
99-0005083-1.tif
99-0005083-13.tif
99-0005083-131.tif
99-0005083-1311.tif
99-0005083-7.tif
99-0005083-1.tif
99-0005108-2.tif
99-0005113-2.tif
99-0005119-2.tif
99-0005119-21.tif
99-0005128-2.tif
99-0005129-1.tif
99-0005137-2.tif
99-0005144-2.tif
99-0005147-2.tif
99-0005147-3.tif
99-0005182-2.tif
99-0005182-21.tif
99-0005185-2.tif
99-0005196-2.tif
99-0005196-21.tif
99-0005203-1.tif
99-0005208-1.tif
99-0005232-2.tif
99-0005240-2.tif
99-0005244-2.tif
99-0005253-2.tif
99-0005253-21.tif
99-0005267-2.tif
99-0005273-2.tif
99-0005273-21.tif
99-0005294-2.tif
99-0005294-21.tif
99-0005304-2.tif
99-0005318-2.tif
99-0005329-1.tif
99-0005347-2.tif
99-0005359-2.tif
99-0005372-2.tif
99-0005398-2.tif
99-0005403-21.tif
99-0005403-2.tif
99-0005409-1.tif
99-0005413-1.tif
99-0005416-1.tif
99-0005440-3.tif
99-0005452-2.tif
99-0005457-1.tif
99-0005457-2.tif
99-0005457-4.tif
99-0005457-6.tif
99-0005457-61.tif
99-0005457-1.tif
99-0005460-2.tif
99-0005466-3.tif
99-0005468-2.tif
99-0005476-2.tif
99-0005476-21.tif
99-0005487-2.tif
99-0005511-1.tif
99-0005511-2.tif
99-0005518-1.tif
99-0005527-1.tif
99-0005527-2.tif
99-0005527-3.tif
99-0005547-4.tif
99-0005547-6.tif
99-0005556-1.tif
99-0005556-11.tif
99-0005556-111.tif
99-0005556-8.tif
99-0005556-1.tif
99-0005557-1.tif
99-0005573-2.tif
99-0005578-1.tif
99-0005578-2.tif
99-0005578-21.tif
99-0005591-1.tif
99-0005596-2.tif
99-0005643-1.tif
99-0005661-2.tif
99-0005675-2.tif
99-0005675-21.tif
99-0005681-1.tif
99-0005685-2.tif
99-0005692-2.tif
99-0005692-1.tif
99-0005694-2.tif
99-0005694-21.tif
99-0005700-2.tif
99-0005714-2.tif
99-0005727-2.tif
99-0005727-21.tif
99-0005747-2.tif
99-0005752-2.tif
99-0005752-21.tif
99-0005757-1.tif
99-0005767-3.tif
99-0005771-1.tif
99-0005773-3.tif
99-0005779-2.tif
99-0005779-3.tif
99-0005779-31.tif
99-0005779-311.tif
99-0005782-1.tif
99-0005800-1.tif
99-0005813-2.tif
99-0005813-21.tif
99-0005846-1.tif
99-0005848-2.tif
99-0005851-2.tif
99-0005888-1.tif
99-0005938-1.tif
99-0005938-2.tif
99-0005938-21.tif
99-0005962-1.tif
99-0005964-2.tif
99-0005964-3.tif
99-0005964-31.tif
99-0005969-1.tif
99-0005974-2.tif
99-0005982-4.tif
99-0005982-41.tif
99-0006008-2.tif
99-0006041-2.tif
99-0006041-3.tif
99-0006041-6.tif
99-0006041-7.tif
99-0006041-71.tif
99-0006041-711.tif
99-0006043-2.tif
99-0006090-1.tif
99-0006091-1.tif
99-0006093-2.tif
99-0006109-2.tif
99-0006109-7.tif
99-0006109-71.tif
99-0006109-8.tif
99-0006109-1.tif
99-0006114-3.tif
99-0006114-31.tif
99-0006116-2.tif
99-0006183-1.tif
99-0006200-1.tif
99-0006215-2.tif
99-0006223-2.tif
99-0006241-2.tif
99-0006241-21.tif
99-0006249-1.tif
99-0006256-4.tif
99-0006256-41.tif
99-0006259-1.tif
99-0006259-2.tif
99-0006262-2.tif
99-0006285-2.tif
99-0006301-1.tif
99-0006310-1.tif
99-0006316-5.tif
99-0006316-6.tif
99-0006316-61.tif
99-0006316-611.tif
99-0006316-7.tif
99-0006316-71.tif
99-0006317-1.tif
99-0006318-4.tif
99-0006351-2.tif
99-0006359-1.tif
99-0006369-3.tif
99-0006400-1.tif
99-0006409-2.tif
99-0006411-2.tif
99-0006411-21.tif
99-0006416-2.tif
99-0006418-3.tif
99-0006422-2.tif
99-0006437-1.tif
99-0006443-1.tif
99-0006443-2-.tif
99-0006443-2.tif
99-0006443-21.tif
99-0006461-1.tif
99-0006464-2.tif
99-0006487-2.tif
99-0006487-21-.tif
99-0006537-2.tif
99-0006544-2.tif
99-0006550-1.tif
99-0006554-1.tif
99-0006554-4.tif
99-0006554-1.tif
99-0006561-2.tif
99-0006561-21.tif
99-0006561-211.tif
99-0006568-2.tif
99-0006579-2.tif
99-0006579-21.tif
99-0006582-2.tif
99-0006582-21.tif
99-0006600-2.tif
99-0006600-3.tif
99-0006603-2.tif
99-0006621-1.tif
99-0006621-1.tif
99-0006631-2.tif
99-0006631-21.tif
99-0006632-2.tif
99-0006632-3.tif
99-0006632-31.tif
99-0006648-1.tif
99-0006677-2.tif
99-0006677-21.tif
99-0006677-211.tif
99-0006696-2.tif
99-0006696-21.tif
99-0006712-1.tif
99-0006712-2.tif
99-0006716-2.tif
99-0006717-2.tif
99-0006717-21.tif
99-0006717-4.tif
99-0006717-41.tif
99-0006717-411.tif
99-0006737-2.tif
99-0006737-21.tif
99-0006747-1.tif
99-0006760-1.tif
99-0006760-11.tif
99-0006760-1.tif
99-0006760-2.tif
99-0006760-21.tif
99-0006779-5.tif
99-0006791-1.tif
99-0006804-2.tif
99-0006831-1.tif
99-0006841-2.tif
99-0006862-2.tif
99-0006880-2.tif
99-0006903-2.tif
99-0006917-2.tif
99-0006917-3.tif
99-0006941-2.tif
99-0006941-21.tif
99-0006954-1.tif
99-0006954-2.tif
99-0006954-21.tif
99-0006958-2.tif
99-0006960-2.tif
99-0006960-21.tif
99-0006960-211.tif
99-0006981-2.tif
99-0006981-21.tif
99-0006981-1.tif
99-0006982-3.tif
99-0006982-4.tif
99-0006982-41.tif
99-0006997-1.tif
99-0007040-1.tif
99-0007040-11.tif
99-0007040-2.tif
99-0007040-21.tif
99-0007040-3.tif
99-0007040-31.tif
99-0007040-4.tif
99-0007040-41.tif
99-0007040-5.tif
99-0007046-2.tif
99-0007046-21.tif
99-0007057-2.tif
99-0007062-2.tif
99-0007062-21.tif
99-0007071-2.tif
99-0007071-3.tif
99-0007071-31.tif
99-0007117-2.tif
99-0007118-2.tif
99-0007118-21.tif
99-0007120-3.tif
99-0007132-2.tif
99-0007132-21.tif
99-0007135-2.tif
99-0007147-2.tif
99-0007154-2.tif
99-0007154-21.tif
99-0007154-1.tif
99-0007184-1.tif
99-0007184-2.tif
99-0007184-21.tif
99-0007208-2.tif
99-0007209-1.tif
99-0007212-1.tif
99-0007216-3.tif
99-0007218-1.tif
99-0007245-1.tif
99-0007245-2.tif
99-0007247-1.tif
99-0007258-2.tif
99-0007258-21.tif
99-0007258-1.tif
99-0007263-1.tif
99-0007286-2.tif
99-0007293-2.tif
99-0007305-1.tif
99-0007305-11.tif
99-0007305-2.tif
99-0007305-3.tif
99-0007305-4.tif
99-0007305-41.tif
99-0007305-1.tif
99-0007313-1.tif
99-0007316-2.tif
99-0007316-21.tif
99-0007316-211.tif
99-0007320-1.tif
99-0007321-2.tif
99-0007331-2.tif
99-0007331-21.tif
99-0007363-2.tif
99-0007395-2.tif
99-0007413-2.tif
99-0007413-1.tif
99-0007424-2.tif
99-0007424-21.tif
99-0007486-2.tif
99-0007489-2.tif
99-0007489-21.tif
99-0007511-2.tif
99-0007557-2.tif
99-0007557-1.tif
99-0007567-2.tif
99-0007609-1.tif
99-0007609-11.tif
99-0007609-2.tif
99-0007609-3.tif
99-0007609-4.tif
99-0007609-41.tif
99-0007609-411.tif
99-0007609-5.tif
99-0007609-1.tif
99-0007629-2.tif
99-0007635-1.tif
99-0007672-2.tif
99-0007672-21.tif
99-0007680-1.tif
99-0007690-2.tif
99-0007690-21.tif
99-0007712-3.tif
99-0007726-4.tif
99-0007726-41.tif
99-0007726-1.tif
99-0007750-1.tif
99-0007777-1.tif
99-0007797-1.tif
99-0007810-2.tif
99-0007840-1.tif
99-0007840-11.tif
99-0007840-2.tif
99-0007845-2.tif
99-0007845-21.tif
99-0007845-1.tif
99-0007848-2.tif
99-0007873-1.tif
99-0007915-2.tif
99-0007932-2.tif
99-0007955-2.tif
99-0007972-2.tif
99-0007981-3.tif
99-0007981-31.tif
99-0007986-2.tif
99-0007989-1.tif
99-0008002-2.tif
99-0008053-2.tif
99-0008062-6.tif
99-0008062-1.tif
99-0008063-2.tif
99-0008063-1.tif
99-0008064-2.tif
99-0008066-2.tif
99-0008078-1.tif
99-0008092-3.tif
99-0008103-2.tif
99-0008103-21.tif
99-0008103-1.tif
99-0008124-1.tif
99-0008135-2.tif
99-0008136-2.tif
99-0008163-2.tif
99-0008163-21.tif
99-0008164-2.tif
99-0008164-21.tif
99-0008167-1.tif
99-0008181-1.tif
99-0008192-1.tif
99-0008196-2.tif
99-0008210-2.tif
99-0008210-21.tif
99-0008217-4.tif
99-0008217-41.tif
99-0008217-5.tif
99-0008223-2.tif
99-0008224-2.tif
99-0008224-21.tif
99-0008224-211.tif
99-0008225-2.tif
99-0008230-1.tif
99-0008232-2.tif
99-0008272-2.tif
99-0008276-1.tif
99-0008276-2.tif
99-0008276-3.tif
99-0008276-31.tif
99-0008292-1.tif
99-0008292-2.tif
99-0008292-21.tif
99-0008324-2.tif
99-0008340-2.tif
99-0008370-1.tif
99-0008370-2.tif
99-0008370-21.tif
99-0008373-2.tif
99-0008388-1.tif
99-0008390-6.tif
99-0008390-61.tif
99-0008438-2.tif
99-0008438-21.tif
99-0008438-1.tif
99-0008464-2.tif
99-0008484-1.tif
99-0008522-1.tif
99-0008525-2.tif
99-0008528-1.tif
99-0008533-1.tif
99-0008533-2.tif
99-0008538-1.tif
99-0008545-2.tif
99-0008545-21.tif
99-0008545-211.tif
99-0008545-1.tif
99-0008560-2.tif
99-0008567-1.tif
99-0008573-5.tif
99-0008573-51.tif
99-0008576-2.tif
99-0008579-2.tif
99-0008603-2.tif
99-0008646-2.tif
99-0008646-21.tif
99-0008646-1.tif
99-0008668-1.tif
99-0008668-2.tif
99-0008668-1.tif
99-0008674-2.tif
99-0008685-1.tif
99-0008691-2.tif
99-0008723-2.tif
99-0008723-21.tif
99-0008724-2.tif
99-0008746-1.tif
99-0008746-2.tif
99-0008746-21.tif
99-0008766-67.tif
99-0008774-2.tif
99-0008774-21.tif
99-0008783-3.tif
99-0008785-2.tif
99-0008789-2.tif
99-0008789-21.tif
99-0008790-1.tif
99-0008790-2.tif
99-0008790-21.tif
99-0008819-2.tif
99-0008819-21.tif
99-0008830-1.tif
99-0008832-1.tif
99-0008836-2.tif
99-0008836-3.tif
99-0008836-31.tif
99-0008836-311.tif
99-0008894-1.tif
99-0008937-1.tif
99-0008938-2.tif
99-0008942-2.tif
99-0008962-2.tif
99-0008967-2.tif
99-0008968-2.tif
99-0008983-2.tif
99-0008986-1.tif
99-0008994-1.tif
99-0009011-1.tif
99-0009011-3.tif
99-0009011-31.tif
99-0009011-1.tif
99-0009033-1.tif
99-0009041-2-.tif
99-0009041-21.tif
99-0009075-2.tif
99-0009075-21.tif
99-0009105-2.tif
99-0009118-4.tif
99-0009118-41.tif
99-0009121-2.tif
99-0009121-21.tif
99-0009134-2.tif
99-0009147-2.tif
99-0009163-7.tif
99-0009172-2.tif
99-0009172-3.tif
99-0009174-2.tif
99-0009179-1.tif
99-0009183-3.tif
99-0009192-2.tif
99-0009233-2.tif
99-0009260-3.tif
99-0009260-31.tif
99-0009263-1.tif
99-0009287-2.tif
99-0009333-2.tif
99-0009333-21.tif
99-0009338-2.tif
99-0009338-21.tif
99-0009390-2.tif
99-0009405-3.tif
99-0009409-2.tif
99-0009409-21.tif
99-0009427-2.tif
99-0009427-21.tif
99-0009444-1.tif
99-0009461-2.tif
99-0009485-2.tif
99-0009485-21.tif
99-0009514-1.tif
99-0009514-3.tif
99-0009514-31.tif
99-0009534-3.tif
99-0009534-31.tif
99-0009560-2.tif
99-0009560-1.tif
99-0009562-2.tif
99-0009562-4.tif
99-0009562-5.tif
99-0009562-51.tif
99-0009576-2.tif
99-0009576-21.tif
99-0009576-1.tif
99-0009585-2.tif
99-0009585-21.tif
99-0009586-2.tif
99-0009586-21.tif
99-0009589-1.tif
99-0009589-11.tif
99-0009589-2.tif
99-0009589-3.tif
99-0009589-31.tif
99-0009591-1.tif
99-0009591-1.tif
99-0009599-1.tif
99-0009602-2.tif
99-0009602-21.tif
99-0009603-4.tif
99-0009603-41.tif
99-0009612-2.tif
99-0009612-21.tif
99-0009612-211.tif
99-0009636-2.tif
99-0009636-21.tif
99-0009636-211.tif
99-0009639-2.tif
99-0009664-2.tif
99-0009677-2.tif
99-0009677-21.tif
99-0009677-1.tif
99-0009714-2.tif
99-0009714-21.tif
99-0009714-211.tif
99-0009715-2.tif
99-0009715-3.tif
99-0009715-31.tif
99-0009715-311.tif
99-0009723-1.tif
99-0009731-2.tif
99-0009731-21.tif
99-0009732-2.tif
99-0009759-2.tif
99-0009759-21.tif
99-0009773-2.tif
99-0009776-2.tif
99-0009787-2.tif
99-0009795-2.tif
99-0009807-2.tif
99-0009807-21.tif
99-0009807-211.tif
99-0009814-2.tif
99-0009819-1.tif
99-0009822-1.tif
99-0009830-1.tif
99-0009855-2.tif
99-0009855-1.tif
99-0009856-1.tif
99-2730-2.tif