1-0000103-2.tif
1-0000103-21.tif
1-0000107-2.tif
1-0000107-21.tif
1-0000142-1.tif
1-0000161-2.tif
1-0000183-2.tif
1-0000183-21.tif
1-0000205-2.tif
1-0000205-21.tif
1-0000215-1.tif
1-0000236-2.tif
1-0000236-21.tif
1-0000289-3.tif
1-0000296-2.tif
1-0000309-2.tif
1-0000318-1.tif
1-0000342-2.tif
1-0000342-21.tif
1-0000355-1.tif
1-0000355-2.tif
1-0000355-3.tif
1-0000355-31.tif
1-0000355-1.tif
1-0000373-6.tif
1-0000379-2.tif
1-0000380-1.tif
1-0000380-2.tif
1-0000397-2.tif
1-0000398-2.tif
1-0000414-1.tif
1-0000415-2.tif
1-0000440-2.tif
1-0000440-21.tif
1-0000457-2.tif
1-0000488-2.tif
1-0000494-1.tif
1-0000494-1.tif
1-0000521-2.tif
1-0000543-2.tif
1-0000543-21.tif
1-0000560-2.tif
1-0000570-1.tif
1-0000570-11.tif
1-0000570-2.tif
1-0000570-21.tif
1-0000570-211.tif
1-0000570-22.tif
1-0000570-1.tif
1-0000588-2.tif
1-0000613-2.tif
1-0000613-1.tif
1-0000616-2.tif
1-0000616-5.tif
1-0000666-1.tif
1-0000668-2.tif
1-0000668-21.tif
1-0000712-2.tif
1-0000730-2.tif
1-0000739-1.tif
1-0000740-2.tif
1-0000740-21.tif
1-0000747-2.tif
1-0000774-2.tif
1-0000774-21.tif
1-0000780-2.tif
1-0000780-21.tif
1-0000810-3.tif
1-0000814-4.tif
1-0000818-2.tif
1-0000858-2.tif
1-0000858-21.tif
1-0000872-2.tif
1-0000897-1.tif
1-0000897-2.tif
1-0000897-21.tif
1-0000897-1.tif
1-0000910-2.tif
1-0000910-21.tif
1-0000926-2.tif
1-0000938-1.tif
1-0000938-2.tif
1-0000938-21.tif
1-0000938-211.tif
1-0000949-2.tif
1-0000949-1.tif
1-0000971-2.tif
1-0000971-21.tif
1-0000971-211.tif
1-0001008-2.tif
1-0001009-2.tif
1-0001013-3.tif
1-0001013-31.tif
1-0001013-4.tif
1-0001013-5.tif
1-0001020-2.tif
1-0001020-21.tif
1-0001022-1.tif
1-0001022-1.tif
1-0001060-2.tif
1-0001060-21.tif
1-0001083-2.tif
1-0001083-21.tif
1-0001099-4.tif
1-0001099-41.tif
1-0001115-3.tif
1-0001115-31.tif
1-0001115-311.tif
1-0001115-4.tif
1-0001115-5.tif
1-0001115-6.tif
1-0001115-61.tif
1-0001138-1.tif
1-0001138-21.tif
1-0001154-2.tif
1-0001154-21.tif
1-0001154-3.tif
1-0001157-2.tif
1-0001157-21.tif
1-0001163-2.tif
1-0001171-31.tif
1-0001203-1.tif
1-0001203-1.tif
1-0001233-2.tif
1-0001233-21.tif
1-0001245-2.tif
1-0001245-21.tif
1-0001245-211.tif
1-0001249-4.tif
1-0001249-5.tif
1-0001249-51.tif
1-0001253-6.tif
1-0001256-1.tif
1-0001260-2.tif
1-0001260-4.tif
1-0001260-41.tif
1-0001272-1.tif
1-0001272-2.tif
1-0001272-21.tif
1-0001283-3.tif
1-0001284-5.tif
1-0001284-51.tif
1-0001369-3.tif
1-0001378-2.tif
1-0001378-21.tif
1-0001417-2.tif
1-0001441-2.tif
1-0001454-2.tif
1-0001454-1.tif
1-0001470-1.tif
1-0001480-2.tif
1-0001493-2.tif
1-0001493-21.tif
1-0001511-2.tif
1-0001511-21.tif
1-0001513-2.tif
1-0001513-21.tif
1-0001513-211.tif
1-0001518-3.tif
1-0001518-31.tif
1-0001518-4.tif
1-0001573-2.tif
1-0001573-3.tif
1-0001573-31.tif
1-0001573-311.tif
1-0001573-4.tif
1-0001641-3.tif
1-0001641-31.tif
1-0001660-1.tif
1-0001660-3.tif
1-0001660-4.tif
1-0001660-1.tif
1-0001677-3.tif
1-0001677-31.tif
1-0001680-2.tif
1-0001680-21.tif
1-0001681-2.tif
1-0001681-21.tif
1-0001681-3.tif
1-0001681-31.tif
1-0001693-2.tif
1-0001693-21.tif
1-0001714-1.tif
1-0001749-2.tif
1-0001749-21.tif
1-0001749-211.tif
1-0001767-2.tif
1-0001787-1.tif
1-0001790-2.tif
1-0001790-21.tif
1-0001790-1.tif
1-0001814-2.tif
1-0001814-21.tif
1-0001857-2.tif
1-0001863-1.tif
1-0001871-2.tif
1-0001921-2.tif
1-0001921-21.tif
1-0001921-3.tif
1-0001921-31.tif
1-0001928-3.tif
1-0001950-2.tif
1-0001953-3.tif
1-0001954-1.tif
1-0001954-11.tif
1-0001954-2.tif
1-0001954-21.tif
1-0001955-1.tif
1-0001965-2.tif
1-0001970-2.tif
1-0001982-2.tif
1-0001982-4.tif
1-0001985-2.tif
1-0001986-5.tif
1-0001995-2.tif
1-0002002-1.tif
1-0002003-2.tif
1-0002018-2.tif
1-0002018-21.tif
1-0002018-211.tif
1-0002029-1.tif
1-0002058-1.tif
1-0002068-5.tif
1-0002071-2.tif
1-0002082-2.tif
1-0002109-2.tif
1-0002109-21.tif
1-0002109-211.tif
1-0002130-2.tif
1-0002144-2.tif
1-0002144-1.tif
1-0002160-2.tif
1-0002160-21.tif
1-0002175-2.tif
1-0002175-21.tif
1-0002181-2.tif
1-0002203-2.tif
1-0002204-2.tif
1-0002233-2.tif
1-0002247-4.tif
1-0002253-1.tif
1-0002253-2.tif
1-0002253-21.tif
1-0002257-2.tif
1-0002257-21.tif
1-0002257-211.tif
1-0002269-1.tif
1-0002272-1.tif
1-0002292-2.tif
1-0002298-1.tif
1-0002300-2.tif
1-0002324-2.tif
1-0002342-1.tif
1-0002350-2.tif
1-0002377-2.tif
1-0002377-21.tif
1-0002395-2.tif
1-0002401-2.tif
1-0002521-2.tif
1-0002522-1.tif
1-0002524-2.tif
1-0002524-21.tif
1-0002524-3.tif
1-0002524-31.tif
1-0002524-5.tif
1-0002524-6.tif
1-0002524-61.tif
1-0002535-1.tif
1-0002564-1.tif
1-0002568-2.tif
1-0002568-21.tif
1-0002568-3.tif
1-0002569-2.tif
1-0002569-21.tif
1-0002569-211.tif
1-0002569-1.tif
1-0002633-1.tif
1-0002688-1.tif
1-0002690-3.tif
1-0002690-1.tif
1-0002698-1.tif
1-0002711-1.tif
1-0002711-2.tif
1-0002711-21.tif
1-0002731-1.tif
1-0002731-3.tif
1-0002731-31.tif
1-0002731-311.tif
1-0002731-1.tif
1-0002738-2.tif
1-0002749-1.tif
1-0002759-1.tif
1-0002777-2.tif
1-0002777-21.tif
1-0002780-1.tif
1-0002781-2.tif
1-0002781-21.tif
1-0002819-2.tif
1-0002833-2.tif
1-0002833-21.tif
1-0002833-211.tif
1-0002833-3.tif
1-0002833-31.tif
1-0002833-4.tif
1-0002833-5.tif
1-0002833-1.tif
1-0002871-2.tif
1-0002871-1.tif
1-0002873-2.tif
1-0002873-21.tif
1-0002873-1.tif
1-0002890-3.tif
1-0002890-4.tif
1-0002890-41.tif
1-0002890-411.tif
1-0002908-2.tif
1-0002908-21.tif
1-0002964-2.tif
1-0002964-3.tif
1-0002964-31.tif
1-0002966-2.tif
1-0002966-1.tif
1-0002988-1.tif
1-0003005-2.tif
1-0003005-21.tif
1-0003008-2.tif
1-0003015-2.tif
1-0003020-3.tif
1-0003084-1.tif
1-0003103-1.tif
1-0003109-2.tif
1-0003109-21.tif
1-0003113-1.tif
1-0003113-2.tif
1-0003120-1.tif
1-0003120-2.tif
1-0003120-1.tif
1-0003193-2.tif
1-0003193-21.tif
1-0003207-2.tif
1-0003234-4.tif
1-0003236-2.tif
1-0003249-2.tif
1-0003260-2.tif
1-0003260-21.tif
1-0003260-211.tif
1-0003292-2.tif
1-0003301-2.tif
1-0003320-2.tif
1-0003320-21.tif
1-0003321-2.tif
1-0003334-3.tif
1-0003334-31.tif
1-0003339-1.tif
1-0003349-2.tif
1-0003403-1.tif
1-0003422-2.tif
1-0003422-21.tif
1-0003430-2.tif
1-0003431-2.tif
1-0003431-21.tif
1-0003431-3.tif
1-0003431-1.tif
1-0003441-4.tif
1-0003441-5.tif
1-0003441-6.tif
1-0003465-5.tif
1-0003465-51.tif
1-0003470-3.tif
1-0003472-2.tif
1-0003472-1.tif
1-0003484-2.tif
1-0003484-21.tif
1-0003529-2.tif
1-0003557-2.tif
1-0003569-2.tif
1-0003579-1.tif
1-0003599-2.tif
1-0003603-2.tif
1-0003603-21.tif
1-0003603-1.tif
1-0003635-2.tif
1-0003635-1.tif
1-0003644-2.tif
1-0003644-21.tif
1-0003665-2.tif
1-0003670-1.tif
1-0003673-1.tif
1-0003673-3.tif
1-0003673-31.tif
1-0003706-2.tif
1-0003706-21.tif
1-0003743-2.tif
1-0003748-2.tif
1-0003748-21.tif
1-0003763-3.tif
1-0003779-1.tif
1-0003779-1.tif
1-0003812-2.tif
1-0003812-21.tif
1-0003812-22.tif
1-0003820-1.tif
1-0003893-2.tif
1-0003893-21.tif
1-0003901-2.tif
1-0003904-2.tif
1-0003911-2.tif
1-0003920-1.tif
1-0003930-2.tif
1-0003940-4.tif
1-0003966-2.tif
1-0003970-1.tif
1-0004036-2.tif
1-0004044-2.tif
1-0004044-3.tif
1-0004112-2.tif
1-0004112-21.tif
1-0004132-2.tif
1-0004132-21.tif
1-0004132-211.tif
1-0004191-2.tif
1-0004211-2.tif
1-0004223-2.tif
1-0004224-1.tif
1-0004224-11.tif
1-0004224-2.tif
1-0004224-21.tif
1-0004224-3.tif
1-0004224-31.tif
1-0004224-311.tif
1-0004224-1.tif
1-0004237-3.tif
1-0004237-31.tif
1-0004241-1.tif
1-0004245-1.tif
1-0004248-2.tif
1-0004248-21.tif
1-0004276-2.tif
1-0004276-21.tif
1-0004278-4.tif
1-0004278-1.tif
1-0004296-1.tif
1-0004296-2.tif
1-0004311-2.tif
1-0004318-2.tif
1-0004318-21.tif
1-0004347-2.tif
1-0004347-1.tif
1-0004373-4.tif
1-0004398-3.tif
1-0004399-1.tif
1-0004414-3.tif
1-0004414-31.tif
1-0004417-2.tif
1-0004429-1.tif
1-0004446-2.tif
1-0004473-3.tif
1-0004473-1.tif
1-0004481-2.tif
1-0004486-2.tif
1-0004488-2.tif
1-0004504-2.tif
1-0004504-1.tif
1-0004507-2.tif
1-0004539-2.tif
1-0004539-21.tif
1-0004544-2.tif
1-0004544-21.tif
1-0004555-1.tif
1-0004555-2.tif
1-0004555-21.tif
1-0004561-2.tif
1-0004561-21.tif
1-0004664-1.tif
1-0004664-2.tif
1-0004713-1.tif
1-0004713-2.tif
1-0004713-21.tif
1-0004738-2.tif
1-0004749-3.tif
1-0004749-31.tif
1-0004782-1.tif
1-0004782-3.tif
1-0004782-31.tif
1-0004791-2.tif
1-0004791-21.tif
1-0004805-2.tif
1-0004805-3.tif
1-0004831-4.tif
1-0004831-7.tif
1-0004831-8.tif
1-0004831-9.tif
1-0004832-1.tif
1-0004832-2.tif
1-0004832-3.tif
1-0004832-1.tif
1-0004849-2.tif
1-0004849-21.tif
1-0004870-1.tif
1-0004875-2.tif
1-0004875-21.tif
1-0004889-2.tif
1-0004893-2.tif
1-0004893-21.tif
1-0004909-1.tif
1-0004909-2.tif
1-0004909-4.tif
1-0004909-41.tif
1-0004909-1.tif
1-0004915-1.tif
1-0004915-3.tif
1-0004926-2.tif
1-0004926-21.tif
1-0004938-2.tif
1-0004938-21.tif
1-0004938-211.tif
1-0004964-1.tif
1-0004967-4.tif
1-0004967-5.tif
1-0004967-51.tif
1-0004970-2.tif
1-0004977-2.tif
1-0004977-21.tif
1-0004979-2.tif
1-0004979-21.tif
1-0004989-2.tif
1-0004989-21.tif
1-0005006-3.tif
1-0005010-1.tif
1-0005016-4.tif
1-0005021-1.tif
1-0005044-2.tif
1-0005046-2.tif
1-0005046-1.tif
1-0005056-1.tif
1-0005060-2.tif
1-0005065-1.tif
1-0005071-2.tif
1-0005078-1.tif
1-0005087-3.tif
1-0005087-31.tif
1-0005091-3.tif
1-0005091-31.tif
1-0005107-1.tif
1-0005112-2.tif
1-0005123-3.tif
1-0005123-31.tif
1-0005136-2.tif
1-0005158-2.tif
1-0005187-1.tif
1-0005187-7.tif
1-0005187-71.tif
1-0005187-8.tif
1-0005201-2.tif
1-0005201-21.tif
1-0005211-2.tif
1-0005211-21.tif
1-0005211-3.tif
1-0005211-31.tif
1-0005211-4.tif
1-0005211-41.tif
1-0005221-2.tif
1-0005240-2.tif
1-0005248-4.tif
1-0005248-41.tif
1-0005253-2.tif
1-0005290-2.tif
1-0005316-2.tif
1-0005316-21.tif
1-0005316-211.tif
1-0005374-2.tif
1-0005389-3.tif
1-0005393-2.tif
1-0005393-21.tif
1-0005412-2.tif
1-0005473-2.tif
1-0005473-21.tif
1-0005503-1.tif
1-0005525-2.tif
1-0005527-1.tif
1-0005528-2.tif
1-0005593-4.tif
1-0005593-41.tif
1-0005604-1.tif
1-0005617-2.tif
1-0005635-2.tif
1-0005635-21.tif
1-0005635-1.tif
1-0005658-3.tif
1-0005659-3.tif
1-0005659-31.tif
1-0005680-2.tif
1-0005694-2.tif
1-0005715-1.tif
1-0005715-5.tif
1-0005715-51.tif
1-0005715-511.tif
1-0005732-2.tif
1-0005733-2.tif
1-0005742-2.tif
1-0005742-3.tif
1-0005742-31.tif
1-0005743-1.tif
1-0005758-2.tif
1-0005758-21.tif
1-0005786-2.tif
1-0005786-21.tif
1-0005813-1.tif
1-0005813-2.tif
1-0005814-2.tif
1-0005829-4.tif
1-0005829-41.tif
1-0005829-5.tif
1-0005829-51.tif
1-0005854-8.tif
1-0005855-2.tif
1-0005855-21.tif
1-0005862-2.tif
1-0005863-3.tif
1-0005863-31.tif
1-0005863-4.tif
1-0005897-2.tif
1-0005897-1.tif
1-0005899-2.tif
1-0005905-1.tif
1-0005914-2.tif
1-0005942-4.tif
1-0005942-41.tif
1-0005946-2.tif
1-0005955-2.tif
1-0005955-21.tif
1-0006014-2.tif
1-0006018-2.tif
1-0006018-21.tif
1-0006029-1.tif
1-0006029-2.tif
1-0006029-21.tif
1-0006061-3.tif
1-0006061-31.tif
1-0006075-2.tif
1-0006075-21.tif
1-0006086-1.tif
1-0006091-2.tif
1-0006099-2.tif
1-0006102-2.tif
1-0006103-2.tif
1-0006103-21.tif
1-0006123-2.tif
1-0006142-2.tif
1-0006143-2.tif
1-0006144-2.tif
1-0006144-21.tif
1-0006144-211.tif
1-0006151-1.tif
1-0006156-2.tif
1-0006156-21.tif
1-0006158-1.tif
1-0006206-2.tif
1-0006210-1.tif
1-0006210-1.tif
1-0006225-2.tif
1-0006225-21.tif
1-0006227-2.tif
1-0006227-21.tif
1-0006232-2.tif
1-0006232-21.tif
1-0006241-2.tif
1-0006241-21.tif
1-0006245-1.tif
1-0006268-2.tif
1-0006317-2.tif
1-0006344-4.tif
1-0006380-2.tif
1-0006380-21.tif
1-0006437-2.tif
1-0006437-21.tif
1-0006448-2.tif
1-0006471-2.tif
1-0006480-1.tif
1-0006500-2.tif
1-0006500-21.tif
1-0006503-2.tif
1-0006523-1.tif
1-0006535-1.tif
1-0006569-1.tif
1-0006569-5.tif
1-0006569-51.tif
1-0006569-6.tif
1-0006569-1.tif
1-0006575-3.tif
1-0006575-31.tif
1-0006601-2.tif
1-0006606-2.tif
1-0006606-1.tif
1-0006610-1.tif
1-0006610-4.tif
1-0006657-2.tif
1-0006667-2.tif
1-0006698-2.tif
1-0006698-3.tif
1-0006738-2.tif
1-0006741-2.tif
1-0006743-4.tif
1-0006743-5.tif
1-0006743-6.tif
1-0006743-61.tif
1-0006743-611.tif
1-0006753-3.tif
1-0006756-2.tif
1-0006762-1.tif
1-0006762-11.tif
1-0006762-6.tif
1-0006764-1.tif
1-0006768-6.tif
1-0006775-2.tif
1-0006775-21.tif
1-0006775-211.tif
1-0006790-2.tif
1-0006790-21.tif
1-0006790-1.tif
1-0006827-1.tif
1-0006827-1.tif
1-0006835-2.tif
1-0006835-21.tif
1-0006847-2.tif
1-0006848-9.tif
1-0006856-2.tif
1-0006856-21.tif
1-0006856-22.tif
1-0006856-3.tif
1-0006856-31.tif
1-0006857-2.tif
1-0006868-1.tif
1-0006868-11.tif
1-0006868-1.tif
1-0006877-2.tif
1-0006895-21.tif
1-0006917-2.tif
1-0006921-2.tif
1-0006921-21.tif
1-0006921-211.tif
1-0006928-2.tif
1-0006928-21.tif
1-0006948-1.tif
1-0006948-1.tif
1-0006948-2.tif
1-0006948-21.tif
1-0006965-1.tif
1-0006965-2.tif
1-0006965-21.tif
1-0007014-2.tif
1-0007014-1.tif
1-0007032-2.tif
1-0007032-21.tif
1-0007097-2.tif
1-0007097-21.tif
1-0007107-3.tif
1-0007107-31.tif
1-0007117-1.tif
1-0007142-1.tif
1-0007143-2.tif
1-0007164-1.tif
1-0007166-2.tif
1-0007166-21.tif
1-0007190-1.tif
1-0007190-2.tif
1-0007190-21.tif
1-0007190-3.tif
1-0007211-1.tif
1-0007222-1.tif
1-0007225-2.tif
1-0007225-21.tif
1-0007284-5.tif
1-0007284-1.tif
1-0007290-3.tif
1-0007295-3.tif
1-0007295-31.tif
1-0007295-311.tif
1-0007308-1.tif
1-0007312-2.tif
1-0007314-1.tif
1-0007318-5.tif
1-0007318-51.tif
1-0007334-2.tif
1-0007341-2.tif
1-0007348-1.tif
1-0007381-1.tif
1-0007394-1.tif
1-0007416-2.tif
1-0007416-21.tif
1-0007416-3.tif
1-0007416-31.tif
1-0007437-3.tif
1-0007449-3.tif
1-0007449-31.tif
1-0007452-2.tif
1-0007452-21.tif
1-0007452-211.tif
1-0007453-1.tif
1-0007474-2.tif
1-0007475-1.tif
1-0007481-2.tif
1-0007481-1.tif
1-0007506-1.tif
1-0007508-1.tif
1-0007508-2.tif
1-0007508-21.tif
1-0007514-2.tif
1-0007514-21.tif
1-0007524-2.tif
1-0007536-2.tif
1-0007536-21.tif
1-0007554-1.tif
1-0007554-2.tif
1-0007554-1.tif
1-0007558-2.tif
1-0007558-21.tif
1-0007592-1.tif
1-0007597-2.tif
1-0007597-3.tif
1-0007597-31.tif
1-0007597-311.tif
1-0007608-2.tif
1-0007608-21.tif
1-0007630-1.tif
1-0007682-1.tif
1-0007694-2.tif
1-0007728-2.tif
1-0007729-2.tif
1-0007729-21.tif
1-0007746-3.tif
1-0007746-31.tif
1-0007751-2.tif
1-0007772-2.tif
1-0007815-2-.tif
1-0007815-21.tif
1-0007821-2.tif
1-0007847-2.tif
1-0007848-2.tif
1-0007848-21.tif
1-0007848-1.tif
1-0007899-1.tif
1-0007899-2.tif
1-0007914-2.tif
1-0007948-1.tif
1-0007959-2.tif
1-0007961-2.tif
1-0007961-21.tif
1-0007974-2.tif
1-0007974-21.tif
1-0007989-1.tif
1-0008018-2.tif
1-0008052-2.tif
1-0008052-21.tif
1-0008065-2.tif
1-0008065-21.tif
1-0008066-2.tif
1-0008069-2.tif
1-0008086-2.tif
1-0008103-1.tif
1-0008103-2.tif
1-0008115-7.tif
1-0008115-8.tif
1-0008115-81.tif
1-0008136-2.tif
1-0008136-21.tif
1-0008178-2.tif
1-0008187-3.tif
1-0008204-1.tif
1-0008204-2.tif
1-0008204-21.tif
1-0008208-2.tif
1-0008208-21.tif
1-0008231-2.tif
1-0008234-3.tif
1-0008234-31.tif
1-0008246-2.tif
1-0008246-21.tif
1-0008262-2.tif
1-0008277-1.tif
1-0008282-1.tif
1-0008284-2.tif
1-0008284-21.tif
1-0008288-3.tif
1-0008288-5.tif
1-0008292-2.tif
1-0008292-21.tif
1-0008318-1.tif
1-0008334-2.tif
1-0008396-2.tif
1-0008396-3.tif
1-0008396-31.tif
1-0008414-1.tif
1-0008454-1.tif
1-0008466-2.tif
1-0008466-21.tif
1-0008493-3.tif
1-0008507-2.tif
1-0008507-21.tif
1-0008520-4.tif
1-0008524-2.tif
1-0008524-21.tif
1-0008539-2.tif
1-0008539-1.tif
1-0008545-2.tif
1-0008565-2.tif
1-0008566-4.tif
1-0008566-1.tif
1-0008605-1.tif
1-0008605-2.tif
1-0008610-2.tif
1-0008665-2.tif
1-0008678-2.tif
1-0008678-21.tif
1-0008703-2.tif
1-0008704-2.tif
1-0008704-3.tif
1-0008704-31.tif
1-0008712-1.tif
1-0008762-2.tif
1-0008762-21.tif
1-0008766-2.tif
1-0008766-3.tif
1-0008766-1.tif
1-0008771-2.tif
1-0008774-2.tif
1-0008775-4.tif
1-0008775-5.tif
1-0008775-6.tif
1-0008775-61.tif
1-0008775-611.tif
1-0008790-1.tif
1-0008794-1.tif
1-0008796-4.tif
1-0008796-41.tif
1-0008796-411.tif
1-0008823-2.tif
1-0008832-2.tif
1-0008832-21.tif
1-0008848-2.tif
1-0008848-21.tif
1-0008850-2.tif
1-0008850-21.tif
1-0008861-2.tif
1-0008874-1.tif
1-0008891-2.tif
1-0008891-21.tif
1-0008891-1.tif
1-0008897-1.tif
1-0008907-1.tif
1-0008907-2.tif
1-0008917-1.tif
1-0008917-11.tif
1-0008917-2.tif
1-0008917-21.tif
1-0008956-2.tif
1-0008958-2.tif
1-0008973-1.tif
1-0008973-2.tif
1-0008973-3.tif
1-0008973-31.tif
1-0008973-1.tif
1-0008981-1.tif
1-0009040-1.tif
1-0009040-2.tif
1-0009040-21.tif
1-0009070-2.tif
1-0009070-1.tif
1-0009081-1.tif
1-0009081-11.tif
1-0009081-2.tif
1-0009081-1.tif
1-0009093-2.tif
1-0009093-21.tif
1-0009093-3.tif
1-0009107-2.tif
1-0009143-2.tif
1-0009151-2.tif
1-0009151-21.tif
1-0009163-1.tif
1-0009163-2.tif
1-0009163-1.tif
1-0009182-2.tif
1-0009182-21.tif
1-0009228-2.tif
1-0009228-21.tif
1-0009255-2.tif
1-0009255-21.tif
1-0009267-1.tif
1-0009267-2.tif
1-0009267-21.tif
1-0009286-1.tif
1-0009286-2.tif
1-0009294-2.tif
1-0009313-1.tif
1-0009323-2.tif
1-0009343-1.tif
1-0009345-2.tif
1-0009359-2.tif
1-0009359-21.tif
1-0009360-2.tif
1-0009373-2.tif
1-0009373-3.tif
1-0009448-1.tif
1-0009448-2.tif
1-0009455-3.tif
1-0009455-31.tif
1-0009455-1.tif
1-0009457-2.tif
1-0009457-21.tif
1-0009463-5.tif
1-0009463-51.tif
1-0009466-3.tif
1-0009466-4.tif
1-0009466-41.tif
1-0009478-1.tif
1-0009478-11.tif
1-0009478-2.tif
1-0009478-3.tif
1-0009478-31.tif
1-0009478-4.tif
1-0009478-1.tif
1-0009485-2.tif
1-0009485-21.tif
1-0009501-2.tif
1-0009501-21.tif
1-0009501-211.tif
1-0009501-3.tif
1-0009501-31.tif
1-0009509-1.tif
1-0009520-1.tif
1-0009520-11.tif
1-0009520-1.tif
1-0009551-1.tif
1-0009554-1.tif
1-0009633-2.tif
1-0009633-21.tif
1-0009634-2.tif
1-0009634-21.tif
1-0009652-2.tif
1-0009652-21.tif
1-0009657-2.tif
1-0009657-21.tif
1-0009661-2.tif
1-0009661-21.tif
1-0009671-3.tif
1-0009671-31.tif
1-0009712-1.tif
1-0009718-2.tif
1-0009764-1.tif
1-0009774-2.tif
1-0009839-2.tif
1-0009868-2.tif
1-0009868-21.tif
1-0009887-2.tif
1-0009888-1.tif
1-0009912-1.tif
1-0009912-2.tif
1-0009912-21.tif
1-0009933-1.tif
1-0009933-2.tif
1-0009941-1.tif
1-0009943-1.tif
1-0009951-4.tif
1-0009959-2.tif
1-0009965-2.tif
1-0009974-2.tif
1-0009978-2.tif
1-0010010-2.tif
1-0010010-21.tif
1-0010010-3.tif
1-0010021-2.tif
1-0010021-21.tif
1-0010021-211.tif
1-0010043-2.tif
1-0010043-21.tif
1-0010050-2.tif
1-0010050-21.tif
1-0010071-2.tif
1-0010071-21.tif
1-0010071-211.tif
1-0010080-2.tif
1-0010125-2.tif
1-0010150-1.tif
1-0010150-2.tif
1-0010150-21.tif
1-0010150-211.tif
1-0010154-2.tif
1-0010167-1.tif
1-0010175-2.tif
1-0010175-21.tif
1-0010226-2.tif
1-0010226-21.tif
1-0010266-4.tif
1-0010266-41.tif
1-0010268-2.tif
1-0010268-1.tif
1-0010273-2.tif
1-0010273-3.tif
1-0010276-2.tif
1-0010302-2.tif
1-0010355-2.tif
1-0010356-1.tif
1-0010367-2.tif
1-0010367-21.tif
1-0010385-2.tif
1-0010385-21.tif
1-0010389-2.tif
1-0010389-21.tif
1-0010396-4.tif
1-0010412-1.tif
1-0010424-3.tif
1-0010424-31.tif
1-0010438-1.tif
1-0010450-2.tif
1-0010450-21.tif
1-0010450-4.tif
1-0010475-1.tif
1-0010475-2.tif
1-0010475-21.tif
1-0010483-2.tif
1-0010486-1.tif
1-0010486-15.tif
1-0010486-1.tif
1-0010492-1.tif
1-0010533-2.tif
1-0010540-2.tif
1-0010564-2.tif
1-0010564-3.tif
1-0010564-31.tif
1-0010591-2.tif
1-0010599-2.tif
1-0010622-2.tif
1-0010622-21.tif
1-0010622-211.tif
1-0010633-2.tif
1-0010728-2.tif
1-0010728-4.tif
1-0010728-41.tif
1-0010728-411.tif
1-0010728-42.tif
1-0010728-5.tif
1-0010728-51.tif
1-0010728-6.tif
1-0010728-61.tif
1-0010730-2.tif
1-0010730-21.tif
1-0010731-2.tif
1-0010731-21.tif
1-0010731-211.tif
1-0010735-2.tif
1-0010735-3.tif
1-0010735-4.tif
1-0010753-1.tif
1-0010753-1.tif
1-0010766-2.tif
1-0010776-2.tif
1-0010779-3.tif
1-0010779-31.tif
1-0010783-2.tif
1-0010837-1.tif
1-0010880-2.tif
1-0010907-1.tif
1-0010924-2.tif
1-0010935-1.tif
1-0010960-2.tif
1-0010984-1.tif
1-0010984-2.tif
1-0010984-21.tif
1-0010984-1.tif
1-0010985-3.tif
1-0010985-31.tif
1-0010988-2.tif
1-0010988-21.tif
1-0011043-2.tif
1-0011057-2.tif
1-0011105-1.tif
1-0011105-3.tif
1-0011105-1.tif
1-0011119-2.tif
1-0011119-21.tif
1-0011121-2.tif
1-0011121-21.tif
1-0011141-4.tif
1-0011147-2.tif
1-0011147-21.tif
1-0011156-1.tif
1-0011156-2.tif
1-0011199-2.tif
1-0011199-21.tif
1-0011210-2.tif
1-0011234-1.tif
1-0011239-5.tif
1-0011239-51.tif
1-0011288-1.tif
1-0011288-2.tif
1-0011288-1.tif
1-0011289-3.tif
1-0011289-4.tif
1-0011289-41.tif
1-0011292-2.tif
1-0011296-1.tif
1-0011296-2.tif
1-0011470-2.tif
1-0011470-1.tif
1-0011478-1.tif
1-0011499-2.tif
1-0011517-2-.tif
1-0011517-3.tif
1-0011532-2.tif
1-0011532-21.tif
1-0011579-2.tif
1-0011582-2.tif
1-0011582-21.tif
1-0011588-2.tif
1-0011588-21.tif
1-0011593-1.tif
1-0011645-2.tif
1-0011645-21.tif
1-0011649-2.tif
1-0011672-2.tif
1-0011672-21.tif
1-0011703-1.tif
1-0011703-1.tif
1-0011733-2.tif
1-0011753-2.tif
1-0011753-22.tif
1-0011758-3.tif
1-0011758-4.tif
1-0011758-41.tif
1-0011804-1.tif
1-0011804-2.tif
1-0011804-21.tif
1-0011824-2.tif
1-0011843-2.tif
1-0011846-3.tif
1-0011846-1.tif
1-0011863-1.tif
1-0011863-1.tif
1-0011873-2.tif
1-0011873-21.tif
1-0011875-2.tif
1-0011875-21.tif
1-0011875-1.tif
1-0011879-4.tif
1-0011879-41.tif
1-0011882-2.tif
1-0011882-21.tif
1-0011892-2.tif
1-0011892-21.tif
1-0011893-4.tif
1-0011914-2.tif
1-0011925-2.tif
1-0011933-2.tif
1-0011956-2.tif
1-0011956-21.tif
1-0011962-2.tif
1-0011962-21.tif
1-0011978-1.tif
1-0011989-2.tif
1-0011996-1.tif
1-0011996-2.tif
1-0011996-1.tif
1-0012027-2.tif
1-0012029-2.tif
1-0012029-21.tif
1-0012034-2.tif
1-0012034-21.tif
1-0012040-2.tif
1-0012040-1.tif
1-0012047-2.tif
1-0012047-21.tif
1-0012098-1.tif
1-0012126-1.tif
1-0012162-2.tif
1-0012162-3.tif
1-0012178-1.tif
1-0012178-2.tif
1-0012178-21.tif
1-0012202-2.tif
1-0012209-2.tif
1-0012209-21.tif
1-0012214-2.tif
1-0012214-21.tif
1-0012250-1.tif
1-0012250-21.tif
1-0012250-1.tif
1-0012261-3.tif
1-0012264-1.tif
1-0012264-2.tif
1-0012264-21.tif
1-0012274-1.tif
1-0012289-3.tif
1-0012303-1.tif
1-0012317-1.tif
1-0012317-2.tif
1-0012317-21.tif
1-0012371-2.tif
1-0012371-3.tif
1-0012371-31.tif
1-0012395-1.tif
1-0012487-2.tif
1-0012491-2.tif
1-0012491-3.tif
1-0012512-1.tif
1-0012513-2.tif
1-0012520-2.tif
1-0012526-2.tif
1-0012526-21.tif
1-0012526-1.tif
1-0012534-1.tif
1-0012539-2.tif
1-0012539-21.tif
1-0012543-1.tif
1-0012543-5.tif
1-0012543-1.tif
1-0012554-2.tif
1-0012554-21.tif
1-0012580-2.tif
1-0012580-21.tif
1-0012584-2.tif
1-0012609-2.tif
1-0012609-21.tif
1-0012653-2.tif
1-0012682-2.tif
1-0012682-21.tif
1-0012706-2.tif
1-0012706-21.tif
1-0012706-3.tif
1-0012717-2.tif
1-0012717-7.tif
1-0012717-9.tif
1-0012717-91.tif
1-0012717.tif
1-0012751-1-2.tif
1-0012751-3.tif
1-0012781-2.tif
1-0012789-2.tif
1-0012840-1.tif
1-0012840-11.tif
1-0012840-3.tif
1-0012863-1.tif
1-0012869-2.tif
1-0012872-2.tif
1-0012872-21.tif
1-0012874-2.tif
1-0012881-2.tif
1-0012899-2.tif
1-0012899-21.tif
1-0012901-2.tif
1-0012905-3.tif
1-0012905-31.tif
1-0012928-2.tif
1-0012928-21.tif
1-0012928-1.tif
1-0012943-2.tif
1-0012958-1.tif
1-0012967-2.tif
1-0012967-21.tif
1-0012977-51.tif
1-0012977-5.tif
1-0012978-3.tif
1-0012984-1.tif
1-0012988-2.tif
1-0012988-1.tif
1-0013002-2.tif
1-0013002-21.tif
1-0013018-2.tif
1-0013018-21.tif
1-0013042-2.tif
1-0013046-2.tif
1-0013049-2.tif
1-0013087-2.tif
1-0013087-21.tif
1-0013096-2.tif
1-0013096-21.tif
1-0013099-2.tif
1-0013109-3.tif
1-0013112-2.tif
1-0013112-21.tif
1-0013112-1.tif
1-0013135-2.tif
1-0013189-1.tif
1-0013205-1.tif
1-0013212-1.tif
1-0013246-4.tif
1-0013246-6.tif
1-0013264-1.tif
1-0013272-2.tif
1-0013272-21.tif
1-0013317-3.tif
1-0013324-2.tif
1-0013324-3.tif
1-0013324-31.tif
1-0013328-1.tif
1-0013346-4.tif
1-0013346-4.tif
1-0013346-41.tif
1-0013346-411.tif
1-0013376-2.tif
1-0013379-2.tif
1-0013379-21.tif
1-0013379-1.tif
1-0013385-1.tif
1-0013385-2.tif
1-0013385-21.tif
1-0013389-1.tif
1-0013392-1.tif
1-0013392-3.tif
1-0013392-31.tif
1-0013394-2.tif
1-0013394-1.tif
1-0013411-1.tif
1-0013411-1.tif
1-0013412-1.tif
1-0013419-2.tif
1-0013419-21.tif
1-0013419-211.tif
1-0013422-1.tif
1-0013433-3.tif
1-0013433-31.tif
1-0013472-2.tif
1-0013472-21.tif
1-0013473-1.tif
1-0013506-2.tif
1-0013585-3.tif
1-0013585-5.tif
1-0013586-2.tif
1-0013616-2.tif
1-0013674-2.tif
1-0013695-2.tif
1-0013701-1.tif
1-0013717-1.tif
1-0013763-3.tif
1-0013795-1.tif
1-0013801-1.tif
1-0013801-11.tif
1-0013801-2.tif
1-0013801-21.tif
1-0013801-1.tif
1-0013806-1.tif
1-0013853-3.tif
1-0013855-2.tif
1-0013888-2.tif
1-0013888-21.tif
1-0013892-2.tif
1-0013896-2.tif
1-0013896-21.tif
1-0013921-2.tif
1-0013921-21.tif
1-0013932-2.tif
1-0013932-21.tif
1-0013946-2.tif
1-0013946-1.tif
1-0013959-2.tif
1-0013976-2.tif
1-0013978-1.tif
1-0014010-2.tif
1-0014010-21.tif
1-0014010-211.tif
1-0014034-2.tif
1-0014034-21.tif
1-0014040-1.tif
1-0014040-5.tif
1-0014040-51.tif
1-0014040-511.tif
1-0014040-6.tif
1-0014040-7.tif
1-0014040-1.tif
1-0014041-2.tif
1-0014041-21.tif