6-0000108-1.tif
6-0000108-2.tif
6-0000108-21.tif
6-0000108-211.tif
6-0000108-4.tif
6-0000127-2.tif
6-0000136-2.tif
6-0000137-2.tif
6-0000143-2.tif
6-0000143-21.tif
6-0000143-211.tif
6-0000144-1.tif
6-0000154-2.tif
6-0000163-2.tif
6-0000172-2.tif
6-0000172-4.tif
6-0000172-4.tif
6-0000177-2.tif
6-0000177-3.tif
6-0000177-31.tif
6-0000180-2.tif
6-0000180-21.tif
6-0000199-1.tif
6-0000201-1.tif
6-0000218-3.tif
6-0000218-31.tif
6-0000235-2.tif
6-0000235-3.tif
6-0000248-2.tif
6-0000248-21.tif
6-0000282-2.tif
6-0000282-21.tif
6-0000283-2.tif
6-0000284-3.tif
6-0000284-31.tif
6-0000300-1.tif
6-0000304-1.tif
6-0000304-1.tif
6-0000305-2.tif
6-0000305-21.tif
6-0000311-2.tif
6-0000327-2.tif
6-0000327-21.tif
6-0000337-2.tif
6-0000354-1.tif
6-0000369-2.tif
6-0000369-5.tif
6-0000369-6.tif
6-0000380-2.tif
6-0000395-2.tif
6-0000399-2.tif
6-00004065-1.tif
6-0000417-2.tif
6-0000435-1.tif
6-0000456-2.tif
6-0000456-3.tif
6-0000456-31.tif
6-0000464-2.tif
6-0000465-2.tif
6-0000471-2.tif
6-0000471-21.tif
6-0000478-2.tif
6-0000509-5.tif
6-0000533-2.tif
6-0000536-2.tif
6-0000541-1.tif
6-0000541-2.tif
6-0000541-3.tif
6-0000541-31.tif
6-0000569-2.tif
6-0000569-21.tif
6-0000585-2.tif
6-0000587-4.tif
6-0000587-5.tif
6-0000588-5.tif
6-0000588-6.tif
6-0000602-1.tif
6-0000603-1.tif
6-0000615-1.tif
6-0000617-2.tif
6-0000628-2.tif
6-0000669-2.tif
6-0000689-1.tif
6-0000689-3.tif
6-0000689-4.tif
6-0000691-2.tif
6-0000703-2.tif
6-0000703-21.tif
6-0000703-3.tif
6-0000712-2.tif
6-0000712-21.tif
6-0000727-2.tif
6-0000727-21.tif
6-0000776-1.tif
6-0000779-2.tif
6-0000811-2.tif
6-0000818-2.tif
6-0000818-21.tif
6-0000859-1.tif
6-0000864-2.tif
6-0000867-2.tif
6-0000867-4.tif
6-0000867-41.tif
6-0000877-2.tif
6-0000877-21.tif
6-0000914-2.tif
6-0000916-2.tif
6-0000917-2.tif
6-0000919-1.tif
6-0000930-2.tif
6-0000930-21.tif
6-0000934-2.tif
6-0000934-21.tif
6-0000935-2.tif
6-0000950-2.tif
6-0000951-2.tif
6-0000962-3.tif
6-0000962-31.tif
6-0000964-2.tif
6-0001003-2.tif
6-0001003-21.tif
6-0001012-1.tif
6-0001044-1.tif
6-0001044-11.tif
6-0001080-2.tif
6-0001092-2.tif
6-0001117-1.tif
6-0001117-3.tif
6-0001117-31.tif
6-0001143-1.tif
6-0001144-1.tif
6-0001144-11.tif
6-0001186-1.tif
6-0001186-2.tif
6-0001203-2.tif
6-0001237-4.tif
6-0001243-2.tif
6-0001251-2.tif
6-0001323-2.tif
6-0001325-2.tif
6-0001329-2.tif
6-0001331-1.tif
6-0001331-11.tif
6-0001331-2.tif
6-0001331-21.tif
6-0001349-1.tif
6-0001349-2.tif
6-0001349-3.tif
6-0001422-2.tif
6-0001422-21.tif
6-0001435-2.tif
6-0001445-2.tif
6-0001446-2.tif
6-0001446-21.tif
6-0001467-2.tif
6-0001467-3.tif
6-0001467-31.tif
6-0001467-1.tif
6-0001479-1.tif
6-0001479-11.tif
6-0001479-2.tif
6-0001499-2.tif
6-0001504-3.tif
6-0001505-2.tif
6-0001527-2.tif
6-0001551-2.tif
6-0001570-2.tif
6-0001570-3.tif
6-0001570-31.tif
6-0001570-311.tif
6-0001570-5.tif
6-0001613-2.tif
6-0001682-2.tif
6-0001682-3.tif
6-0001696-2.tif
6-0001696-21.tif
6-0001712-2.tif
6-0001718-2.tif
6-0001718-21.tif
6-0001718-211.tif
6-0001725-4.tif
6-0001725-41.tif
6-0001726-2.tif
6-0001732-2.tif
6-0001765-2.tif
6-0001784-1.tif
6-0001874-2.tif
6-0001885-2.tif
6-0001885-21.tif
6-0001899-5.tif
6-0001899-6.tif
6-0001904-2.tif
6-0001917-2.tif
6-0001923-2.tif
6-0001923-21.tif
6-0001923-211.tif
6-0001927-2.tif
6-0001947-1.tif
6-0001956-1.tif
6-0001956-2.tif
6-0001977-3.tif
6-0001977-31.tif
6-0001991-1.tif
6-0001991-11.tif
6-0001991-3.tif
6-0001996-2.tif
6-0001996-3.tif
6-0002006-2.tif
6-0002006-3.tif
6-0002023-2.tif
6-0002029-2.tif
6-0002030-2.tif
6-0002037-3.tif
6-0002045-1.tif
6-0002061-2.tif
6-0002089-1.tif
6-0002102-1.tif
6-0002119-2.tif
6-0002149-2.tif
6-0002149-21.tif
6-0002167-2.tif
6-0002197-3.tif
6-0002198-1.tif
6-0002198-2.tif
6-0002207-1.tif
6-0002207-20.tif
6-0002207-24.tif
6-0002249-2.tif
6-0002273-1.tif
6-0002286-1.tif
6-0002294-2.tif
6-0002295-2.tif
6-0002295-21.tif
6-0002307-2.tif
6-0002307-21.tif
6-0002308-2.tif
6-0002308-21.tif
6-0002308-3.tif
6-0002311-2.tif
6-0002311-21.tif
6-0002314-2.tif
6-0002314-21.tif
6-0002352-2.tif
6-0002355-2.tif
6-0002358-1.tif
6-0002387-1.tif
6-0002390-2.tif
6-0002414-2.tif
6-0002415-1.tif
6-0002438-1.tif
6-0002447-2.tif
6-0002503-1.tif
6-0002503-2.tif
6-0002503-21.tif
6-0002544-1.tif
6-0002544-11.tif
6-0002554-1.tif
6-0002556-1.tif
6-0002568-1.tif
6-0002568-2.tif
6-0002568-21.tif
6-0002574-1.tif
6-0002575-2.tif
6-0002578-1.tif
6-0002579-2.tif
6-0002593-2.tif
6-0002605-1.tif
6-0002623-1.tif
6-0002634-1.tif
6-0002635-2.tif
6-0002635-4.tif
6-0002635-41.tif
6-0002635-5.tif
6-0002641-1.tif
6-0002663-1.tif
6-0002665-1.tif
6-0002667-1.tif
6-0002668-1.tif
6-0002670-1.tif
6-0002673-1.tif
6-0002677-1.tif
6-0002678-1.tif
6-0002679-1.tif
6-0002681-1.tif
6-0002682-1.tif
6-0002683-1.tif
6-0002684-1.tif
6-0002685-1.tif
6-0002685-2.tif
6-0002685-21.tif
6-0002686-1.tif
6-0002687-1.tif
6-0002688-1.tif
6-0002689-1.tif
6-0002690-1.tif
6-0002691-1.tif
6-0002692-1.tif
6-0002693-1.tif
6-0002695-1.tif
6-0002700-1.tif
6-0002701-1.tif
6-0002702-1.tif
6-0002704-1.tif
6-0002706-1.tif
6-0002712-1.tif
6-0002714-1.tif
6-0002715-1.tif
6-0002717-1.tif
6-0002718-1.tif
6-0002719-1.tif
6-0002720-1.tif
6-0002721-1.tif
6-0002722-1.tif
6-0002723-1.tif
6-0002724-1.tif
6-0002725-1.tif
6-0002726-1.tif
6-0002727-1.tif
6-0002730-1.tif
6-0002731-1.tif
6-0002731-2.tif
6-0002732-1.tif
6-0002733-1.tif
6-0002734-1.tif
6-0002735-1.tif
6-0002736-1.tif
6-0002737-1.tif
6-0002738-1.tif
6-0002741-1.tif
6-0002741-2.tif
6-0002744-1.tif
6-0002745-1.tif
6-0002745-2.tif
6-0002745-21.tif
6-0002746-1.tif
6-0002747-1.tif
6-0002748-1.tif
6-0002749-1.tif
6-0002751-1.tif
6-0002752-1.tif
6-0002756-2.tif
6-0002756-21.tif
6-0002757-1.tif
6-0002758-1.tif
6-0002759-1.tif
6-0002761-1.tif
6-0002763-1.tif
6-0002764-1.tif
6-0002765-1.tif
6-0002765-11.tif
6-0002766-1.tif
6-0002767-1.tif
6-0002769-1.tif
6-0002770-1.tif
6-0002771-1.tif
6-0002772-1.tif
6-0002773-1.tif
6-0002774-1.tif
6-0002775-1.tif
6-0002776-1.tif
6-0002778-1.tif
6-0002782-1.tif
6-0002783-1.tif
6-0002784-1.tif
6-0002787-1.tif
6-0002788-1.tif
6-0002789-1.tif
6-0002790-1.tif
6-0002792-1.tif
6-0002793-1.tif
6-0002794-1.tif
6-0002795-1.tif
6-0002796-1.tif
6-0002797-1.tif
6-0002798-1.tif
6-0002799-1.tif
6-0002800-1.tif
6-0002801-1.tif
6-0002802-1.tif
6-0002803-1.tif
6-0002804-1.tif
6-0002805-1.tif
6-0002807-1.tif
6-0002808-1.tif
6-0002809-1.tif
6-0002810-1.tif
6-0002811-1.tif
6-0002812-1.tif
6-0002813-1.tif
6-0002814-1.tif
6-0002815-1.tif
6-0002816-1.tif
6-0002816-11.tif
6-0002817-1.tif
6-0002818-1.tif
6-0002820-1.tif
6-0002821-1.tif
6-0002822-1.tif
6-0002823-1.tif
6-0002824-1.tif
6-0002825-1.tif
6-0002826-1.tif
6-0002828-1.tif
6-0002828-2.tif
6-0002829-1.tif
6-0002830-1.tif
6-0002833-1.tif
6-0002834-1.tif
6-0002835-1.tif
6-0002837-1.tif
6-0002837-2.tif
6-0002838-1.tif
6-0002839-1.tif
6-0002841-1.tif
6-0002844-1.tif
6-0002846-1.tif
6-0002847-1.tif
6-0002848-1.tif
6-0002849-1.tif
6-0002850-1.tif
6-0002851-1.tif
6-0002853-1.tif
6-0002853-2.tif
6-0002856-1.tif
6-0002857-1.tif
6-0002858-1.tif
6-0002859-1.tif
6-0002860-1.tif
6-0002860-2.tif
6-0002861-1.tif
6-0002861-2.tif
6-0002861-21.tif
6-0002863-1.tif
6-0002864-1.tif
6-0002866-1.tif
6-0002867-1.tif
6-0002867-11.tif
6-0002868-1.tif
6-0002871-1.tif
6-0002872-1.tif
6-0002874-1.tif
6-0002875-1.tif
6-0002876-1.tif
6-0002877-1.tif
6-0002878-1.tif
6-0002879-1.tif
6-0002880-1.tif
6-0002881-1.tif
6-0002883-1.tif
6-0002883-2.tif
6-0002883-21.tif
6-0002884-1.tif
6-0002885-1.tif
6-0002885-2.tif
6-0002885-3.tif
6-0002885-31.tif
6-0002887-1.tif
6-0002888-1.tif
6-0002889-1.tif
6-0002890-1.tif
6-0002891-1.tif
6-0002893-1.tif
6-0002893-11.tif
6-0002894-1.tif
6-0002895-1.tif
6-0002896-1.tif
6-0002898-1.tif
6-0002899-1.tif
6-0002900-1.tif
6-0002901-1.tif
6-0002902-1.tif
6-0002903-1.tif
6-0002904-1.tif
6-0002906-1.tif
6-0002908-1.tif
6-0002908-2.tif
6-0002910-1.tif
6-0002911-1.tif
6-0002913-1.tif
6-0002914-1.tif
6-0002917-1.tif
6-0002918-1.tif
6-0002920-1.tif
6-0002922-1.tif
6-0002923-1.tif
6-0002924-1.tif
6-0002925-1.tif
6-0002926-1.tif
6-0002927-1.tif
6-0002928-1.tif
6-0002930-1.tif
6-0002930-2.tif
6-0002931-1.tif
6-0002932-1.tif
6-0002936-1.tif
6-0002937-1.tif
6-0002938-1.tif
6-0002939-1.tif
6-0002940-1.tif
6-0002941-1.tif
6-0002942-1.tif
6-0002943-1.tif
6-0002944-1.tif
6-0002946-1.tif
6-0002947-1.tif
6-0002948-1.tif
6-0002949-1.tif
6-0002950-1.tif
6-0002951-1.tif
6-0002952-1.tif
6-0002953-1.tif
6-0002954-1.tif
6-0002955-1.tif
6-0002956-1.tif
6-0002957-1.tif
6-0002958-1.tif
6-0002960-1.tif
6-0002961-1.tif
6-0002961-2.tif
6-0002962-1.tif
6-0002963-1.tif
6-0002965-1.tif
6-0002966-1.tif
6-0002968-1.tif
6-0002969-1.tif
6-0002970-1.tif
6-0002972-1.tif
6-0002975-1.tif
6-0002976-1.tif
6-0002978-1.tif
6-0002980-1.tif
6-0002981-1.tif
6-0002981-11.tif
6-0002982-1.tif
6-0002984-1.tif
6-0002986-1.tif
6-0002987-1.tif
6-0002988-2.tif
6-0002989-1.tif
6-0002990-1.tif
6-0002992-1.tif
6-0002994-1.tif
6-0002995-1.tif
6-0002997-1.tif
6-0002998-1.tif
6-0002999-1.tif
6-0003000-1.tif
6-0003001-1.tif
6-0003002-1.tif
6-0003003-1.tif
6-0003006-1.tif
6-0003007-1.tif
6-0003008-1.tif
6-0003009-1.tif
6-0003012-1.tif
6-0003013-1.tif
6-0003016-1.tif
6-0003018-1.tif
6-0003019-1.tif
6-0003020-1.tif
6-0003021-1.tif
6-0003022-1.tif
6-0003023-1.tif
6-0003026-1.tif
6-0003028-1.tif
6-0003029-1.tif
6-0003030-1.tif
6-0003032-1.tif
6-0003033-1.tif
6-0003036-1.tif
6-0003037-1.tif
6-0003039-1.tif
6-0003040-1.tif
6-0003041-1.tif
6-0003044-1.tif
6-0003047-1.tif
6-0003048-1.tif
6-0003049-1.tif
6-0003050-1.tif
6-0003051-2.tif
6-0003051-1.tif
6-0003052-1.tif
6-0003053-1.tif
6-0003054-1.tif
6-0003055-1.tif
6-0003056-1.tif
6-0003057-1.tif
6-0003058-1.tif
6-0003059-1.tif
6-0003061-1.tif
6-0003062-1.tif
6-0003063-1.tif
6-0003064-1.tif
6-0003065-2.tif
6-0003067-1.tif
6-0003068-1.tif
6-0003070-1.tif
6-0003070-11.tif
6-0003071-1.tif
6-0003072-1.tif
6-0003074-1.tif
6-0003075-1.tif
6-0003076-1.tif
6-0003079-1.tif
6-0003080-1.tif
6-0003081-1.tif
6-0003082-1.tif
6-0003082-2.tif
6-0003083-1.tif
6-0003084-1.tif
6-0003086-1.tif
6-0003087-1.tif
6-0003088-2.tif
6-0003088-3.tif
6-0003090-1.tif
6-0003091-1.tif
6-0003095-1.tif
6-0003096-1.tif
6-0003096-2.tif
6-0003097-1.tif
6-0003098-1.tif
6-0003099-1.tif
6-0003100-1.tif
6-0003101-1.tif
6-0003101-11.tif
6-0003103-1.tif
6-0003104-1.tif
6-0003106-1.tif
6-0003107-1.tif
6-0003108-1.tif
6-0003108-1.tif
6-0003108-11.tif
6-0003108-2.tif
6-0003108-4.tif
6-0003109-1.tif
6-0003110-1.tif
6-0003111-1.tif
6-0003112-1.tif
6-0003113-1.tif
6-0003115-1.tif
6-0003116-1.tif
6-0003117-1.tif
6-0003118-1.tif
6-0003119-1.tif
6-0003120-1.tif
6-0003121-1.tif
6-0003122-1.tif
6-0003123-1.tif
6-0003124-1.tif
6-0003127-1.tif
6-0003129-1.tif
6-0003130-1.tif
6-0003132-1.tif
6-0003134-1.tif
6-0003135-1.tif
6-0003137-1.tif
6-0003138-1.tif
6-0003139-1.tif
6-0003142-1.tif
6-0003143-1.tif
6-0003145-1.tif
6-0003146-1.tif
6-0003148-1.tif
6-0003149-1.tif
6-0003155-1.tif
6-0003158-1.tif
6-0003163-1.tif
6-0003164-1.tif
6-0003165-1.tif
6-0003168-1.tif
6-0003172-1.tif
6-0003181-1.tif
6-0003182-1.tif
6-0003185-1.tif
6-0003188-1.tif
6-0003190-1.tif
6-0003190-11.tif
6-0003191-1.tif
6-0003192-1.tif
6-0003194-1.tif
6-0003195-1.tif
6-0003197-1.tif
6-0003198-1.tif
6-0003199-1.tif
6-0003200-1.tif
6-0003201-1.tif
6-0003201-2.tif
6-0003202-1.tif
6-0003204-1.tif
6-0003205-1.tif
6-0003207-1.tif
6-0003208-1.tif
6-0003209-1.tif
6-0003210-1.tif
6-0003211-1.tif
6-0003211-11.tif
6-0003212-1.tif
6-0003213-1.tif
6-0003214-1.tif
6-0003217-1.tif
6-0003218-1.tif
6-0003219-1.tif
6-0003220-1.tif
6-0003221-1.tif
6-0003222-1.tif
6-0003223-1.tif
6-0003224-1.tif
6-0003225-1.tif
6-0003226-2.tif
6-0003227-1.tif
6-0003227-2.tif
6-0003227-21.tif
6-0003228-1.tif
6-0003228-1.tif
6-0003229-1.tif
6-0003230-1.tif
6-0003231-1.tif
6-0003233-1.tif
6-0003234-1.tif
6-0003237-1.tif
6-0003238-1.tif
6-0003239-1.tif
6-0003240-1.tif
6-0003241-1.tif
6-0003241-1.tif
6-0003243-1.tif
6-0003244-1.tif
6-0003245-1.tif
6-0003245-11.tif
6-0003247-1.tif
6-0003248-1.tif
6-0003251-1.tif
6-0003252-1.tif
6-0003253-1.tif
6-0003254-1.tif
6-0003255-1.tif
6-0003256-1.tif
6-0003256-1.tif
6-0003257-1.tif
6-0003258-1.tif
6-0003261-1.tif
6-0003263-1.tif
6-0003265-1.tif
6-0003267-1.tif
6-0003268-1.tif
6-0003270-1.tif
6-0003271-1.tif
6-0003272-1.tif
6-0003273-1.tif
6-0003274-1.tif
6-0003278-1.tif
6-0003279-1.tif
6-0003281-1.tif
6-0003283-1.tif
6-0003284-1.tif
6-0003284-2.tif
6-0003285-1.tif
6-0003286-1.tif
6-0003287-1.tif
6-0003290-1.tif
6-0003290-2.tif
6-0003291-1.tif
6-0003292-1.tif
6-0003293-1.tif
6-0003294-1.tif
6-0003295-1.tif
6-0003297-1.tif
6-0003298-1.tif
6-0003300-1.tif
6-0003301-1.tif
6-0003302-1.tif
6-0003303-1.tif
6-0003304-1.tif
6-0003305-1.tif
6-0003307-1.tif
6-0003308-1.tif
6-0003309-1.tif
6-0003310-1.tif
6-0003311-1.tif
6-0003312-1.tif
6-0003314-1.tif
6-0003316-1.tif
6-0003317-1.tif
6-0003318-1.tif
6-0003319-1.tif
6-0003320-1.tif
6-0003321-1.tif
6-0003321-11.tif
6-0003323-1.tif
6-0003324-1.tif
6-0003327-1.tif
6-0003328-1.tif
6-0003329-1.tif
6-0003332-1.tif
6-0003334-1.tif
6-0003335-1.tif
6-0003336-1.tif
6-0003337-1.tif
6-0003338-1.tif
6-0003340-1.tif
6-0003341-1.tif
6-0003342-1.tif
6-0003342-11.tif
6-0003343-1.tif
6-0003343-2.tif
6-0003344-1.tif
6-0003344-2.tif
6-0003345-1.tif
6-0003346-1.tif
6-0003346-11.tif
6-0003346-2.tif
6-0003346-4.tif
6-0003346-41.tif
6-0003347-1.tif
6-0003347-3.tif
6-0003347-5.tif
6-0003347-51.tif
6-0003347-6.tif
6-0003347-61.tif
6-0003348-1.tif
6-0003348-2.tif
6-0003348-4.tif
6-0003348-41.tif
6-0003348-5.tif
6-0003348-51.tif
6-0003349-1.tif
6-0003350-1.tif
6-0003351-1.tif
6-0003352-1.tif
6-0003353-1.tif
6-0003355-1.tif
6-0003356-1.tif
6-0003357-1.tif
6-0003358-1.tif
6-0003359-1.tif
6-0003363-1.tif
6-0003364-1.tif
6-0003365-1.tif
6-0003366-1.tif
6-0003367-1.tif
6-0003368-1.tif
6-0003369-1.tif
6-0003371-1.tif
6-0003373-1.tif
6-0003375-1.tif
6-0003376-1.tif
6-0003378-1.tif
6-0003379-1.tif
6-0003379-1.tif
6-0003380-1.tif
6-0003380-2.tif
6-0003380-21.tif
6-0003381-1.tif
6-0003381-1.tif
6-0003383-1.tif
6-0003384-1.tif
6-0003385-1.tif
6-0003385-1.tif
6-0003386-1.tif
6-0003387-1.tif
6-0003388-1.tif
6-0003389-1.tif
6-0003390-1.tif
6-0003392-1.tif
6-0003394-1.tif
6-0003395-1.tif
6-0003396-1.tif
6-0003399-1.tif
6-0003400-1.tif
6-0003400-11.tif
6-0003401-1.tif
6-0003403-1.tif
6-0003405-1.tif
6-0003405-2.tif
6-0003406-1.tif
6-0003407-1.tif
6-0003408-1.tif
6-0003409-1.tif
6-0003410-1.tif
6-0003410-2.tif
6-0003410-21.tif
6-0003411-1.tif
6-0003412-1.tif
6-0003413-1.tif
6-0003414-1.tif
6-0003415-1.tif
6-0003415-2.tif
6-0003415-21.tif
6-0003415-211.tif
6-0003416-1.tif
6-0003417-1.tif
6-0003418-1.tif
6-0003419-1.tif
6-0003420-1.tif
6-0003421-1.tif
6-0003422-1.tif
6-0003423-1.tif
6-0003424-1.tif
6-0003425-1.tif
6-0003425-1.tif
6-0003426-1.tif
6-0003426-1.tif
6-0003427-1.tif
6-0003428-1.tif
6-0003431-1.tif
6-0003432-1.tif
6-0003433-1.tif
6-0003437-1.tif
6-0003438-1.tif
6-0003439-1.tif
6-0003440-1.tif
6-0003441-1.tif
6-0003442-1.tif
6-0003444-1.tif
6-0003446-1.tif
6-0003447-1.tif
6-0003451-1.tif
6-0003452-1.tif
6-0003453-1.tif
6-0003454-1.tif
6-0003456-1.tif
6-0003457-1.tif
6-0003459-1.tif
6-0003460-1.tif
6-0003461-1.tif
6-0003463-1.tif
6-0003464-1.tif
6-0003465-1.tif
6-0003466-1.tif
6-0003467-1.tif
6-0003468-1.tif
6-0003470-1.tif
6-0003471-1.tif
6-0003472-1.tif
6-0003472-11.tif
6-0003473-1.tif
6-0003474-1.tif
6-0003475-1.tif
6-0003476-1.tif
6-0003477-1.tif
6-0003478-1.tif
6-0003479-1.tif
6-0003481-1.tif
6-0003482-1.tif
6-0003483-1.tif
6-0003484-1.tif
6-0003485-1.tif
6-0003486-1.tif
6-0003488-1.tif
6-0003489-1.tif
6-0003490-1.tif
6-0003491-1.tif
6-0003493-1.tif
6-0003494-1.tif
6-0003495-1.tif
6-0003496-1.tif
6-0003497-1.tif
6-0003499-1.tif
6-0003502-1.tif
6-0003503-1.tif
6-0003504-1.tif
6-0003505-1.tif
6-0003506-1.tif
6-0003508-1.tif
6-0003509-1.tif
6-0003510-1.tif
6-0003511-10.tif
6-0003513-1.tif
6-0003514-1.tif
6-0003515-1.tif
6-0003515-11.tif
6-0003516-1.tif
6-0003518-1.tif
6-0003519-1.tif
6-0003520-1.tif
6-0003522-1.tif
6-0003523-1.tif
6-0003523-1.tif
6-0003524-1.tif
6-0003525-1.tif
6-0003526-1.tif
6-0003527-1.tif
6-0003529-1.tif
6-0003530-1.tif
6-0003531-1.tif
6-0003532-1.tif
6-0003533-1.tif
6-0003534-1.tif
6-0003534-11.tif
6-0003535-1.tif
6-00035363-1.tif
6-0003537-1.tif
6-0003538-1.tif
6-0003539-1.tif
6-0003542-1.tif
6-0003543-1.tif
6-0003547-1.tif
6-0003550-1.tif
6-0003552-1.tif
6-0003553-1.tif
6-0003554-1.tif
6-0003555-1.tif
6-0003556-1.tif
6-0003557-1.tif
6-0003559-1.tif
6-0003562-1.tif
6-0003563-1.tif
6-0003563-1.tif
6-0003564-1.tif
6-0003565-1.tif
6-0003566-1.tif
6-0003568-1.tif
6-0003569-1.tif
6-0003570-1.tif
6-0003572-1.tif
6-0003574-1.tif
6-0003576-1.tif
6-0003577-1.tif
6-0003578-1.tif
6-0003579-1.tif
6-0003580-1.tif
6-0003581-1.tif
6-0003582-1.tif
6-0003583-1.tif
6-0003584-1.tif
6-0003585-1.tif
6-0003586-1.tif
6-0003587-1.tif
6-0003589-1.tif
6-0003590-1.tif
6-0003593-1.tif
6-0003595-1.tif
6-0003596-1.tif
6-0003596-11.tif
6-0003597-1.tif
6-0003599-1.tif
6-0003601-1.tif
6-0003602-1.tif
6-0003603-1.tif
6-0003604-1.tif
6-0003605-1.tif
6-0003606-1.tif
6-0003607-1.tif
6-0003609-1.tif
6-0003611-1.tif
6-0003612-1.tif
6-0003615-1.tif
6-0003616-1.tif
6-0003617-1.tif
6-0003618-1.tif
6-0003619-1.tif
6-0003620-1.tif
6-0003621-2.tif
6-0003623-1.tif
6-0003624-1.tif
6-0003627-1.tif
6-0003628-2.tif
6-0003629-1.tif
6-0003630-1.tif
6-0003631-1.tif
6-0003632-1.tif
6-0003634-1.tif
6-0003635-1.tif
6-0003636-1.tif
6-0003637-1.tif
6-0003638-1.tif
6-0003638-11.tif
6-0003639-1.tif
6-0003642-1.tif
6-0003643-1.tif
6-0003645-1.tif
6-0003647-1.tif
6-0003649-1.tif
6-0003651-1.tif
6-0003652-1.tif
6-0003653-1.tif
6-0003655-1.tif
6-0003656-1.tif
6-0003658-1.tif
6-0003660-1.tif
6-0003661-1.tif
6-0003662-1.tif
6-0003663-1.tif
6-0003665-1.tif
6-0003666-1.tif
6-0003667-1.tif
6-0003669-1.tif
6-0003670-1.tif
6-0003672-1.tif
6-0003673-1.tif
6-0003674-1.tif
6-0003674-2.tif
6-0003675-1.tif
6-0003675-1.tif
6-0003676-1.tif
6-0003677-1.tif
6-0003678-1.tif
6-0003679-1.tif
6-0003680-1.tif
6-0003681-1.tif
6-0003682-1.tif
6-0003683-1.tif
6-0003683-2.tif
6-0003685-1.tif
6-0003686-1.tif
6-0003686-11.tif
6-0003688-1.tif
6-0003689-1.tif
6-0003690-1.tif
6-0003691-1.tif
6-0003692-1.tif
6-0003695-1.tif
6-0003697-1.tif
6-0003698-1.tif
6-0003699-1.tif
6-0003700-1.tif
6-0003701-1.tif
6-0003702-1.tif
6-0003703-1.tif
6-0003705-1.tif
6-0003706-1.tif
6-0003707-1.tif
6-0003708-1.tif
6-0003709-1.tif
6-0003710-1.tif
6-0003710-2.tif
6-0003710-3.tif
6-0003711-1.tif
6-0003712-1.tif
6-0003713-1.tif
6-0003714-1.tif
6-0003716-1.tif
6-0003718-1.tif
6-0003720-1.tif
6-0003722-1.tif
6-0003723-1.tif
6-0003724-1.tif
6-0003725-1.tif
6-0003727-1.tif
6-0003727-2.tif
6-0003728-1.tif
6-0003728-11.tif
6-0003729-1.tif
6-0003731-1.tif
6-0003732-1.tif
6-0003733-1.tif
6-0003734-1.tif
6-0003735-1.tif
6-0003736-1.tif
6-0003739-1.tif
6-0003740-1.tif
6-0003741-1.tif
6-0003743-1.tif
6-0003744-1.tif
6-0003746-1.tif
6-0003747-1.tif
6-0003748-1.tif
6-0003753-1.tif
6-0003756-1.tif
6-0003758-1.tif
6-0003759-1.tif
6-0003760-1.tif
6-0003761-1.tif
6-0003762-1.tif
6-0003764-1.tif
6-0003766-1.tif
6-0003768-1.tif
6-0003770-1.tif
6-0003771-1.tif
6-0003774-1.tif
6-0003775-1.tif
6-0003776-1.tif
6-0003777-1.tif
6-0003778-1.tif
6-0003779-1.tif
6-0003780-1.tif
6-0003780-11.tif
6-0003781-1.tif
6-0003781-11.tif
6-0003782-1.tif
6-0003783-1.tif
6-0003784-1.tif
6-0003785-1.tif
6-0003786-1.tif
6-0003786-11.tif
6-0003787-1.tif
6-0003788-1.tif
6-0003789-1.tif
6-0003792-1.tif
6-0003794-1.tif
6-0003797-1.tif
6-0003798-1.tif
6-0003799-1.tif
6-0003801-1.tif
6-0003803-1.tif
6-0003806-1.tif
6-0003807-1.tif
6-0003808-1.tif
6-0003809-1.tif
6-0003810-1.tif
6-0003811-1.tif
6-0003813-1.tif
6-0003814-1.tif
6-0003815-1.tif
6-0003816-1.tif
6-0003817-1.tif
6-0003818-1.tif
6-0003819-1.tif
6-0003821-1.tif
6-0003823-1.tif
6-0003826-1.tif
6-0003827-1.tif
6-0003828-1.tif
6-0003828-10.tif
6-0003828-10.tif
6-0003828-11.tif
6-0003828-111.tif
6-0003828-12.tif
6-0003828-13.tif
6-0003828-13.tif
6-0003828-14.tif
6-0003829-1.tif
6-0003830-1.tif
6-0003831-1.tif
6-0003832-1.tif
6-0003833-1.tif
6-0003835-1.tif
6-0003836-1.tif
6-0003838-1.tif
6-0003839-1.tif
6-0003840-1.tif
6-0003841-1.tif
6-0003841-11.tif
6-0003842-1.tif
6-0003843-1.tif
6-0003844-1.tif
6-0003845-1.tif
6-0003846-1.tif
6-0003847-1.tif
6-0003848-1.tif
6-0003852-1.tif
6-0003858-1.tif
6-0003859-1.tif
6-0003860-1.tif
6-0003861-1.tif
6-0003862-1.tif
6-0003863-1.tif
6-0003864-1.tif
6-0003865-1.tif
6-0003866-1.tif
6-0003867-1.tif
6-0003868-2.tif
6-0003868-21.tif
6-0003869-1.tif
6-0003870-1.tif
6-0003871-1.tif
6-0003872-1.tif
6-0003873-1.tif
6-0003877-1.tif
6-0003878-1.tif
6-0003880-1.tif
6-0003882-1.tif
6-0003882-2.tif
6-0003882-21.tif
6-0003882-211.tif
6-0003883-2.tif
6-0003883-21.tif
6-0003884-1.tif
6-0003885-1.tif
6-0003886-1.tif
6-0003887-1.tif
6-0003889-1.tif
6-0003890-1.tif
6-0003891-1.tif
6-0003891-1.tif
6-0003891-11.tif
6-0003893-1.tif
6-0003894-1.tif
6-0003896-1.tif
6-0003897-1.tif
6-0003899-1.tif
6-0003900-1.tif
6-0003902-1.tif
6-0003903-1.tif
6-0003904-1.tif
6-0003905-1.tif
6-0003906-1.tif
6-0003907-1.tif
6-0003908-1.tif
6-0003909-1.tif
6-0003911-1.tif
6-0003912-1.tif
6-0003913-1.tif
6-0003914-1.tif
6-0003915-1.tif
6-0003918-1.tif
6-0003919-1.tif
6-0003924-1.tif
6-0003925-1.tif
6-0003926-1.tif
6-0003927-1.tif
6-0003929-1.tif
6-0003931-1.tif
6-0003932-1.tif
6-0003934-1.tif
6-0003935-1.tif
6-0003936-1.tif
6-0003938-1.tif
6-0003940-1.tif
6-0003941-1.tif
6-0003942-1.tif
6-0003942-11.tif
6-0003942-2.tif
6-0003943-1.tif
6-0003945-1.tif
6-0003946-1.tif
6-0003946-2.tif
6-0003946-3.tif
6-0003947-1.tif
6-0003948-1.tif
6-0003950-1.tif
6-0003952-1.tif
6-0003954-1.tif
6-0003955-1.tif
6-0003956-1.tif
6-0003958-1.tif
6-0003959-1.tif
6-0003960-1.tif
6-0003961-1.tif
6-0003962-1.tif
6-0003963-1.tif
6-0003964-1.tif
6-0003965-1.tif
6-0003968-1.tif
6-0003973-1.tif
6-0003974-1.tif
6-0003977-1.tif
6-0003979-1.tif
6-0003980-1.tif
6-0003980-2.tif
6-0003982-1.tif
6-0003983-1.tif
6-0003984-1.tif
6-0003985-1.tif
6-0003986-1.tif
6-0003987-1.tif
6-0003988-1.tif
6-0003991-1.tif
6-0003991-11.tif
6-0003992-1.tif
6-0003993-1.tif
6-0003994-1.tif
6-0003996-1.tif
6-0004002-1.tif
6-0004002-11.tif
6-0004003-1.tif
6-0004004-1.tif
6-0004007-1.tif
6-0004008-1.tif
6-0004009-1.tif
6-0004010-1.tif
6-0004010-2.tif
6-0004012-1.tif
6-0004013-1.tif
6-0004014-1.tif
6-0004015-1.tif
6-0004016-1.tif
6-0004017-1.tif
6-0004018-1.tif
6-0004019-1.tif
6-0004020-1.tif
6-0004021-1.tif
6-0004022-1.tif
6-0004023-1.tif
6-0004023-2.tif
6-0004025-1.tif
6-0004026-1.tif
6-0004027-1.tif
6-0004028-1.tif
6-0004029-1.tif
6-0004030-1.tif
6-0004033-1.tif
6-0004034-1.tif
6-0004035-1.tif
6-0004036-1.tif
6-0004037-1.tif
6-0004038-1.tif
6-0004039-1.tif
6-0004042-1.tif
6-0004042-2.tif
6-0004042-21.tif
6-0004043-1.tif
6-0004044-1.tif
6-0004045-1.tif
6-0004046-1.tif
6-0004047-1.tif
6-0004047-2.tif
6-0004049-1.tif
6-0004050-1.tif
6-0004052-1.tif
6-0004056-1.tif
6-0004057-1.tif
6-0004058-1.tif
6-0004059-1.tif
6-0004060-1.tif
6-0004061-1.tif
6-0004062-1.tif
6-0004063-1.tif
6-0004064-1.tif
6-0004065-1.tif
6-0004066-1.tif
6-0004067-1.tif
6-0004069-1.tif
6-0004070-1.tif
6-0004071-1.tif
6-0004071-11.tif
6-0004073-1.tif
6-0004074-1.tif
6-0004075-1.tif
6-0004076-1.tif
6-0004077-1.tif
6-0004077-11.tif
6-0004078-1.tif
6-0004081-1.tif
6-0004082-1.tif
6-0004084-1.tif
6-0004085-1.tif
6-0004086-1.tif
6-0004087-1.tif
6-0004088-1.tif
6-0004089-1.tif
6-0004090-1.tif
6-0004091-1.tif
6-0004091-2.tif
6-0004092-1.tif
6-0004093-1.tif
6-0004093-11.tif
6-0004096-1.tif
6-0004096-2.tif
6-0004097-1.tif
6-0004098-1.tif
6-0004099-1.tif
6-0004101-2.tif
6-0004101-21.tif
6-0004102-1.tif
6-0004106-1.tif
6-0004106-2.tif
6-0004108-1.tif
6-0004109-1.tif
6-0004110-1.tif
6-0004110-2.tif
6-0004110-3.tif
6-0004110-31.tif
6-0004111-1.tif
6-0004112-1.tif
6-0004114-1.tif
6-0004116-1.tif
6-0004118-1.tif
6-0004119-2.tif
6-0004123-1.tif
6-0004125-1.tif
6-0004126-1.tif
6-0004127-1.tif
6-0004128-1.tif
6-0004129-1.tif
6-0004131-1.tif
6-0004132-1.tif
6-0004133-1.tif
6-0004134-1.tif
6-0004135-1.tif
6-0004136-1.tif
6-0004137-1.tif
6-0004138-2.tif
6-0004139-1.tif
6-0004140-1.tif
6-0004142-1.tif
6-0004143-1.tif
6-0004145-1.tif
6-0004146-1.tif
6-0004147-1.tif
6-0004149-1.tif
6-0004151-1.tif
6-0004154-1.tif
6-0004154-11.tif
6-0004158-1.tif
6-0004160-1.tif
6-0004163-1.tif
6-0004164-1.tif
6-0004165-1.tif
6-0004165-2.tif
6-0004167-1.tif
6-0004171-1.tif
6-0004172-1.tif
6-0004173-1.tif
6-0004174-1.tif
6-0004175-1.tif
6-0004175-2.tif
6-0004177-1.tif
6-0004178-1.tif
6-0004180-2.tif
6-0004181-1.tif
6-0004182-1.tif
6-0004183-1.tif
6-0004184-1.tif
6-0004187-1.tif
6-0004188-1.tif
6-0004192-1.tif
6-0004193-1.tif
6-0004194-1.tif
6-0004195-1.tif
6-0004196-1.tif
6-0004197-1.tif
6-0004198-1.tif
6-0004199-1.tif
6-0004199-1.tif
6-0004200-1.tif
6-0004205-1.tif
6-0004206-1.tif
6-0004212-1.tif
6-0004212-3.tif
6-0004213-1.tif
6-0004215-1.tif
6-0004215-11.tif
6-0004217-1.tif
6-0004218-1.tif
6-0004219-1.tif
6-0004220-1.tif
6-0004222-1.tif
6-0004222-2.tif
6-0004223-1.tif
6-0004224-1.tif
6-0004226-1.tif
6-0004227-1.tif
6-0004227-11.tif
6-0004228-1.tif
6-0004230-1.tif
6-0004231-1.tif
6-0004232-1.tif
6-0004234-1.tif
6-0004235-1.tif
6-0004236-1.tif
6-0004237-1.tif
6-0004240-1.tif
6-0004241-1.tif
6-0004242-1.tif
6-0004246-1.tif
6-0004250-1.tif
6-0004253-1.tif
6-0004254-1.tif
6-0004255-1.tif
6-0004256-1.tif
6-0004259-1.tif
6-0004262-1.tif
6-0004264-1.tif
6-0004265-1.tif
6-0004268-1.tif
6-0004269-1.tif
6-0004270-1.tif
6-0004273-1.tif
6-0004274-1.tif
6-0004275-1.tif
6-0004276-1.tif
6-0004277-1.tif
6-0004277-11.tif
6-0004278-1.tif
6-0004279-1.tif
6-0004280-1.tif
6-0004281-1.tif
6-0004283-1.tif
6-0004284-1.tif
6-0004285-1.tif
6-0004286-1.tif
6-0004288-1.tif
6-0004289-1.tif
6-0004295-1.tif
6-0004296-1.tif
6-0004297-1.tif
6-0004299-1.tif
6-0004301-1.tif
6-0004303-1.tif
6-0004305-1.tif
6-0004306-1.tif
6-0004307-1.tif
6-0004309-1.tif
6-0004310-1.tif
6-0004312-1.tif
6-0004313-1.tif
6-0004314-1.tif
6-0004315-1.tif
6-0004315-11.tif
6-0004316-1.tif
6-0004317-1.tif
6-0004318-1.tif
6-0004319-1.tif
6-0004320-1.tif
6-0004321-1.tif
6-0004321-2.tif
6-0004322-1.tif
6-0004323-1.tif
6-0004323-11.tif
6-0004325-1.tif
6-0004326-1.tif
6-0004327-1.tif
6-0004328-1.tif
6-0004329-1.tif
6-0004331-1.tif
6-0004332-1.tif
6-0004335-1.tif
6-0004336-1.tif
6-0004337-1.tif
6-0004338-1.tif
6-0004339-1.tif
6-0004340-1.tif
6-0004341-1.tif
6-0004344-1.tif
6-0004345-2.tif
6-0004346-1.tif
6-0004350-1.tif
6-0004351-1.tif
6-0004352-1.tif
6-0004353-1.tif
6-0004353-11.tif
6-0004354-1.tif
6-0004354-11.tif
6-0004358-1.tif
6-0004359-1.tif
6-0004360-1.tif
6-0004361-1.tif
6-0004362-1.tif
6-0004364-1.tif
6-0004364-2.tif
6-0004366-1.tif
6-0004367-1.tif
6-0004368-1.tif
6-0004368-2.tif
6-0004368-21.tif
6-0004369-1.tif
6-0004370-1.tif
6-0004374-1.tif
6-0004376-1.tif
6-0004379-1.tif
6-0004381-1.tif
6-0004382-1.tif
6-0004383-1.tif
6-0004384-1.tif
6-0004385-1.tif
6-0004387-1.tif
6-0004388-1.tif
6-0004389-1.tif
6-0004393-1.tif
6-0004394-1.tif
6-0004395-1.tif
6-0004396-1.tif
6-0004397-1.tif
6-0004397-2.tif
6-0004398-1.tif
6-0004399-1.tif
6-0004399-2.tif
6-0004400-1.tif
6-0004401-1.tif
6-0004403-1.tif
6-0004404-1.tif
6-0004406-1.tif
6-0004407-1.tif
6-0004412-1.tif
6-0004413-1.tif
6-0004414-1.tif
6-0004415-1.tif
6-0004416-1.tif
6-0004417-1.tif
6-0004420-1.tif
6-0004421-1.tif
6-0004422-2.tif
6-0004422-21.tif
6-0004424-1.tif
6-0004426-1.tif
6-0004427-1.tif
6-0004428-1.tif
6-0004429-1.tif
6-0004435-1.tif
6-0004436-1.tif
6-0004437-1.tif
6-0004440-1.tif
6-0004440-2.tif
6-0004440-3.tif
6-0004440-31.tif
6-0004441-1.tif
6-0004442-1.tif
6-0004442-2.tif
6-0004443-1.tif
6-0004444-1.tif
6-0004445-1.tif
6-0004446-1.tif
6-0004447-1.tif
6-0004448-1.tif
6-0004451-1.tif
6-0004451-2.tif
6-0004451-21.tif
6-0004452-1.tif
6-0004453-1.tif
6-0004454-1.tif
6-0004455-1.tif
6-0004456-1.tif
6-0004457-1.tif
6-0004458-1.tif
6-0004458-11.tif
6-0004461-1.tif
6-0004464-1.tif
6-0004464-11.tif
6-0004466-1.tif
6-0004467-1.tif
6-0004468-1.tif
6-0004469-1.tif
6-0004471-1.tif
6-0004474-1.tif
6-0004474-11.tif
6-0004476-1.tif
6-0004478-1.tif
6-0004479-1.tif
6-0004481-1.tif
6-0004483-1.tif
6-0004485-2.tif
6-0004486-1.tif
6-0004487-1.tif
6-0004487-11.tif
6-0004489-1.tif
6-0004491-1.tif
6-0004492-1.tif
6-0004492-11.tif
6-0004493-1.tif
6-0004495-1.tif
6-0004496-1.tif
6-0004497-1.tif
6-0004497-11.tif
6-0004497-2.tif
6-0004497-21.tif
6-0004499-1.tif
6-0004501-1.tif
6-0004502-1.tif
6-0004503-1.tif
6-0004504-1.tif
6-0004505-1.tif
6-0004506-1.tif
6-0004507-1.tif
6-0004510-1.tif
6-0004511-1.tif
6-0004512-1.tif
6-0004514-1.tif
6-0004515-1.tif
6-0004516-1.tif
6-0004518-1.tif
6-0004519-1.tif
6-0004520-1.tif
6-0004521-1.tif
6-0004522-1.tif
6-0004523-1.tif
6-0004524-1.tif
6-0004525-1.tif
6-0004526-1.tif
6-0004527-1.tif
6-0004528-1.tif
6-0004529-1.tif
6-0004530-1.tif
6-0004531-1.tif
6-0004531-2.tif
6-0004531-21.tif
6-0004532-1.tif
6-0004534-1.tif
6-0004535-1.tif
6-0004536-1.tif
6-0004537-1.tif
6-0004538-1.tif
6-0004541-1.tif
6-0004543-1.tif
6-0004544-1.tif
6-0004545-1.tif
6-0004546-1.tif
6-0004547-1.tif
6-0004550-1.tif
6-0004551-1.tif
6-0004552-1.tif
6-0004553-1.tif
6-0004554-1.tif
6-0004555-1.tif
6-0004556-1.tif
6-0004558-1.tif
6-0004559-1.tif
6-0004560-1.tif
6-0004560-2.tif
6-0004560-21.tif
6-0004561-1.tif
6-0004562-1.tif
6-0004563-1.tif
6-0004563-2.tif
6-0004563-21.tif
6-0004564-1.tif
6-0004565-1.tif
6-0004566-1.tif
6-0004566-11.tif
6-0004568-1.tif
6-0004569-1.tif
6-0004570-1.tif
6-0004570-11.tif
6-0004572-1.tif
6-0004573-1.tif
6-0004573-2.tif
6-0004573-21.tif
6-0004575-1.tif
6-0004576-1.tif
6-0004578-1.tif
6-0004579-1.tif
6-0004580-1.tif
6-0004581-1.tif
6-0004581-11.tif
6-0004581-2.tif
6-0004581-3.tif
6-0004581-31.tif
6-0004581-6.tif
6-0004582-1.tif
6-0004583-1.tif
6-0004584-1.tif
6-0004585-1.tif
6-0004587-1.tif
6-0004588-1.tif
6-0004590-1.tif
6-0004591-1.tif
6-0004592-1.tif
6-0004593-1.tif
6-0004594-1.tif
6-0004596-1.tif
6-0004597-1.tif
6-0004598-1.tif
6-0004599-1.tif
6-0004600-1.tif
6-0004601-1.tif
6-0004602-1.tif
6-0004603-1.tif
6-0004604-1.tif
6-0004605-1.tif
6-0004605-11.tif
6-0004606-1.tif
6-0004610-1.tif
6-0004611-1.tif
6-0004612-1.tif
6-0004613-1.tif
6-0004614-1.tif
6-0004615-1.tif
6-0004616-1.tif
6-0004617-1.tif
6-0004619-1.tif
6-0004620-1.tif
6-0004621-1.tif
6-0004622-1.tif
6-0004624-2.tif
6-0004626-1.tif
6-0004627-1.tif
6-0004629-1.tif
6-0004630-1.tif
6-0004631-1.tif
6-0004632-1.tif
6-0004633-1.tif
6-0004634-1.tif
6-0004635-1.tif
6-0004636-1.tif
6-0004638-1.tif
6-0004639-1.tif
6-0004640-1.tif
6-0004644-1.tif
6-0004645-1.tif
6-0004646-1.tif
6-0004649-1.tif
6-0004649-11.tif
6-0004652-1.tif
6-0004654-1.tif
6-0004655-1.tif
6-0004656-1.tif
6-0004658-1.tif
6-0004659-1.tif
6-0004660-1.tif
6-0004662-1.tif
6-0004663-1.tif
6-0004663-11.tif
6-0004666-1.tif
6-0004667-1.tif
6-0004670-1.tif
6-0004671-1-1.tif
6-0004671-1.tif
6-0004672-1.tif
6-0004673-1.tif
6-0004674-1.tif
6-0004675-1.tif
6-0004676-1.tif
6-0004677-1.tif
6-0004678-1.tif
6-0004679-1.tif
6-0004681-1.tif
6-0004682-1.tif
6-0004683-1.tif
6-0004684-1.tif
6-0004685-1.tif
6-0004687-1.tif
6-0004688-1.tif
6-0004689-1.tif
6-0004690-1.tif
6-0004691-1.tif
6-0004693-1.tif
6-0004694-1.tif
6-0004695-1.tif
6-0004696-1.tif
6-0004697-1.tif
6-0004697-2.tif
6-0004697-21.tif
6-0004698-1.tif
6-0004699-1.tif
6-0004700-1.tif
6-0004703-1.tif
6-0004704-1.tif
6-0004706-1.tif
6-0004707-1.tif
6-0004708-1.tif
6-0004709-1.tif
6-0004710-2.tif
6-0004712-1.tif
6-0004713-1.tif
6-0004714-1.tif
6-0004715-1.tif
6-0004717-1.tif
6-0004720-1.tif
6-0004720-11.tif
6-0004720-1.tif
6-0004722-1.tif
6-0004724-1.tif
6-0004727-1.tif
6-0004728-1.tif
6-0004729-1.tif
6-0004730-1.tif
6-0004731-1.tif
6-0004732-1.tif
6-0004733-1.tif
6-0004734-1.tif
6-0004735-1.tif
6-0004736-1.tif
6-0004736-11.tif
6-0004737-1.tif
6-0004738-1.tif
6-0004740-1.tif
6-0004742-1.tif
6-0004743-1.tif
6-0004744-1.tif
6-0004746-1.tif
6-0004748-1.tif
6-0004750-1.tif
6-0004751-1.tif
6-0004751-1.tif
6-0004752-1.tif
6-0004753-1.tif
6-0004754-1.tif
6-0004756-1.tif
6-0004757-1.tif
6-0004758-1.tif
6-0004759-1.tif
6-0004760-1.tif
6-0004761-1.tif
6-0004762-1.tif
6-0004764-1.tif
6-0004766-1.tif
6-0004767-1.tif
6-0004768-1.tif
6-0004773-1.tif
6-0004775-1.tif
6-0004776-1.tif
6-0004777-1.tif
6-0004780-1.tif
6-0004782-1.tif
6-0004782-2.tif
6-0004784-1.tif
6-0004785-1.tif
6-0004786-1.tif
6-0004789-1.tif
6-0004792-1.tif
6-0004795-1.tif
6-0004796-1.tif
6-0004797-1.tif
6-0004800-1.tif
6-0004801-1.tif
6-0004802-1.tif
6-0004803-1.tif
6-0004804-1.tif
6-0004806-1.tif
6-0004806-11.tif
6-0004806-2.tif
6-0004807-1.tif
6-0004808-1.tif
6-0004809-1.tif
6-0004810-1.tif
6-0004815-1.tif
6-0004817-1.tif
6-0004818-1.tif
6-0004820-1.tif
6-0004821-1.tif
6-0004824-1.tif
6-0004826-1.tif
6-0004828-1.tif
6-0004829-1.tif
6-0004829-11.tif
6-0004830-1.tif
6-0004831-1.tif
6-0004831-1.tif
6-0004831-2.tif
6-0004833-1.tif
6-0004835-1.tif
6-0004837-1.tif
6-0004838-1.tif
6-0004839-1.tif
6-0004840-1.tif
6-0004842-1.tif
6-0004843-1.tif
6-0004845-1.tif
6-0004846-1.tif
6-0004847-1.tif
6-0004851-1.tif
6-0004852-1.tif
6-0004853-1.tif
6-0004854-1.tif
6-0004855-1.tif
6-0004856-1.tif
6-0004857-1.tif
6-0004858-1.tif
6-0004858-2.tif
6-0004859-1.tif
6-0004860-1.tif
6-0004861-1.tif
6-0004862-1.tif
6-0004862-2.tif
6-0004864-1.tif
6-0004865-1.tif
6-0004866-1.tif
6-0004867-1.tif
6-0004867-2.tif
6-0004869-1.tif
6-0004870-1.tif
6-0004871-1.tif
6-0004872-1.tif
6-0004873-1.tif
6-0004874-1.tif
6-0004875-1.tif
6-0004876-1.tif
6-0004877-1.tif
6-0004878-1.tif
6-0004879-1.tif
6-0004880-1.tif
6-0004883-1.tif
6-0004884-1.tif
6-0004885-1.tif
6-0004887-1.tif
6-0004888-1.tif
6-0004889-1.tif
6-0004890-1.tif
6-0004890-2.tif
6-0004890-3.tif
6-0004891-1.tif
6-0004892-1.tif
6-0004893-1.tif
6-0004896-1.tif
6-0004897-1.tif
6-0004898-1.tif
6-0004899-1.tif
6-0004900-1.tif
6-0004900-2.tif
6-0004901-1.tif
6-0004902-1.tif
6-0004903-1.tif
6-0004905-1.tif
6-0004906-1.tif
6-0004908-1.tif
6-0004909-1.tif
6-0004910-1.tif
6-0004911-1.tif
6-0004914-1.tif
6-0004914-11.tif
6-0004914-2.tif
6-0004915-1.tif
6-0004918-1.tif
6-0004919-1.tif
6-0004920-1.tif
6-0004920-11.tif
6-0004924-1.tif
6-0004926-1.tif
6-0004927-1.tif
6-0004928-1.tif
6-0004930-1.tif
6-0004931-1.tif
6-0004932-1.tif
6-0004933-1.tif
6-0004936-1.tif
6-0004937-1.tif
6-0004938-1.tif
6-0004940-1.tif
6-0004942-1.tif
6-0004943-1.tif
6-0004944-1.tif
6-0004945-1.tif
6-0004946-1.tif
6-0004947-1.tif
6-0004948-1.tif
6-0004950-1.tif
6-0004951-1.tif
6-0004954-1.tif
6-0004955-1.tif
6-0004956-1.tif
6-0004957-1.tif
6-0004959-1.tif
6-0004960-1.tif
6-0004961-1.tif
6-0004962-1.tif
6-0004965-1.tif
6-0004966-1.tif
6-0004968-1.tif
6-0004971-1.tif
6-0004972-1.tif
6-0004974-1.tif
6-0004975-1.tif
6-0004976-1.tif
6-0004977-1.tif
6-0004978-1.tif
6-0004979-1.tif
6-0004980-1.tif
6-0004982-1.tif
6-0004982-2.tif
6-0004982-21.tif
6-0004984-1.tif
6-0004985-1.tif
6-0004987-1.tif
6-0004987-2.tif
6-0004987-21.tif
6-0004989-1.tif
6-0004990-1.tif
6-0004991-1.tif
6-0004991-11.tif
6-0004992-1.tif
6-0004993-1.tif
6-0004995-1.tif
6-0004996-1.tif
6-0004997-1.tif
6-0004998-1.tif
6-0004999-1.tif
6-0005000-1.tif
6-0005001-1.tif
6-0005003-1.tif
6-0005004-1.tif
6-0005005-1.tif
6-0005006-1.tif
6-0005008-1.tif
6-0005008-11.tif
6-0005009-1.tif
6-0005012-1.tif
6-0005013-1.tif
6-0005016-2.tif
6-0005017-1.tif
6-0005018-1.tif
6-0005020-1.tif
6-0005021-1.tif
6-0005024-1.tif
6-0005024-2.tif
6-0005025-1.tif
6-0005026-1.tif
6-0005026-11.tif
6-0005027-1.tif
6-0005028-1.tif
6-0005030-1.tif
6-0005032-1.tif
6-0005032-3.tif
6-0005033-1.tif
6-0005035-1.tif
6-0005037-1.tif
6-0005038-1.tif
6-0005041-1.tif
6-0005043-1.tif
6-0005045-1.tif
6-0005046-1.tif
6-0005046-11.tif
6-0005046-3.tif
6-0005046-4.tif
6-0005047-1.tif
6-0005048-1.tif
6-0005049-1.tif
6-0005051-1.tif
6-0005053-1.tif
6-0005054-1.tif
6-0005055-1.tif
6-0005056-1.tif
6-0005057-1.tif
6-0005059-1.tif
6-0005061-1.tif
6-0005064-1.tif
6-0005065-1.tif
6-0005067-1.tif
6-0005068-1.tif
6-0005071-1.tif
6-0005072-1.tif
6-0005073-1.tif
6-0005074-1.tif
6-0005077-1.tif
6-0005078-1.tif
6-0005078-11.tif
6-0005079-1.tif
6-0005080-1.tif
6-0005081-1.tif
6-0005082-1.tif
6-0005083-1.tif
6-0005084-1.tif
6-0005084-11.tif
6-0005084-2.tif
6-0005084-3.tif
6-0005084-5.tif
6-0005084-51.tif
6-0005084-511.tif
6-0005084-6.tif
6-0005084-61.tif
6-0005084-7.tif
6-0005086-1.tif
6-0005087-1.tif
6-0005088-1.tif
6-0005089-1.tif
6-0005090-1.tif
6-0005091-1.tif
6-0005092-1.tif
6-0005092-11.tif
6-0005093-1.tif
6-0005094-1.tif
6-0005095-1.tif
6-0005098-1.tif
6-0005099-1.tif
6-0005100-1.tif
6-0005101-1.tif
6-0005102-1.tif
6-0005103-1.tif
6-0005106-1.tif
6-0005108-1.tif
6-0005110-1.tif
6-0005111-1.tif
6-0005113-1.tif
6-0005113-2.tif
6-0005115-1.tif
6-0005116-1.tif
6-0005117-1.tif
6-0005118-1.tif
6-0005121-1.tif
6-0005122-2.tif
6-0005124-1.tif
6-0005127-1.tif
6-0005128-1.tif
6-0005129-1.tif
6-0005130-1.tif
6-0005131-1.tif
6-0005132-1.tif
6-0005133-1.tif
6-0005134-1.tif
6-0005135-1.tif
6-0005136-1.tif
6-0005137-1.tif
6-0005138-1.tif
6-0005139-1.tif
6-0005141-1.tif
6-0005142-1.tif
6-0005143-1.tif
6-0005144-1.tif
6-0005145-1.tif
6-0005146-1.tif
6-0005147-1.tif
6-0005149-1.tif
6-0005151-1.tif
6-0005153-1.tif
6-0005156-1.tif
6-0005158-1.tif
6-0005159-1.tif
6-0005160-1.tif
6-0005162-1.tif
6-0005163-1.tif
6-0005164-1.tif
6-0005165-1.tif
6-0005166-1.tif
6-0005167-1.tif
6-0005168-1.tif
6-0005168-11.tif
6-0005170-1.tif
6-0005171-1.tif
6-0005172-1.tif
6-0005173-1.tif
6-0005173-11.tif
6-0005176-1.tif
6-0005177-1.tif
6-0005178-1.tif
6-0005179-1.tif
6-000518-3.tif
6-0005182-1.tif
6-0005183-1.tif
6-0005184-2.tif
6-0005184-21.tif
6-0005185-2.tif
6-0005186-1.tif
6-0005186-11.tif
6-0005187-1.tif
6-0005187-11.tif
6-0005189-1.tif
6-0005190-1.tif
6-0005191-1.tif
6-0005191-1.tif
6-0005192-1.tif
6-0005193-1.tif
6-0005194-1.tif
6-0005195-1.tif
6-0005196-1.tif
6-0005197-1.tif
6-0005199-1.tif
6-0005200-1.tif
6-0005201-1.tif
6-0005201-2.tif
6-0005201-1.tif
6-0005204-1.tif
6-0005205-1.tif
6-0005206-1.tif
6-0005207-1.tif
6-0005207-11.tif
6-0005207-2.tif
6-0005207-21.tif
6-0005208-1.tif
6-0005210-1.tif
6-0005211-1.tif
6-0005213-2.tif
6-0005214-1.tif
6-0005214-2.tif
6-0005214-21.tif
6-0005216-1.tif
6-0005217-1.tif
6-0005217-1.tif
6-0005219-1.tif
6-0005220-1.tif
6-0005221-1.tif
6-0005222-1.tif
6-0005223-1.tif
6-0005224-1.tif
6-0005225-1.tif
6-0005226-1.tif
6-0005227-1.tif
6-0005228-1.tif
6-0005229-1.tif
6-0005230-1.tif
6-0005232-1.tif
6-0005233-1.tif
6-0005234-1.tif
6-0005235-1.tif
6-0005236-1.tif
6-0005237-1.tif
6-0005238-1.tif
6-0005239-1.tif
6-0005240-1.tif
6-0005241-1.tif
6-0005242-1.tif
6-0005242-2.tif
6-0005242-21.tif
6-0005243-1.tif
6-0005251-1.tif
6-0005251-11.tif
6-0005252-1.tif
6-0005253-1.tif
6-0005253-3.tif
6-0005253-4.tif
6-0005254-1.tif
6-0005255-1.tif
6-0005256-1.tif
6-0005257-1.tif
6-0005258-1.tif
6-0005259-1.tif
6-0005260-1.tif
6-0005261-1.tif
6-0005263-1.tif
6-0005264-1.tif
6-0005265-1.tif
6-0005266-1.tif
6-0005268-1.tif
6-0005269-1.tif
6-0005269-2.tif
6-0005269-21.tif
6-0005270-1.tif
6-0005271-1.tif
6-0005272-1.tif
6-0005273-1.tif
6-0005274-1.tif
6-0005275-1.tif
6-0005277-1.tif
6-0005278-1.tif
6-0005279-1.tif
6-0005280-1.tif
6-0005281-1.tif
6-0005282-1.tif
6-0005284-1.tif
6-0005285-1.tif
6-0005288-1.tif
6-0005289-1.tif
6-0005290-1.tif
6-0005291-1.tif
6-0005291-2.tif
6-0005291-21.tif
6-0005294-1.tif
6-0005295-1.tif
6-0005296-1.tif
6-0005297-1.tif
6-0005299-1.tif
6-0005301-1.tif
6-0005302-1.tif
6-0005305-1.tif
6-0005307-1.tif
6-0005307-11.tif
6-0005307-2.tif
6-0005310-1.tif
6-0005310-2.tif
6-0005310-21.tif
6-0005311-1.tif
6-0005312-2.tif
6-0005313-1.tif
6-0005314-1.tif
6-0005315-1.tif
6-0005316-1.tif
6-0005317-1.tif
6-0005319-1.tif
6-0005320-1.tif
6-0005321-1.tif
6-0005323-1.tif
6-0005324-1.tif
6-0005325-1.tif
6-0005326-1.tif
6-0005327-1.tif
6-0005328-1.tif
6-0005330-1.tif
6-0005333-1.tif
6-0005336-1.tif
6-0005339-2.tif
6-0005340-1.tif
6-0005341-1.tif
6-0005342-1.tif
6-0005343-1.tif
6-0005345-1.tif
6-0005345-2.tif
6-0005346-1.tif
6-0005348-1.tif
6-0005349-1.tif
6-0005353-1.tif
6-0005354-1.tif
6-0005356-1.tif
6-0005357-1.tif
6-0005358-1.tif
6-0005360-1.tif
6-0005362-1.tif
6-0005363-1.tif
6-0005364-1.tif
6-0005367-1.tif
6-0005368-1.tif
6-0005368-11.tif
6-0005370-1.tif
6-0005371-1.tif
6-0005372-1.tif
6-0005373-1.tif
6-0005374-1.tif
6-0005376-1.tif
6-0005377-1.tif
6-0005378-1.tif
6-0005379-1.tif
6-0005380-1.tif
6-0005381-1.tif
6-0005382-2.tif
6-0005383-1.tif
6-0005384-1.tif
6-0005385-1.tif
6-0005386-1.tif
6-0005387-1.tif
6-0005388-1.tif
6-0005389-1.tif
6-0005390-2.tif
6-0005390-21.tif
6-0005391-1.tif
6-0005392-1.tif
6-0005394-1.tif
6-0005395-1.tif
6-0005396-1.tif
6-0005397-1.tif
6-0005398-1.tif
6-0005399-1.tif
6-0005400-1.tif
6-0005402-1.tif
6-0005403-1.tif
6-0005405-1.tif
6-0005406-1.tif
6-0005407-1.tif
6-0005409-1.tif
6-0005409-1.tif
6-0005410-1.tif
6-0005411-1.tif
6-0005413-1.tif
6-0005413-11.tif
6-0005414-1.tif
6-0005417-1.tif
6-0005418-1.tif
6-0005420-1.tif
6-0005421-1.tif
6-0005422-1.tif
6-0005423-1.tif
6-0005425-1.tif
6-0005426-1.tif
6-0005427-1.tif
6-0005428-1.tif
6-0005430-1.tif
6-0005431-1.tif
6-0005432-1.tif
6-0005435-1.tif
6-0005437-1.tif
6-0005439-1.tif
6-0005443-1.tif
6-0005444-1.tif
6-0005445-1.tif
6-0005445-2.tif
6-0005445-1.tif
6-0005446-1.tif
6-0005449-1.tif
6-0005450-1.tif
6-0005451-1.tif
6-0005451-11.tif
6-0005452-1.tif
6-0005453-1.tif
6-0005454-1.tif
6-0005454-11.tif
6-0005455-1.tif
6-0005456-1.tif
6-0005457-1.tif
6-0005457-11.tif
6-0005458-1.tif
6-0005459-1.tif
6-0005460-1.tif
6-0005462-1.tif
6-0005463-1.tif
6-0005466-1.tif
6-0005466-2.tif
6-0005466-21.tif
6-0005467-1.tif
6-0005468-1.tif
6-0005469-1.tif
6-0005470-1.tif
6-0005471-1.tif
6-0005473-1.tif
6-0005474-1.tif
6-0005476-1.tif
6-0005477-1.tif
6-0005478-1.tif
6-0005479-1.tif
6-0005480-1.tif
6-0005481-1.tif
6-0005483-1.tif
6-0005484-1.tif
6-0005485-1.tif
6-0005486-1.tif
6-0005487-1.tif
6-0005488-1.tif
6-0005489-1.tif
6-0005491-1.tif
6-0005492-1.tif
6-0005493-1.tif
6-0005495-1.tif
6-0005496-1.tif
6-0005497-1.tif
6-0005499-1.tif
6-0005504-2.tif
6-0005505-1.tif
6-0005506-1.tif
6-0005506-2.tif
6-0005506-21.tif
6-0005508-1.tif
6-0005509-1.tif
6-0005510-1.tif
6-0005511-1.tif
6-0005512-1.tif
6-0005513-1.tif
6-0005514-1.tif
6-0005516-1.tif
6-0005517-1.tif
6-0005518-1.tif
6-0005519-1.tif
6-0005522-1.tif
6-0005522-11.tif
6-0005522-1.tif
6-0005523-1.tif
6-0005524-1.tif
6-0005524-11.tif
6-0005524-111.tif
6-0005525-1.tif
6-0005529-1.tif
6-0005533-1.tif
6-0005534-1.tif
6-0005535-1.tif
6-0005537-1.tif
6-0005538-1.tif
6-0005539-1.tif
6-0005541-1.tif
6-0005543-1.tif
6-0005545-1.tif
6-0005545-2.tif
6-0005547-1.tif
6-0005548-1.tif
6-0005549-1.tif
6-0005550-1.tif
6-0005550-3.tif
6-0005551-1.tif
6-0005551-2.tif
6-0005552-1.tif
6-0005553-1.tif
6-0005554-1.tif
6-0005555-1.tif
6-0005559-1.tif
6-0005560-1.tif
6-0005561-1.tif
6-0005568-1.tif
6-0005569-1.tif
6-0005570-1.tif
6-0005571-1.tif
6-0005572-1.tif
6-0005576-1.tif
6-0005579-1.tif
6-0005580-1.tif
6-0005581-1.tif
6-0005583-1.tif
6-0005583-11.tif
6-0005585-1.tif
6-0005587-1.tif
6-0005588-1.tif
6-0005589-1.tif
6-0005590-1.tif
6-0005592-1.tif
6-0005593-1.tif
6-0005594-1.tif
6-0005595-1.tif
6-0005596-1.tif
6-0005597-1.tif
6-0005600-1.tif
6-0005601-1.tif
6-0005602-1.tif
6-0005603-1.tif
6-0005604-1.tif
6-0005605-1.tif
6-0005606-1.tif
6-0005607-1.tif
6-0005608-1.tif
6-0005609-1.tif
6-0005610-1.tif
6-0005611-1.tif
6-0005612-1.tif
6-0005613-1.tif
6-0005615-1.tif
6-0005617-1.tif
6-0005618-1.tif
6-0005619-1.tif
6-0005620-1.tif
6-0005621-1.tif
6-0005622-1.tif
6-0005623-1.tif
6-0005624-1.tif
6-0005627-1.tif
6-0005628-1.tif
6-0005629-1.tif
6-0005633-1.tif
6-0005634-1.tif
6-0005635-1.tif
6-0005636-1.tif
6-0005638-1.tif
6-0005639-1.tif
6-0005640-1.tif
6-0005642-1.tif
6-0005643-1.tif
6-0005643-1.tif
6-0005644-1.tif
6-0005645-1.tif
6-0005645-2.tif
6-0005646-1.tif
6-0005647-1.tif
6-0005649-1.tif
6-0005649-2.tif
6-0005650-1.tif
6-0005652-1.tif
6-0005654-1.tif
6-0005656-1.tif
6-0005659-1.tif
6-0005660-1.tif
6-0005660-1.tif
6-0005661-1.tif
6-0005662-1.tif
6-0005664-1.tif
6-0005665-1.tif
6-0005666-1.tif
6-0005667-1.tif
6-0005668-1.tif
6-0005669-1.tif
6-000567-1.tif
6-0005672-1.tif
6-0005672-3.tif
6-0005673-1.tif
6-0005674-1.tif
6-0005675-1.tif
6-0005676-1.tif
6-0005677-1.tif
6-0005678-1.tif
6-0005679-1.tif
6-0005681-1.tif
6-0005685-1.tif
6-0005686-1.tif
6-0005687-1.tif
6-0005687-11.tif
6-0005687-111.tif
6-0005687-3.tif
6-0005687-4.tif
6-0005687-41.tif
6-0005687-6.tif
6-0005687-61.tif
6-0005688-1.tif
6-0005690-1.tif
6-0005692-1.tif
6-0005693-1.tif
6-0005696-1.tif
6-0005697-1.tif
6-0005698-1.tif
6-0005699-1.tif
6-0005700-1.tif
6-0005704-1.tif
6-0005705-1.tif
6-0005706-1.tif
6-0005707-1.tif
6-0005707-2.tif
6-0005709-1.tif
6-0005710-1.tif
6-0005714-1.tif
6-0005714-2.tif
6-0005715-1.tif
6-0005716-1.tif
6-0005717-1.tif
6-0005718-1.tif
6-0005719-1.tif
6-0005720-1.tif
6-0005721-1.tif
6-0005722-1.tif
6-0005723-1.tif
6-0005724-1.tif
6-0005726-1.tif
6-0005727-1.tif
6-0005727-11.tif
6-0005728-1.tif
6-0005729-1.tif
6-0005731-1.tif
6-0005732-1.tif
6-0005734-1.tif
6-0005735-1.tif
6-0005738-1.tif
6-0005739-1.tif
6-0005741-1.tif
6-0005743-1.tif
6-0005744-1.tif
6-0005745-1.tif
6-0005746-1.tif
6-0005747-1.tif
6-0005748-1.tif
6-0005748-2.tif
6-0005749-1.tif
6-0005750-1.tif
6-0005751-1.tif
6-0005752-1.tif
6-0005754-1.tif
6-0005755-1.tif
6-0005756-1.tif
6-0005757-1.tif
6-0005761-1.tif
6-0005762-1.tif
6-0005764-1.tif
6-0005766-1.tif
6-0005768-1.tif
6-0005771-1.tif
6-0005772-1.tif
6-0005774-1.tif
6-0005776-1.tif
6-0005777-1.tif
6-0005778-1.tif
6-0005779-1.tif
6-0005782-1.tif
6-0005783-1.tif
6-0005786-1.tif
6-0005786-2.tif
6-0005787-1.tif
6-0005788-1.tif
6-0005789-1.tif
6-0005792-1.tif
6-0005793-1.tif
6-0005796-1.tif
6-0005797-1.tif
6-0005798-2.tif
6-0005798-21.tif
6-0005801-1.tif
6-0005802-1.tif
6-0005803-1.tif
6-0005804-1.tif
6-0005804-11.tif
6-0005805-1.tif
6-0005807-1.tif
6-0005809-1.tif
6-0005810-1.tif
6-0005811-1.tif
6-0005812-1.tif
6-0005814-1.tif
6-0005815-1.tif
6-0005817-1.tif
6-0005818-1.tif
6-0005819-1.tif
6-0005820-1.tif
6-0005823-1.tif
6-0005825-1.tif
6-0005826-1.tif
6-0005828-1.tif
6-0005829-1.tif
6-0005829-2.tif
6-0005829-21.tif
6-0005830-1.tif
6-0005831-1.tif
6-0005832-1.tif
6-0005835-1.tif
6-0005838-1.tif
6-0005839-1.tif
6-0005840-1.tif
6-0005841-1.tif
6-0005844-1.tif
6-0005845-1.tif
6-0005847-1.tif
6-0005848-1.tif
6-0005849-1.tif
6-0005850-1.tif
6-0005851-1.tif
6-0005851-11.tif
6-0005852-1.tif
6-0005853-1.tif
6-0005854-1.tif
6-0005854-11.tif
6-0005855-1.tif
6-0005856-1.tif
6-0005857-1.tif
6-0005858-1.tif
6-0005859-1.tif
6-0005860-1.tif
6-0005861-1.tif
6-0005863-1.tif
6-0005864-1.tif
6-0005865-1.tif
6-0005870-1.tif
6-0005875-1.tif
6-0005877-1.tif
6-0005879-1.tif
6-0005880-1.tif
6-0005881-1.tif
6-0005883-1.tif
6-0005884-1.tif
6-0005885-1.tif
6-0005887-1.tif
6-0005889-1.tif
6-0005890-1.tif
6-0005892-1.tif
6-0005893-1.tif
6-0005894-1.tif
6-0005895-1.tif
6-0005896-1.tif
6-0005897-1.tif
6-0005898-1.tif
6-0005899-1.tif
6-0005902-1.tif
6-0005903-1.tif
6-0005903-2.tif
6-0005904-1.tif
6-0005904-11.tif
6-0005905-1.tif
6-0005907-1.tif
6-0005908-1.tif
6-0005910-1.tif
6-0005912-1.tif
6-0005913-1.tif
6-0005914-1.tif
6-0005915-1.tif
6-0005917-1.tif
6-0005918-1.tif
6-0005921-1.tif
6-0005922-1.tif
6-0005923-1.tif
6-0005928-1.tif
6-0005929-1.tif
6-0005932-1.tif
6-0005932-11.tif
6-0005932-1.tif
6-0005934-1.tif
6-0005935-1.tif
6-0005935-2.tif
6-0005935-21.tif
6-0005936-1.tif
6-0005936-11.tif
6-0005938-1.tif
6-0005939-1.tif
6-0005941-1.tif
6-0005942-1.tif
6-0005943-1.tif
6-0005945-1.tif
6-0005945-11.tif
6-0005947-1.tif
6-0005950-1.tif
6-0005952-1.tif
6-0005953-1.tif
6-0005953-2.tif
6-0005956-1.tif
6-0005957-1.tif
6-0005958-1.tif
6-0005959-1.tif
6-0005960-1.tif
6-0005962-1.tif
6-0005963-1.tif
6-0005965-1.tif
6-0005966-1.tif
6-0005967-1.tif
6-0005968-1.tif
6-0005969-1.tif
6-0005971-1.tif
6-0005973-1.tif
6-0005978-1.tif
6-0005979-1.tif
6-0005984-1.tif
6-0005985-1.tif
6-0005986-1.tif
6-0005987-1.tif
6-0005990-1.tif
6-0005991-1.tif
6-0005995-1.tif
6-0005997-1.tif
6-0005998-1.tif
6-0005999-1.tif
6-0006001-1.tif
6-0006003-1.tif
6-0006003-11.tif
6-0006004-1.tif
6-0006005-1.tif
6-0006008-1.tif
6-0006010-1.tif
6-0006011-1.tif
6-0006012-1.tif
6-0006014-1.tif
6-0006014-11.tif
6-0006015-1.tif
6-0006015-2.tif
6-0006017-1.tif
6-0006018-1.tif
6-0006019-1.tif
6-0006020-1.tif
6-0006023-1.tif
6-0006024-1.tif
6-0006025-1.tif
6-0006027-1.tif
6-0006028-1.tif
6-0006029-1.tif
6-0006030-1.tif
6-0006033-1.tif
6-0006036-1.tif
6-0006037-1.tif
6-0006038-1.tif
6-0006040-1.tif
6-0006041-1.tif
6-0006042-1.tif
6-0006043-1.tif
6-0006046-1.tif
6-0006047-1.tif
6-0006048-1.tif
6-0006049-1.tif
6-0006050-1.tif
6-0006051-1.tif
6-0006052-1.tif
6-0006053-1.tif
6-0006055-1.tif
6-0006056-1.tif
6-0006056-2.tif
6-0006057-1.tif
6-0006058-1.tif
6-0006058-11.tif
6-0006059-1.tif
6-0006060-1.tif
6-0006061-1.tif
6-0006062-1.tif
6-0006063-1.tif
6-0006064-1.tif
6-0006065-1.tif
6-0006066-1.tif
6-0006067-1.tif
6-0006068-1.tif
6-0006071-1.tif
6-0006073-1.tif
6-0006074-1.tif
6-0006076-1.tif
6-0006077-1.tif
6-0006082-1.tif
6-0006084-1.tif
6-0006085-1.tif
6-0006087-1.tif
6-0006088-1.tif
6-0006090-1.tif
6-0006091-1.tif
6-0006092-1.tif
6-0006094-1.tif
6-0006095-1.tif
6-0006096-1.tif
6-0006097-1.tif
6-0006099-1.tif
6-0006100-1.tif
6-0006101-1.tif
6-0006101-11.tif
6-0006102-1.tif
6-0006102-11.tif
6-0006104-1.tif
6-0006106-1.tif
6-0006107-1.tif
6-0006108-1.tif
6-0006109-1.tif
6-0006109-2.tif
6-0006111-1.tif
6-0006112-1.tif
6-0006113-1.tif
6-0006114-1.tif
6-0006115-1.tif
6-0006116-1.tif
6-0006116-2.tif
6-0006117-1.tif
6-0006118-1.tif
6-0006119-1.tif
6-0006120-1.tif
6-0006121-1.tif
6-0006123-1.tif
6-0006124-1.tif
6-0006125-2.tif
6-0006126-1.tif
6-0006127-1.tif
6-0006127-2.tif
6-0006129-1.tif
6-0006130-1.tif
6-0006131-1.tif
6-0006132-1.tif
6-0006133-1.tif
6-0006134-1.tif
6-0006134-2.tif
6-0006135-1.tif
6-0006137-1.tif
6-0006139-1.tif
6-0006142-1.tif
6-0006143-1.tif
6-0006144-1.tif
6-0006145-1.tif
6-0006145-11.tif
6-0006146-1.tif
6-0006147-1.tif
6-0006148-1.tif
6-0006149-1.tif
6-0006150-1.tif
6-0006151-1.tif
6-0006155-1.tif
6-0006156-1.tif
6-0006157-1.tif
6-0006158-1.tif
6-0006158-11.tif
6-0006159-1.tif
6-0006162-1.tif
6-0006164-1.tif
6-0006165-1.tif
6-0006166-1.tif
6-0006167-1.tif
6-0006168-1.tif
6-0006169-1.tif
6-0006170-1.tif
6-0006171-1.tif
6-0006172-1.tif
6-0006173-1.tif
6-0006175-1.tif
6-0006178-1.tif
6-0006180-1.tif
6-0006181-1.tif
6-0006184-1.tif
6-0006185-1.tif
6-0006187-1.tif
6-0006188-1.tif
6-0006188-2.tif
6-0006189-1.tif
6-0006190-1.tif
6-0006191-1.tif
6-0006192-1.tif
6-0006196-1.tif
6-0006197-1.tif
6-0006203-1.tif
6-0006204-1.tif
6-0006206-1.tif
6-0006207-1.tif
6-0006208-1.tif
6-0006210-1.tif
6-0006211-1.tif
6-0006212-1.tif
6-0006213-1.tif
6-0006214-1.tif
6-0006215-1.tif
6-0006216-1.tif
6-0006217-1.tif
6-0006219-1.tif
6-0006220-1.tif
6-0006220-11.tif
6-0006223-1.tif
6-0006224-1.tif
6-0006224-2.tif
6-0006224-3.tif
6-0006224-31.tif
6-0006225-1.tif
6-0006228-1.tif
6-0006229-1.tif
6-0006230-1.tif
6-0006232-1.tif
6-0006233-1.tif
6-0006234-1.tif
6-0006235-1.tif
6-0006236-1.tif
6-0006237-1.tif
6-0006239-1.tif
6-0006242-1.tif
6-0006243-1.tif
6-0006244-1.tif
6-0006244-11.tif
6-0006245-1.tif
6-0006246-1.tif
6-0006247-1.tif
6-0006248-1.tif
6-0006249-1.tif
6-0006250-1.tif
6-0006252-1.tif
6-0006257-1.tif
6-0006258-1.tif
6-0006260-1.tif
6-0006261-1.tif
6-0006262-1.tif
6-0006263-1.tif
6-0006264-1.tif
6-0006265-1.tif
6-0006266-1.tif
6-0006267-1.tif
6-0006268-1.tif
6-0006268-2.tif
6-0006269-1.tif
6-0006270-1.tif
6-0006272-1.tif
6-0006273-1.tif
6-0006274-1.tif
6-0006275-1.tif
6-0006278-1.tif
6-0006279-1.tif
6-0006280-1.tif
6-0006280-11.tif
6-0006281-1.tif
6-0006285-1.tif
6-0006286-1.tif
6-0006287-1.tif
6-0006288-1.tif
6-0006288-2.tif
6-0006288-21.tif
6-0006290-1.tif
6-0006290-2.tif
6-0006291-1.tif
6-0006292-1.tif
6-0006292-2.tif
6-0006294-1.tif
6-0006295-1.tif
6-0006296-1.tif
6-0006297-1.tif
6-0006298-2.tif
6-0006299-1.tif
6-0006300-1.tif
6-0006301-1.tif
6-0006305-1.tif
6-0006307-1.tif
6-0006308-1.tif
6-0006312-1.tif
6-0006313-1.tif
6-0006314-1.tif
6-0006315-1.tif
6-0006316-1.tif
6-0006317-1.tif
6-0006318-1.tif
6-0006319-1.tif
6-0006320-1.tif
6-0006321-1.tif
6-0006322-1.tif
6-0006325-1.tif
6-0006326-1.tif
6-0006326-2.tif
6-0006327-1.tif
6-0006331-1.tif
6-0006332-1.tif
6-0006333-1.tif
6-0006335-1.tif
6-0006337-1.tif
6-0006339-1.tif
6-0006339-11.tif
6-0006340-1.tif
6-0006341-1.tif
6-0006342-1.tif
6-0006343-2.tif
6-0006343-21.tif
6-0006344-1.tif
6-0006346-1.tif
6-0006347-1.tif
6-0006348-1.tif
6-0006350-1.tif
6-0006351-1.tif
6-0006352-1.tif
6-0006353-1.tif
6-0006355-1.tif
6-0006356-1.tif
6-0006357-1.tif
6-0006359-1.tif
6-0006360-1.tif
6-0006361-1.tif
6-0006362-1.tif
6-0006363-1.tif
6-0006365-1.tif
6-0006366-1.tif
6-0006367-1.tif
6-0006368-1.tif
6-0006368-11.tif
6-0006369-1.tif
6-0006370-1.tif
6-0006371-1.tif
6-0006372-1.tif
6-0006373-1.tif
6-0006373-2.tif
6-0006374-1.tif
6-0006374-11.tif
6-0006375-1.tif
6-0006376-1.tif
6-0006378-1.tif
6-0006380-1.tif
6-0006381-1.tif
6-0006382-1.tif
6-0006383-1.tif
6-0006383-2.tif
6-0006384-1.tif
6-0006385-1.tif
6-0006386-1.tif
6-0006388-1.tif
6-0006390-1.tif
6-0006391-1.tif
6-0006392-1.tif
6-0006393-1.tif
6-0006395-1.tif
6-0006396-1.tif
6-0006396-11.tif
6-0006397-1.tif
6-0006399-1.tif
6-0006400-1.tif
6-0006401-1.tif
6-0006402-1.tif
6-0006403-1.tif
6-0006404-1.tif
6-0006406-1.tif
6-0006408-1.tif
6-0006409-1.tif
6-0006410-1.tif
6-0006411-1.tif
6-0006412-1.tif
6-0006413-1.tif
6-0006414-1.tif
6-0006414-11.tif
6-0006415-1.tif
6-0006417-1.tif
6-0006418-1.tif
6-0006419-1.tif
6-0006421-1.tif
6-0006422-1.tif
6-0006423-2.tif
6-0006424-1.tif
6-0006424-2.tif
6-0006426-1.tif
6-0006427-1.tif
6-0006428-1.tif
6-0006429-1.tif
6-0006430-1.tif
6-0006432-1.tif
6-0006433-1.tif
6-0006436-1.tif
6-0006437-1.tif
6-0006438-2.tif
6-0006440-1.tif
6-0006441-1.tif
6-0006442-1.tif
6-0006442-11.tif
6-0006443-1.tif
6-0006444-1.tif
6-0006445-1.tif
6-0006446-1.tif
6-0006447-1.tif
6-0006449-1.tif
6-0006450-1.tif
6-0006452-1.tif
6-0006453-1.tif
6-0006454-1.tif
6-0006455-1.tif
6-0006457-1.tif
6-0006458-1.tif
6-0006459-1.tif
6-0006460-1.tif
6-0006461-1.tif
6-0006462-1.tif
6-0006464-1.tif
6-0006465-1.tif
6-0006467-1.tif
6-0006468-2.tif
6-0006470-1.tif
6-0006471-1.tif
6-0006476-1.tif
6-0006477-1.tif
6-0006478-1.tif
6-0006479-1.tif
6-0006480-1.tif
6-0006481-1.tif
6-0006482-1.tif
6-0006483-1.tif
6-0006484-1.tif
6-0006485-1.tif
6-0006485-2.tif
6-0006486-1.tif
6-0006487-1.tif
6-0006488-1.tif
6-0006489-1.tif
6-0006490-1.tif
6-0006491-1.tif
6-0006493-1.tif
6-0006494-1.tif
6-0006495-1.tif
6-0006496-1.tif
6-0006497-1.tif
6-0006498-1.tif
6-0006499-1.tif
6-0006500-1.tif
6-0006501-1.tif
6-0006502-1.tif
6-0006504-1.tif
6-0006505-1.tif
6-0006510-1.tif
6-0006510-11.tif
6-0006511-1.tif
6-0006511-2.tif
6-0006511-21.tif
6-0006512-1.tif
6-0006513-1.tif
6-0006514-1.tif
6-0006515-1.tif
6-0006518-1.tif
6-0006518-2.tif
6-0006518-4.tif
6-0006518-6.tif
6-0006518-7.tif
6-0006518-71.tif
6-0006519-1.tif
6-0006520-1.tif
6-0006521-1.tif
6-0006522-1.tif
6-0006523-1.tif
6-0006525-1.tif
6-0006526-1.tif
6-0006527-1.tif
6-0006527-2.tif
6-0006528-1.tif
6-0006530-1.tif
6-0006531-1.tif
6-0006534-1.tif
6-0006535-1.tif
6-0006536-1.tif
6-0006537-1.tif
6-0006537-2.tif
6-0006538-1.tif
6-0006539-1.tif
6-0006540-1.tif
6-0006542-1.tif
6-0006544-1.tif
6-0006545-1.tif
6-0006547-1.tif
6-0006549-1.tif
6-0006550-1.tif
6-0006552-1.tif
6-0006553-1.tif
6-0006553-11.tif
6-0006554-1.tif
6-0006555-1.tif
6-0006556-1.tif
6-0006558-1.tif
6-0006558-2.tif
6-0006558-21.tif
6-0006560-1.tif
6-0006561-1.tif
6-0006562-1.tif
6-0006563-2.tif
6-0006564-1.tif
6-0006565-1.tif
6-0006566-1.tif
6-0006569-1.tif
6-0006570-1.tif
6-0006571-1.tif
6-0006572-1.tif
6-0006573-1.tif
6-0006574-5.tif
6-0006576-1.tif
6-0006580-1.tif
6-0006583-1.tif
6-0006584-1.tif
6-0006585-1.tif
6-0006586-1.tif
6-0006587-1.tif
6-0006587-11.tif
6-0006590-1.tif
6-0006591-1.tif
6-0006593-1.tif
6-0006594-1.tif
6-0006595-1.tif
6-0006597-1.tif
6-0006598-1.tif
6-0006599-1.tif
6-0006601-1.tif
6-0006603-1.tif
6-0006604-1.tif
6-0006605-1.tif
6-0006606-1.tif
6-0006607-1.tif
6-0006608-1.tif
6-0006609-1.tif
6-0006610-1.tif
6-0006610-11.tif
6-0006610-2.tif
6-0006611-1.tif
6-0006612-1.tif
6-0006613-1.tif
6-0006614-1.tif
6-0006614-11.tif
6-0006615-1.tif
6-0006616-1.tif
6-0006617-1.tif
6-0006617-2.tif
6-0006618-1.tif
6-0006619-1.tif
6-0006620-1.tif
6-0006621-1.tif
6-0006622-2.tif
6-0006623-1.tif
6-0006624-1.tif
6-0006625-1.tif
6-0006626-1.tif
6-0006627-1.tif
6-0006628-1.tif
6-0006629-1.tif
6-0006630-1.tif
6-0006631-1.tif
6-0006632-1.tif
6-0006632-11.tif
6-0006633-1.tif
6-0006634-1.tif
6-0006635-1.tif
6-0006636-1.tif
6-0006637-1.tif
6-0006638-1.tif
6-0006638-2.tif
6-0006638-21.tif
6-0006639-1.tif
6-0006639-11.tif
6-0006640-1.tif
6-0006641-1.tif
6-0006642-1.tif
6-0006643-1.tif
6-0006644-1.tif
6-0006645-1.tif
6-0006646-1.tif
6-0006647-1.tif
6-0006648-1.tif
6-0006649-1.tif
6-0006650-1.tif
6-0006651-1.tif
6-0006652-1.tif
6-0006653-1.tif
6-0006654-1.tif
6-0006655-1.tif
6-0006656-1.tif
6-0006656-11.tif
6-0006657-1.tif
6-0006658-1.tif
6-0006659-1.tif
6-0006660-1.tif
6-0006661-1.tif
6-0006662-1.tif
6-0006663-1.tif
6-0006663-11.tif
6-0006663-111.tif
6-0006664-1.tif
6-0006665-1.tif
6-0006665-2.tif
6-0006666-1.tif
6-0006667-2.tif
6-0006667-21.tif
6-0006667-211.tif
6-0006668-1.tif
6-0006669-1.tif
6-0006670-1.tif
6-0006671-1.tif
6-0006672-1.tif
6-0006673-1.tif
6-0006674-1.tif
6-0006675-1.tif
6-0006676-1.tif
6-0006677-1.tif
6-0006678-1.tif
6-0006679-1.tif
6-0006680-1.tif
6-0006681-1.tif
6-0006682-1.tif
6-0006683-1.tif
6-0006683-11.tif
6-0006683-2.tif
6-0006683-3.tif
6-0006683-31.tif
6-0006684-1.tif
6-0006685-1.tif
6-0006687-1.tif
6-0006687-11.tif
6-0006688-1.tif
6-0006689-1.tif
6-0006689-11.tif
6-0006690-1.tif
6-0006691-1.tif
6-0006692-1.tif
6-0006693-1.tif
6-0006694-1.tif
6-0006695-1.tif
6-0006695-1.tif
6-0006696-1.tif
6-0006697-1.tif
6-0006698-1.tif
6-0006699-1.tif
6-0006700-1.tif
6-0006700-11.tif
6-0006701-1.tif
6-0006702-1.tif
6-0006703-1.tif
6-0006703-11.tif
6-0006704-1.tif
6-0006705-1.tif
6-0006706-1.tif
6-0006707-1.tif
6-0006708-1.tif
6-0006709-1.tif
6-0006710-1.tif
6-0006710-2.tif
6-0006711-1.tif
6-0006712-1.tif
6-0006713-1.tif
6-0006714-1.tif
6-0006714-11.tif
6-0006715-1.tif
6-0006716-1.tif
6-0006717-1.tif
6-0006719-1.tif
6-0006720-1.tif
6-0006721-1.tif
6-0006722-1.tif
6-0006723-1.tif
6-0006724-1.tif
6-0006725-1.tif
6-0006726-1.tif
6-0006727-1.tif
6-0006728-1.tif
6-0006729-1.tif
6-0006730-1.tif
6-0006731-1.tif
6-0006732-1.tif
6-0006732-2.tif
6-0006732-21.tif
6-0006733-1.tif
6-0006734-1.tif
6-0006735-1.tif
6-0006736-1.tif
6-0006737-1.tif
6-0006738-1.tif
6-0006739-1.tif
6-0006740-1.tif
6-0006741-1.tif
6-0006742-1.tif
6-0006742-2.tif
6-0006742-21.tif
6-0006742-211.tif
6-0006743-1.tif
6-0006744-1.tif
6-0006745-1.tif
6-0006746-1.tif
6-0006747-1.tif
6-0006748-1.tif
6-0006749-1.tif
6-0006750-1.tif
6-0006751-1.tif
6-0006752-1.tif
6-0006752-11.tif
6-0006753-1.tif
6-0006754-1.tif
6-0006755-1.tif
6-0006756-1.tif
6-0006757-1.tif
6-0006758-1.tif
6-0006759-1.tif
6-0006760-1.tif
6-0006761-1.tif
6-0006762-1.tif
6-0006763-1.tif
6-0006764-1.tif
6-0006765-1.tif
6-0006766-1.tif
6-0006767-1.tif
6-0006768-1.tif
6-0006769-1.tif
6-0006770-1.tif
6-0006771-1.tif
6-0006772-1.tif
6-0006773-1.tif
6-0006774-1.tif
6-0006775-1.tif
6-0006776-1.tif
6-0006777-1.tif
6-0006778-1.tif
6-0006779-1.tif
6-0006780-1.tif
6-0006781-1.tif
6-0006782-1.tif
6-0006783-1.tif
6-0006784-1.tif
6-0006785-1.tif
6-0006786-1.tif
6-0006787-1.tif
6-0006789-1.tif
6-0006790-1.tif
6-0006791-1.tif
6-0006792-1.tif
6-0006793-1.tif
6-0006794-1.tif
6-0006795-1.tif
6-0006797-1.tif
6-0006798-1.tif
6-0006799-1.tif
6-0006800-1.tif
6-0006801-1.tif
6-0006801-11.tif
6-0006802-1.tif
6-0006803-1.tif
6-0006804-1.tif
6-0006804-2.tif
6-0006804-21.tif
6-0006804-211.tif
6-0006804-3.tif
6-0006805-1.tif
6-0006806-1.tif
6-0006807-1.tif
6-0006809-1.tif
6-0006810-1.tif
6-0006810-11.tif
6-0006811-1.tif
6-0006812-1.tif
6-0006813-1.tif
6-0006814-1.tif
6-0006815-1.tif
6-0006816-1.tif
6-0006817-1.tif
6-0006818-1.tif
6-0006819-1.tif
6-0006820-1.tif
6-0006821-1.tif
6-0006822-1.tif
6-0006823-1.tif
6-0006824-1.tif
6-0006825-1.tif
6-0006826-1.tif
6-0006827-1.tif
6-0006828-1.tif
6-0006829-1.tif
6-0006830-1.tif
6-0006832-1.tif
6-0006833-1.tif
6-0006834-1.tif
6-0006835-1.tif
6-0006836-1.tif
6-0006837-1.tif
6-0006838-1.tif
6-0006839-1.tif
6-0006840-1.tif
6-0006841-1.tif
6-0006842-1.tif
6-0006843-1.tif
6-0006844-1.tif
6-0006845-1.tif
6-0006846-1.tif
6-0006847-1.tif
6-0006848-1.tif
6-0006849-1.tif
6-0006850-1.tif
6-0006851-1.tif
6-0006852-1.tif
6-0006853-1.tif
6-0006854-1.tif
6-0006855-1.tif
6-0006856-1.tif
6-0006857-1.tif
6-0006858-1.tif
6-0006859-1.tif
6-0006860-1.tif
6-0006861-1.tif
6-0006862-1.tif
6-0006863-1.tif
6-0006864-1.tif
6-0006865-1.tif
6-0006866-1.tif
6-0006870-1.tif
6-0006870-1.tif
6-0006870-1.tif
6-0006871-1.tif
6-0006872-1.tif
6-0006873-1.tif
6-0006875-1.tif
6-0006875-1.tif
6-0006876-1.tif
6-0006877-1.tif
6-0006879-1.tif
6-0006881-1.tif
6-0006882-1.tif
6-0006883-1.tif
6-0006885-1.tif
6-0006885-2.tif
6-0006886-1.tif
6-0006886-2.tif
6-0006886-21.tif
6-0006887-1.tif
6-0006889-1.tif
6-0006890-1.tif
6-0006892-1.tif
6-0006895-1.tif
6-0006896-1.tif
6-0006897-1.tif
6-0006898-1.tif
6-0006899-1.tif
6-0006902-1.tif
6-0006903-1.tif
6-0006904-1.tif
6-0006905-1.tif
6-0006908-1.tif
6-0006909-1.tif
6-0006910-1.tif
6-0006911-1.tif
6-0006912-1.tif
6-0006912-1.tif
6-0006914-1.tif
6-0006915-1.tif
6-0006916-1.tif
6-0006916-1.tif
6-0006917-1.tif
6-0006918-1.tif
6-0006920-1.tif
6-0006922-1.tif
6-0006922-1.tif
6-0006923-1.tif
6-0006924-1.tif
6-0006925-1.tif
6-0006926-1.tif
6-0006927-1.tif
6-0006930-1.tif
6-0006931-1.tif
6-0006933-1.tif
6-0006934-1.tif
6-0006935-1.tif
6-0006935-2.tif
6-0006936-1.tif
6-0006937-1.tif
6-0006938-1.tif
6-0006939-1.tif
6-0006940-1.tif
6-0006941-1.tif
6-0006941-11.tif
6-0006942-1.tif
6-0006944-1.tif
6-0006945-1.tif
6-0006946-1.tif
6-0006947-1.tif
6-0006951-1.tif
6-0006952-1.tif
6-0006953-1.tif
6-0006954-1.tif
6-0006955-1.tif
6-0006957-1.tif
6-0006958-1.tif
6-0006959-1.tif
6-0006959-11.tif
6-0006960-1.tif
6-0006961-1.tif
6-0006962-1.tif
6-0006964-1.tif
6-0006965-1.tif
6-0006965-11.tif
6-0006966-1.tif
6-0006968-1.tif
6-0006969-1.tif
6-0006969-2.tif
6-0006970-1.tif
6-0006970-2.tif
6-0006970-21.tif
6-0006970-1.tif
6-0006971-1.tif
6-0006972-1.tif
6-0006973-1.tif
6-0006974-1.tif
6-0006975-1.tif
6-0006975-2.tif
6-0006975-21.tif
6-0006976-1.tif
6-0006977-1.tif
6-0006978-1.tif
6-0006979-1.tif
6-0006980-1.tif
6-0006981-1.tif
6-0006982-1.tif
6-0006982-2.tif
6-0006982-3.tif
6-0006983-1.tif
6-0006984-1.tif
6-0006986-1.tif
6-0006987-1.tif
6-0006988-1.tif
6-0006990-1.tif
6-0006991-1.tif
6-0006992-1.tif
6-0006992-2.tif
6-0006993-1.tif
6-0006994-1.tif
6-0006995-1.tif
6-0006997-1.tif
6-0006998-1.tif
6-0006999-1.tif
6-0007000-1.tif
6-0007001-1.tif
6-0007002-1.tif
6-0007003-1.tif
6-0007007-1.tif
6-0007008-1.tif
6-0007009-1.tif
6-0007011-1.tif
6-0007012-1.tif
6-0007014-1.tif
6-0007015-1.tif
6-0007016-1.tif
6-0007018-1.tif
6-0007019-1.tif
6-0007019-11.tif
6-0007020-1.tif
6-0007021-3.tif
6-0007021-31.tif
6-0007023-1.tif
6-0007025-1.tif
6-0007026-1.tif
6-0007027-1.tif
6-0007028-1.tif
6-0007030-1.tif
6-0007031-1.tif
6-0007032-1.tif
6-0007033-1.tif
6-0007034-1.tif
6-0007037-1.tif
6-0007038-1.tif
6-0007039-1.tif
6-0007040-1.tif
6-0007041-1.tif
6-0007043-1.tif
6-0007044-1.tif
6-0007045-1.tif
6-0007046-2.tif
6-0007047-1.tif
6-0007049-1.tif
6-0007052-1.tif
6-0007053-1.tif
6-0007053-11.tif
6-0007054-1.tif
6-0007055-1.tif
6-0007056-1.tif
6-0007057-1.tif
6-0007058-1.tif
6-0007059-1.tif
6-0007061-1.tif
6-0007062-1.tif
6-0007063-1.tif
6-0007065-1.tif
6-0007066-1.tif
6-0007067-1.tif
6-0007067-11.tif
6-0007069-1.tif
6-0007070-1.tif
6-0007071-1.tif
6-0007073-1.tif
6-0007075-1.tif
6-0007076-1.tif
6-0007077-1.tif
6-0007081-1.tif
6-0007082-1.tif
6-0007083-1.tif
6-0007084-1.tif
6-0007084-11.tif
6-0007086-1.tif
6-0007087-1.tif
6-0007088-1.tif
6-0007090-1.tif
6-0007090-3.tif
6-0007091-1.tif
6-0007092-1.tif
6-0007093-1.tif
6-0007094-1.tif
6-0007095-1.tif
6-0007096-1.tif
6-0007096-11.tif
6-0007097-1.tif
6-0007099-1.tif
6-0007101-1.tif
6-0007102-1.tif
6-0007103-1.tif
6-0007105-1.tif
6-0007106-1.tif
6-0007107-1.tif
6-0007109-1.tif
6-0007110-1.tif
6-0007110-11.tif
6-0007111-1.tif
6-0007112-1.tif
6-0007113-1.tif
6-0007115-1.tif
6-0007116-1.tif
6-0007117-1.tif
6-0007118-1.tif
6-0007120-1.tif
6-0007120-2.tif
6-0007120-3.tif
6-0007120-31.tif
6-0007121-1.tif
6-0007123-1.tif
6-0007125-1.tif
6-0007126-1.tif
6-0007128-1.tif
6-0007128-2.tif
6-0007129-1.tif
6-0007129-11.tif
6-0007131-1.tif
6-0007132-1.tif
6-0007133-1.tif
6-0007134-1.tif
6-0007134-11.tif
6-0007134-2.tif
6-0007135-1.tif
6-0007136-1.tif
6-0007137-1.tif
6-0007138-1.tif
6-0007141-1.tif
6-0007142-1.tif
6-0007143-1.tif
6-0007145-1.tif
6-0007147-1.tif
6-0007148-1.tif
6-0007149-1.tif
6-0007149-11.tif
6-0007151-1.tif
6-0007152-1.tif
6-0007153-1.tif
6-0007154-1.tif
6-0007156-1.tif
6-0007157-1.tif
6-0007158-1.tif
6-0007159-1.tif
6-0007161-1.tif
6-0007162-1.tif
6-0007163-1.tif
6-0007164-1.tif
6-0007164-11.tif
6-0007166-1.tif
6-0007166-11.tif
6-0007167-1.tif
6-0007168-1.tif
6-0007169-1.tif
6-0007170-1.tif
6-0007171-1.tif
6-0007172-1.tif
6-0007173-1.tif
6-0007174-1.tif
6-0007175-1.tif
6-0007175-3.tif
6-0007180-1.tif
6-0007181-1.tif
6-0007182-1.tif
6-0007184-1.tif
6-0007184-1.tif
6-0007185-1.tif
6-0007186-1.tif
6-0007187-1.tif
6-0007188-1.tif
6-0007189-1.tif
6-0007190-1.tif
6-0007191-1.tif
6-0007193-1.tif
6-0007194-1.tif
6-0007195-1.tif
6-0007197-1.tif
6-0007198-1.tif
6-0007200-1.tif
6-0007202-1.tif
6-0007203-1.tif
6-0007204-1.tif
6-0007204-2.tif
6-0007205-1.tif
6-0007209-1.tif
6-0007210-1.tif
6-0007211-1.tif
6-0007211-11.tif
6-0007213-1.tif
6-0007217-1.tif
6-0007218-1.tif
6-0007219-1.tif
6-0007220-1.tif
6-0007221-1.tif
6-0007223-1.tif
6-0007225-1.tif
6-0007227-1.tif
6-0007227-2.tif
6-0007227-21.tif
6-0007228-1.tif
6-0007231-1.tif
6-0007233-1.tif
6-0007234-1.tif
6-0007235-1.tif
6-0007237-1.tif
6-0007238-1.tif
6-0007239-1.tif
6-0007244-1.tif
6-0007245-1.tif
6-0007246-1.tif
6-0007247-1.tif
6-0007248-1.tif
6-0007249-1.tif
6-0007249-2.tif
6-0007249-3.tif
6-0007249-31.tif
6-0007250-1.tif
6-0007251-1.tif
6-0007253-1.tif
6-0007255-1.tif
6-0007256-2.tif
6-0007257-1.tif
6-0007258-1.tif
6-0007260-1.tif
6-0007263-1.tif
6-0007265-1.tif
6-0007266-1.tif
6-0007269-1.tif
6-0007270-1.tif
6-0007271-1.tif
6-0007274-1.tif
6-0007276-1.tif
6-0007277-1.tif
6-0007278-1.tif
6-0007279-1.tif
6-0007281-1.tif
6-0007283-1.tif
6-0007284-1.tif
6-0007284-11.tif
6-0007284-2.tif
6-0007286-1.tif
6-0007288-1.tif
6-0007289-1.tif
6-0007290-1.tif
6-0007291-1.tif
6-0007292-1.tif
6-0007292-11.tif
6-0007293-1.tif
6-0007294-1.tif
6-0007295-1.tif
6-0007296-1.tif
6-0007297-1.tif
6-0007298-1.tif
6-0007299-1.tif
6-0007302-1.tif
6-0007302-11.tif
6-0007303-1.tif
6-0007304-1.tif
6-0007305-1.tif
6-0007306-1.tif
6-0007307-1.tif
6-0007308-1.tif
6-0007309-1.tif
6-0007310-1.tif
6-0007311-1.tif
6-0007311-2.tif
6-0007311-3.tif
6-0007311-31.tif
6-0007314-1.tif
6-0007316-1.tif
6-0007317-1.tif
6-0007319-1.tif
6-0007321-1.tif
6-0007322-1.tif
6-0007323-1.tif
6-0007325-1.tif
6-0007327-1.tif
6-0007328-1.tif
6-0007329-1.tif
6-0007330-1.tif
6-0007331-1.tif
6-0007332-1.tif
6-0007333-1.tif
6-0007334-1.tif
6-0007336-11.tif
6-0007336-12.tif
6-0007336-12.tif
6-0007339-1.tif
6-0007342-1.tif
6-0007343-1.tif
6-0007344-1.tif
6-0007345-1.tif
6-0007346-1.tif
6-0007347-1.tif
6-0007348-1.tif
6-0007349-1.tif
6-0007350-1.tif
6-0007351-1.tif
6-0007352-1.tif
6-0007352-2.tif
6-0007354-1.tif
6-0007354-2.tif
6-0007354-21.tif
6-0007355-1.tif
6-0007356-1.tif
6-0007358-1.tif
6-0007359-1.tif
6-0007360-1.tif
6-0007361-1.tif
6-0007364-1.tif
6-0007365-1.tif
6-0007366-1.tif
6-0007367-1.tif
6-0007368-1.tif
6-0007370-1.tif
6-0007371-1.tif
6-0007372-1.tif
6-0007373-1.tif
6-0007375-1.tif
6-0007376-1.tif
6-0007377-1.tif
6-0007380-1.tif
6-0007382-1.tif
6-0007383-1.tif
6-0007384-1.tif
6-0007386-1.tif
6-0007387-1.tif
6-0007389-1.tif
6-0007391-1.tif
6-0007393-1.tif
6-0007398-1.tif
6-0007399-1.tif
6-0007401-1.tif
6-0007402-1.tif
6-0007403-1.tif
6-0007404-1.tif
6-0007405-1.tif
6-0007405-11.tif
6-0007406-1.tif
6-0007408-1.tif
6-0007409-1.tif
6-0007411-1.tif
6-0007413-1.tif
6-0007415-1.tif
6-0007416-1.tif
6-0007417-1.tif
6-0007419-1.tif
6-0007419-2.tif
6-0007423-1.tif
6-0007424-1.tif
6-0007425-1.tif
6-0007427-1.tif
6-0007429-1.tif
6-0007430-1.tif
6-0007431-2.tif
6-0007433-1.tif
6-0007434-1.tif
6-0007436-1.tif
6-0007437-1.tif
6-0007437-2.tif
6-0007438-1.tif
6-0007439-1.tif
6-0007440-1.tif
6-0007442-1.tif
6-0007444-1.tif
6-0007445-1.tif
6-0007446-1.tif
6-0007448-1.tif
6-0007449-1.tif
6-0007450-1.tif
6-0007452-1.tif
6-0007453-1.tif
6-0007453-11.tif
6-0007454-1.tif
6-0007455-1.tif
6-0007458-1.tif
6-0007459-1.tif
6-0007460-1.tif
6-0007461-1.tif
6-0007463-1.tif
6-0007464-1.tif
6-0007465-1.tif
6-0007466-1.tif
6-0007467-1.tif
6-0007469-1.tif
6-0007470-1.tif
6-0007472-1.tif
6-0007473-1.tif
6-0007474-1.tif
6-0007474-2.tif
6-0007474-21.tif
6-0007475-1.tif
6-0007476-1.tif
6-0007477-1.tif
6-0007478-1.tif
6-0007479-1.tif
6-0007481-1.tif
6-0007482-1.tif
6-0007484-1.tif
6-0007485-1.tif
6-0007486-1.tif
6-0007487-1.tif
6-0007489-1.tif
6-0007490-1.tif
6-0007491-1.tif
6-0007492-1.tif
6-0007493-1.tif
6-0007494-1.tif
6-0007494-3.tif
6-0007494-31.tif
6-0007496-1.tif
6-0007497-1.tif
6-0007500-1.tif
6-0007500-2.tif
6-0007500-21.tif
6-0007500-3.tif
6-0007501-1.tif
6-0007502-1.tif
6-0007504-1.tif
6-0007506-1.tif
6-0007507-1.tif
6-0007507-11.tif
6-0007512-1.tif
6-0007514-1.tif
6-0007515-1.tif
6-0007516-1.tif
6-0007517-1.tif
6-0007518-1.tif
6-0007520-1.tif
6-0007521-1.tif
6-0007522-1.tif
6-0007523-1.tif
6-0007524-1.tif
6-0007525-1.tif
6-0007526-1.tif
6-0007527-1.tif
6-0007528-1.tif
6-0007530-1.tif
6-0007532-1.tif
6-0007534-1.tif
6-0007535-1.tif
6-0007536-1.tif
6-0007537-1.tif
6-0007538-1.tif
6-0007539-1.tif
6-0007541-1.tif
6-0007543-1.tif
6-0007544-1.tif
6-0007545-1.tif
6-0007547-1.tif
6-0007549-1.tif
6-0007550-1.tif
6-0007551-1.tif
6-0007552-1.tif
6-0007553-1.tif
6-0007554-1.tif
6-0007555-1.tif
6-0007556-1.tif
6-0007557-1.tif
6-0007560-1.tif
6-0007561-1.tif
6-0007562-1.tif
6-0007563-1.tif
6-0007563-11.tif
6-0007563-2.tif
6-0007563-21.tif
6-0007564-1.tif
6-0007566-1.tif
6-0007567-1.tif
6-0007569-1.tif
6-0007570-1.tif
6-0007571-1.tif
6-0007572-1.tif
6-0007574-1.tif
6-0007575-1.tif
6-0007577-1.tif
6-0007578-1.tif
6-0007579-1.tif
6-0007581-1.tif
6-0007582-1.tif
6-0007583-1.tif
6-0007584-1.tif
6-0007584-11.tif
6-0007586-1.tif
6-0007588-1.tif
6-0007588-11.tif
6-0007588-2.tif
6-0007589-1.tif
6-0007590-1.tif
6-0007594-1.tif
6-0007595-1.tif
6-0007596-1.tif
6-0007597-1.tif
6-0007598-1.tif
6-0007601-1.tif
6-0007603-1.tif
6-0007604-1.tif
6-0007606-1.tif
6-0007608-1.tif
6-0007609-1.tif
6-0007610-1.tif
6-0007611-1.tif
6-0007612-1.tif
6-0007613-1.tif
6-0007614-1.tif
6-0007615-1.tif
6-0007615-11.tif
6-0007621-1.tif
6-0007622-1.tif
6-0007625-1.tif
6-0007625-11.tif
6-0007626-1.tif
6-0007626-11.tif
6-0007627-1.tif
6-0007628-1.tif
6-0007629-1.tif
6-0007630-1.tif
6-0007631-1.tif
6-0007632-1.tif
6-0007634-1.tif
6-0007638-1.tif
6-0007640-1.tif
6-0007641-1.tif
6-0007642-1.tif
6-0007644-1.tif
6-0007645-1.tif
6-0007647-1.tif
6-0007648-1.tif
6-0007649-1.tif
6-0007651-1.tif
6-0007652-1.tif
6-0007653-1.tif
6-0007655-1.tif
6-0007656-1.tif
6-0007657-1.tif
6-0007658-1.tif
6-0007658-2.tif
6-0007658-21.tif
6-0007660-1.tif
6-0007661-1.tif
6-0007662-1.tif
6-0007662-11.tif
6-0007663-1.tif
6-0007665-1.tif
6-0007666-1.tif
6-0007667-1.tif
6-0007669-1.tif
6-0007671-1.tif
6-0007674-1.tif
6-0007675-1.tif
6-0007677-1.tif
6-0007678-1.tif
6-0007678-11.tif
6-0007679-1.tif
6-0007682-1.tif
6-0007684-1.tif
6-0007686-1.tif
6-0007687-1.tif
6-0007689-1.tif
6-0007690-1.tif
6-0007690-2.tif
6-0007690-21.tif
6-0007691-1.tif
6-0007692-1.tif
6-0007693-1.tif
6-0007695-1.tif
6-0007697-1.tif
6-0007698-1.tif
6-0007699-1.tif
6-0007700-1.tif
6-0007701-1.tif
6-0007702-1.tif
6-0007703-1.tif
6-0007704-1.tif
6-0007707-1.tif
6-0007708-1.tif
6-0007710-1.tif
6-0007712-1.tif
6-0007712-2.tif
6-0007714-1.tif
6-0007715-1.tif
6-0007715-2.tif
6-0007716-1.tif
6-0007716-11.tif
6-0007717-1.tif
6-0007718-1.tif
6-0007719-1.tif
6-0007724-1.tif
6-0007725-1.tif
6-0007726-1.tif
6-0007727-1.tif
6-0007730-1.tif
6-0007730-2.tif
6-0007730-21.tif
6-0007731-1.tif
6-0007732-1.tif
6-0007733-1.tif
6-0007734-1.tif
6-0007735-1.tif
6-0007735-2.tif
6-0007736-1.tif
6-0007737-1.tif
6-0007738-1.tif
6-0007739-1.tif
6-0007740-1.tif
6-0007741-1.tif
6-0007745-1.tif
6-0007749-1.tif
6-0007751-1.tif
6-0007751-2.tif
6-0007752-1.tif
6-0007753-1.tif
6-0007758-1.tif
6-0007763-1.tif
6-0007764-1.tif
6-0007765-1.tif
6-0007767-1.tif
6-0007768-1.tif
6-0007769-1.tif
6-0007770-1.tif
6-0007771-1.tif
6-0007772-2.tif
6-0007773-1.tif
6-0007773-2.tif
6-0007777-1.tif
6-0007778-2.tif
6-0007779-1.tif
6-0007780-1.tif
6-0007781-1.tif
6-0007782-1.tif
6-0007783-1.tif
6-0007785-1.tif
6-0007786-1.tif
6-0007787-1.tif
6-0007788-1.tif
6-0007790-1.tif
6-0007793-1.tif
6-0007794-1.tif
6-0007797-1.tif
6-0007799-1.tif
6-0007800-1.tif
6-0007801-1.tif
6-0007802-1.tif
6-0007803-1.tif
6-0007803-13.tif
6-0007803-131.tif
6-0007804-1.tif
6-0007806-1.tif
6-0007807-1.tif
6-0007808-1.tif
6-0007809-1.tif
6-0007810-1.tif
6-0007810-11.tif
6-0007812-1.tif
6-0007814-1.tif
6-0007817-1.tif
6-0007818-1.tif
6-0007821-1.tif
6-0007823-1.tif
6-0007825-1.tif
6-0007826-1.tif
6-0007826-2.tif
6-0007827-1.tif
6-0007828-1.tif
6-0007829-1.tif
6-0007830-1.tif
6-0007832-1.tif
6-0007833-1.tif
6-0007834-1.tif
6-0007835-1.tif
6-0007840-1.tif
6-0007841-1.tif
6-0007842-1.tif
6-0007843-1.tif
6-0007844-1.tif
6-0007845-1.tif
6-0007848-1.tif
6-0007849-1.tif
6-0007851-1.tif
6-0007852-1.tif
6-0007853-1.tif
6-0007855-1.tif
6-0007856-1.tif
6-0007857-1.tif
6-0007859-1.tif
6-0007860-1.tif
6-0007861-1.tif
6-0007862-1.tif
6-0007863-1.tif
6-0007865-1.tif
6-0007866-1.tif
6-0007867-1.tif
6-0007868-1.tif
6-0007869-1.tif
6-0007870-1.tif
6-0007871-1.tif
6-0007872-1.tif
6-0007872-11.tif
6-0007873-1.tif
6-0007874-1.tif
6-0007875-1.tif
6-0007877-1.tif
6-0007879-1.tif
6-0007880-1.tif
6-0007880-2.tif
6-0007883-1.tif
6-0007884-1.tif
6-0007885-1.tif
6-0007885-11.tif
6-0007886-1.tif
6-0007887-1.tif
6-0007888-1.tif
6-0007889-1.tif
6-0007891-1.tif
6-0007891-11.tif
6-0007893-1.tif
6-0007894-1.tif
6-0007895-1.tif
6-0007896-1.tif
6-0007897-1.tif
6-0007900-1.tif
6-0007902-1.tif
6-0007903-1.tif
6-0007903-11.tif
6-0007904-1.tif
6-0007904-2.tif
6-0007905-1.tif
6-0007906-1.tif
6-0007907-1.tif
6-0007908-1.tif
6-0007909-1.tif
6-0007910-1.tif
6-0007911-1.tif
6-0007912-1.tif
6-0007918-1.tif
6-0007919-1.tif
6-0007920-1.tif
6-0007927-1.tif
6-0007928-1.tif
6-0007928-2.tif
6-0007929-1.tif
6-0007930-1.tif
6-0007932-1.tif
6-0007933-1.tif
6-0007934-1.tif
6-0007938-1.tif
6-0007939-1.tif
6-0007940-1.tif
6-0007942-1.tif
6-0007943-1.tif
6-0007946-1.tif
6-0007947-1.tif
6-0007948-1.tif
6-0007948-2.tif
6-0007948-21.tif
6-0007948-3.tif
6-0007948-31.tif
6-0007950-1.tif
6-0007951-1.tif
6-0007954-1.tif
6-0007955-1.tif
6-0007957-1.tif
6-0007958-1.tif
6-0007959-1.tif
6-0007960-1.tif
6-0007961-1.tif
6-0007963-1.tif
6-0007964-1.tif
6-0007965-1.tif
6-0007966-1.tif
6-0007967-1.tif
6-0007970-1.tif
6-0007971-2.tif
6-0007972-1.tif
6-0007973-1.tif
6-0007974-1.tif
6-0007974-2.tif
6-0007978-1.tif
6-0007980-1.tif
6-0007981-1.tif
6-0007983-1.tif
6-0007985-1.tif
6-0007986-1.tif
6-0007987-1.tif
6-0007988-1.tif
6-0007989-1.tif
6-0007990-1.tif
6-0007991-1.tif
6-0007992-1.tif
6-0007993-1.tif
6-0007994-1.tif
6-0007995-1.tif
6-0007995-11.tif
6-0007996-1.tif
6-0007997-1.tif
6-0007998-1.tif
6-0008001-1.tif
6-0008002-1.tif
6-0008003-1.tif
6-0008004-1.tif
6-0008005-1.tif
6-0008009-1.tif
6-0008010-1.tif
6-0008011-1.tif
6-0008012-1.tif
6-0008013-1.tif
6-0008014-1.tif
6-0008015-1.tif
6-0008016-1.tif
6-0008019-1.tif
6-0008020-1.tif
6-0008021-1.tif
6-0008022-1.tif
6-0008024-1.tif
6-0008025-1.tif
6-0008026-1.tif
6-0008027-1.tif
6-0008031-1.tif
6-0008032-1.tif
6-0008033-1.tif
6-0008034-1.tif
6-0008035-1.tif
6-0008036-1.tif
6-0008037-1.tif
6-0008038-1.tif
6-0008039-1.tif
6-0008040-1.tif
6-0008041-1.tif
6-0008042-1.tif
6-0008043-1.tif
6-0008043-11.tif
6-0008046-1.tif
6-0008047-1.tif
6-0008050-1.tif
6-0008051-1.tif
6-0008053-1.tif
6-0008054-1.tif
6-0008056-1.tif
6-0008057-1.tif
6-0008058-1.tif
6-0008059-1.tif
6-0008060-1.tif
6-0008061-1.tif
6-0008062-1.tif
6-0008067-1.tif
6-0008068-1.tif
6-0008070-1.tif
6-0008071-2.tif
6-0008072-1.tif
6-0008074-1.tif
6-0008075-1.tif
6-0008076-1.tif
6-0008077-1.tif
6-0008078-1.tif
6-0008079-1.tif
6-0008080-1.tif
6-0008081-1.tif
6-0008081-2.tif
6-0008082-1.tif
6-0008083-1.tif
6-0008084-1.tif
6-0008085-1.tif
6-0008086-1.tif
6-0008087-1.tif
6-0008089-1.tif
6-0008090-1.tif
6-0008092-1.tif
6-0008092-2.tif
6-0008094-1.tif
6-0008095-1.tif
6-0008096-1.tif
6-0008098-1.tif
6-0008099-1.tif
6-0008100-1.tif
6-0008101-1.tif
6-0008102-1.tif
6-0008105-1.tif
6-0008105-2.tif
6-0008107-1.tif
6-0008109-1.tif
6-0008109-11.tif
6-0008109-2.tif
6-0008110-1.tif
6-0008111-1.tif
6-0008114-1.tif
6-0008116-1.tif
6-0008118-1.tif
6-0008119-1.tif
6-0008121-1.tif
6-0008122-1.tif
6-0008124-1.tif
6-0008126-1.tif
6-0008127-1.tif
6-0008128-1.tif
6-0008129-1.tif
6-0008130-1.tif
6-0008131-1.tif
6-0008132-1.tif
6-0008133-1.tif
6-0008134-1.tif
6-0008135-1.tif
6-0008136-1.tif
6-0008138-1.tif
6-0008140-1.tif
6-0008141-1.tif
6-0008142-1.tif
6-0008143-1.tif
6-0008144-1.tif
6-0008144-11.tif
6-0008146-1.tif
6-0008147-1.tif
6-0008148-1.tif
6-0008148-11.tif
6-0008148-4.tif
6-0008148-41.tif
6-0008149-1.tif
6-0008150-1.tif
6-0008151-1.tif
6-0008152-1.tif
6-0008153-1.tif
6-0008154-1.tif
6-0008156-1.tif
6-0008158-1.tif
6-0008160-1.tif
6-0008162-1.tif
6-0008163-1.tif
6-0008164-1.tif
6-0008165-1.tif
6-0008168-1.tif
6-0008169-1.tif
6-0008170-1.tif
6-0008171-1.tif
6-0008172-1.tif
6-0008173-1.tif
6-0008174-1.tif
6-0008175-1.tif
6-0008176-1.tif
6-0008178-1.tif
6-0008179-1.tif
6-0008182-1.tif
6-0008183-1.tif
6-0008184-1.tif
6-0008184-11.tif
6-0008184-2.tif
6-0008185-1.tif
6-0008185-11.tif
6-0008186-1.tif
6-0008187-1.tif
6-0008191-1.tif
6-0008192-1.tif
6-0008193-1.tif
6-0008194-1.tif
6-0008195-1.tif
6-0008196-1.tif
6-0008197-1.tif
6-0008198-1.tif
6-0008199-1.tif
6-0008199-3.tif
6-0008199-31.tif
6-0008200-1.tif
6-0008201-1.tif
6-0008202-1.tif
6-0008203-1.tif
6-0008204-1.tif
6-0008205-1.tif
6-0008206-1.tif
6-0008207-1.tif
6-0008208-1.tif
6-0008209-1.tif
6-0008211-1.tif
6-0008212-1.tif
6-0008213-1.tif
6-0008216-1.tif
6-0008217-1.tif
6-0008220-1.tif
6-0008223-1.tif
6-0008223-11.tif
6-0008224-1.tif
6-0008225-1.tif
6-0008226-1.tif
6-0008227-1.tif
6-0008229-1.tif
6-0008231-1.tif
6-0008232-1.tif
6-0008235-1.tif
6-0008236-1.tif
6-0008237-1.tif
6-0008238-1.tif
6-0008240-1.tif
6-0008242-1.tif
6-0008245-2.tif
6-0008246-1.tif
6-0008246-11.tif
6-0008247-1.tif
6-0008248-1.tif
6-0008249-1.tif
6-0008250-1.tif
6-0008251-1.tif
6-0008252-1.tif
6-0008253-1.tif
6-0008255-1.tif
6-0008256-1.tif
6-0008257-1.tif
6-0008258-1.tif
6-0008259-1.tif
6-0008260-1.tif
6-0008261-1.tif
6-0008262-1.tif
6-0008263-1.tif
6-0008264-1.tif
6-0008265-1.tif
6-0008267-1.tif
6-0008268-1.tif
6-0008269-1.tif
6-0008271-1.tif
6-0008273-1.tif
6-0008276-1.tif
6-0008277-1.tif
6-0008277-2.tif
6-0008277-21.tif
6-0008277-3.tif
6-0008278-1.tif
6-0008279-1.tif
6-0008280-1.tif
6-0008281-1.tif
6-0008282-1.tif
6-0008283-1.tif
6-0008284-1.tif
6-0008285-1.tif
6-0008287-1.tif
6-0008290-1.tif
6-0008291-1.tif
6-0008292-1.tif
6-0008293-1.tif
6-0008295-1.tif
6-0008296-1.tif
6-0008297-1.tif
6-0008299-1.tif
6-0008299-2.tif
6-0008299-21.tif
6-0008299-211.tif
6-0008300-1.tif
6-0008301-1.tif
6-0008302-1.tif
6-0008303-1.tif
6-0008304-1.tif
6-0008305-1.tif
6-0008308-1.tif
6-0008309-1.tif
6-0008311-1.tif
6-0008312-1.tif
6-0008312-11.tif
6-0008313-1.tif
6-0008314-1.tif
6-0008316-1.tif
6-0008317-1.tif
6-0008319-1.tif
6-0008320-1.tif
6-0008322-1.tif
6-0008323-1.tif
6-0008324-1.tif
6-0008325-1.tif
6-0008328-1.tif
6-0008329-1.tif
6-0008330-1.tif
6-0008331-1.tif
6-0008332-1.tif
6-0008332-11.tif
6-0008333-1.tif
6-0008334-1.tif
6-0008335-1.tif
6-0008336-1.tif
6-0008337-1.tif
6-0008338-1.tif
6-0008340-1.tif
6-0008341-1.tif
6-0008341-11.tif
6-0008342-1.tif
6-0008344-1.tif
6-0008346-1.tif
6-0008347-1.tif
6-0008348-1.tif
6-0008349-1.tif
6-0008350-1.tif
6-0008351-1.tif
6-0008352-1.tif
6-0008353-1.tif
6-0008354-1.tif
6-0008356-1.tif
6-0008356-11.tif
6-0008357-1.tif
6-0008358-1.tif
6-0008359-1.tif
6-0008360-1.tif
6-0008361-1.tif
6-0008362-1.tif
6-0008363-1.tif
6-0008364-1.tif
6-0008365-1.tif
6-0008366-1.tif
6-0008368-1.tif
6-0008369-1.tif
6-0008369-11.tif
6-0008372-1.tif
6-0008372-2.tif
6-0008373-1.tif
6-0008375-1.tif
6-0008376-1.tif
6-0008377-1.tif
6-0008378-1.tif
6-0008379-1.tif
6-0008380-1.tif
6-0008381-1.tif
6-0008382-1.tif
6-0008384-1.tif
6-0008385-1.tif
6-0008388-1.tif
6-0008391-1.tif
6-0008392-1.tif
6-0008393-1.tif
6-0008395-1.tif
6-0008396-1.tif
6-0008397-1.tif
6-0008397-2.tif
6-0008397-21.tif
6-0008398-1.tif
6-0008400-1.tif
6-0008401-1.tif
6-0008402-1.tif
6-0008407-1.tif
6-0008408-1.tif
6-0008409-1.tif
6-0008410-1.tif
6-0008411-1.tif
6-0008413-1.tif
6-0008415-1.tif
6-0008416-1.tif
6-0008417-1.tif
6-0008418-1.tif
6-0008420-1.tif
6-0008421-1.tif
6-0008421-11.tif
6-0008422-1.tif
6-0008423-1.tif
6-0008424-1.tif
6-0008425-1.tif
6-0008426-1.tif
6-0008427-1.tif
6-0008430-1.tif
6-0008432-1.tif
6-0008434-1.tif
6-0008436-1.tif
6-0008437-1.tif
6-0008438-1.tif
6-0008439-1.tif
6-0008441-1.tif
6-0008442-1.tif
6-0008442-11.tif
6-0008442-2.tif
6-0008443-1.tif
6-0008443-2.tif
6-0008444-1.tif
6-0008446-1.tif
6-0008447-1.tif
6-0008448-1.tif
6-0008449-1.tif
6-0008451-1.tif
6-0008452-1.tif
6-0008453-1.tif
6-0008454-1.tif
6-0008456-1.tif
6-0008457-1.tif
6-0008458-1.tif
6-0008459-1.tif
6-0008460-1.tif
6-0008463-1.tif
6-0008464-1.tif
6-0008464-2.tif
6-0008465-1.tif
6-0008466-1.tif
6-0008466-11.tif
6-0008468-1.tif
6-0008469-1.tif
6-0008470-1.tif
6-0008470-11.tif
6-0008470-2.tif
6-0008470-21.tif
6-0008471-1.tif
6-0008474-1.tif
6-0008476-1.tif
6-0008477-1.tif
6-0008478-1.tif
6-0008479-1.tif
6-0008479-11.tif
6-0008479-2.tif
6-0008480-1.tif
6-0008481-1.tif
6-0008482-1.tif
6-0008483-1.tif
6-0008483-11.tif
6-0008486-1.tif
6-0008486-11.tif
6-0008487-1.tif
6-0008488-1.tif
6-0008489-1.tif
6-0008490-1.tif
6-0008491-1.tif
6-0008492-1.tif
6-0008493-1.tif
6-0008494-1.tif
6-0008495-1.tif
6-0008495-11.tif
6-0008496-1.tif
6-0008497-1.tif
6-0008499-1.tif
6-0008500-1.tif
6-0008501-1.tif
6-0008503-1.tif
6-0008503-2.tif
6-0008504-1.tif
6-0008505-1.tif
6-0008506-1.tif
6-0008508-1.tif
6-0008510-1.tif
6-0008512-1.tif
6-0008513-1.tif
6-0008515-1.tif
6-0008516-1.tif
6-0008517-1.tif
6-0008518-1.tif
6-0008519-1.tif
6-0008521-1.tif
6-0008524-1.tif
6-0008525-1.tif
6-0008526-1.tif
6-0008528-1.tif
6-0008528-11.tif
6-0008529-1.tif
6-0008531-1.tif
6-0008533-1.tif
6-0008535-1.tif
6-0008536-1.tif
6-0008537-1.tif
6-0008537-2.tif
6-0008538-1.tif
6-0008538-1.tif
6-0008538-11.tif
6-0008540-1.tif
6-0008541-1.tif
6-0008542-1.tif
6-0008543-1.tif
6-0008544-1.tif
6-0008545-1.tif
6-0008545-11.tif
6-0008546-1.tif
6-0008548-1.tif
6-0008549-1.tif
6-0008551-2.tif
6-0008552-1.tif
6-0008553-1.tif
6-0008554-1.tif
6-0008555-1.tif
6-0008556-1.tif
6-0008556-2.tif
6-0008556-21.tif
6-0008557-1.tif
6-0008558-1.tif
6-0008559-1.tif
6-0008560-1.tif
6-0008561-1.tif
6-0008563-1.tif
6-0008564-1.tif
6-0008566-1.tif
6-0008566-11.tif
6-0008566-1.tif
6-0008567-1.tif
6-0008568-1.tif
6-0008569-1.tif
6-0008571-1.tif
6-0008571-1.tif
6-0008572-1.tif