7-0000102-1.tif
7-0000103-1.tif
7-0000104-1.tif
7-0000105-1.tif
7-0000106-1.tif
7-0000106-2.tif
7-0000106-21.tif
7-0000107-1.tif
7-0000108-1.tif
7-0000109-1.tif
7-0000109-11.tif
7-0000110-1.tif
7-0000110-2.tif
7-0000113-1.tif
7-0000114-1.tif
7-0000115-1.tif
7-0000116-1.tif
7-0000117-1.tif
7-0000118-1.tif
7-0000119-1.tif
7-0000119-2.tif
7-00001202-3.tif
7-0000121-1.tif
7-0000122-1.tif
7-0000122-11.tif
7-0000122-2.tif
7-0000122-21.tif
7-0000124-1.tif
7-0000125-1.tif
7-0000127-1.tif
7-0000127-2.tif
7-0000127-21.tif
7-0000129-1.tif
7-0000130-1.tif
7-0000131-1.tif
7-0000131-11.tif
7-0000131-111.tif
7-0000131-2.tif
7-0000131-4.tif
7-0000133-1.tif
7-0000135-1.tif
7-0000135-2.tif
7-0000135-3.tif
7-0000135-31.tif
7-0000136-1.tif
7-0000137-1.tif
7-0000139-1.tif
7-0000140-1.tif
7-0000141-1.tif
7-0000142-1.tif
7-0000143-1.tif
7-0000144-1.tif
7-0000145-1.tif
7-0000146-1.tif
7-0000147-1.tif
7-0000148-1.tif
7-0000149-1.tif
7-0000150-1.tif
7-0000151-3.tif
7-0000153-1.tif
7-0000154-1.tif
7-0000156-1.tif
7-0000156-2.tif
7-0000157-1.tif
7-0000159-1.tif
7-0000160-1.tif
7-0000161-1.tif
7-0000162-1.tif
7-0000163-1.tif
7-0000164-1.tif
7-0000167-1.tif
7-0000168-1.tif
7-0000169-1.tif
7-0000169-11.tif
7-0000170-1.tif
7-0000171-1.tif
7-0000172-1.tif
7-0000172-11.tif
7-0000172-3.tif
7-0000172-4.tif
7-0000173-1.tif
7-0000174-1.tif
7-0000174-11.tif
7-0000176-1.tif
7-0000178-1.tif
7-0000179-1.tif
7-0000180-1.tif
7-0000181-1.tif
7-0000182-1.tif
7-0000183-1.tif
7-0000184-1.tif
7-0000185-1.tif
7-0000186-1.tif
7-0000187-1.tif
7-0000188-1.tif
7-0000190-1.tif
7-0000191-1.tif
7-0000191-11.tif
7-0000192-1.tif
7-0000194-1.tif
7-0000195-1.tif
7-0000196-1.tif
7-0000197-1.tif
7-0000198-1.tif
7-0000201-1.tif
7-0000202-1.tif
7-0000202-1.tif
7-0000203-1.tif
7-0000204-1.tif
7-0000205-1.tif
7-0000205-1.tif
7-0000206-1.tif
7-0000207-1.tif
7-0000208-1.tif
7-0000209-1.tif
7-0000210-1.tif
7-0000211-1.tif
7-0000212-1.tif
7-0000213-1.tif
7-0000214-1.tif
7-0000214-1.tif
7-0000215-1.tif
7-0000216-1.tif
7-0000217-1.tif
7-0000218-1.tif
7-0000219-1.tif
7-0000220-1.tif
7-0000221-1.tif
7-0000222-1.tif
7-0000223-1.tif
7-0000224-1.tif
7-0000226-1.tif
7-0000227-1.tif
7-0000228-1.tif
7-0000229-1.tif
7-0000230-1.tif
7-0000231-1.tif
7-0000233-1.tif
7-0000234-1.tif
7-0000235-1.tif
7-0000237-1.tif
7-0000237-1.tif
7-0000238-1.tif
7-0000239-1.tif
7-0000240-1.tif
7-0000241-1.tif
7-0000242-1.tif
7-0000243-1.tif
7-0000245-1.tif
7-0000246-1.tif
7-0000248-1.tif
7-0000249-1.tif
7-0000250-1.tif
7-0000251-1.tif
7-0000252-1.tif
7-0000253-1.tif
7-0000257-1.tif
7-0000258-1.tif
7-0000259-1.tif
7-0000261-1.tif
7-0000262-14.tif
7-0000264-1.tif
7-0000266-1.tif
7-0000267-1.tif
7-0000268-1.tif
7-0000269-1.tif
7-0000270-1.tif
7-0000271-1.tif
7-0000272-1.tif
7-0000274-1.tif
7-0000275-1.tif
7-0000276-1.tif
7-0000277-1.tif
7-0000279-1.tif
7-0000280-1.tif
7-0000281-1.tif
7-0000282-1.tif
7-0000283-1.tif
7-0000285-2.tif
7-0000285-3.tif
7-0000286-2.tif
7-0000287-4.tif
7-0000287-41.tif
7-0000287-6.tif
7-0000287-61.tif
7-0000287-611.tif
7-0000288-1.tif
7-0000289-1.tif
7-0000290-1.tif
7-0000290-2.tif
7-0000290-21.tif
7-0000291-1.tif
7-0000292-1.tif
7-0000293-1.tif
7-0000294-1.tif
7-0000294-2.tif
7-0000295-1.tif
7-0000296-1.tif
7-0000297-1.tif
7-0000298-1.tif
7-0000300-1.tif
7-0000301-1.tif
7-0000302-1.tif
7-0000303-1.tif
7-0000306-1.tif
7-0000307-1.tif
7-0000308-1.tif
7-0000309-1.tif
7-0000310-1.tif
7-0000311-1.tif
7-0000312-1.tif
7-0000313-1.tif
7-0000313-11.tif
7-0000314-1.tif
7-0000315-1.tif
7-0000316-1.tif
7-0000317-1.tif
7-0000318-1.tif
7-0000321-1.tif
7-0000323-1.tif
7-0000324-1.tif
7-0000325-1.tif
7-0000326-1.tif
7-0000327-1.tif
7-0000328-1.tif
7-0000329-1.tif
7-0000330-1.tif
7-0000330-3.tif
7-0000330-3.tif
7-0000330-4.tif
7-0000330-41.tif
7-0000331-1.tif
7-0000332-1.tif
7-0000333-1.tif
7-0000335-1.tif
7-0000336-1.tif
7-0000337-1.tif
7-0000338-1.tif
7-0000339-1.tif
7-0000340-1.tif
7-0000341-1.tif
7-0000343-1.tif
7-0000344-1.tif
7-0000345-1.tif
7-0000346-2.tif
7-0000346-21.tif
7-0000346-3.tif
7-0000346-31.tif
7-0000346-311.tif
7-0000347-1.tif
7-0000349-1.tif
7-0000350-1.tif
7-0000351-1.tif
7-0000352-1.tif
7-0000353-1.tif
7-0000354-1.tif
7-0000355-1.tif
7-0000359-1.tif
7-0000360-1.tif
7-0000361-1.tif
7-0000364-1.tif
7-0000366-1.tif
7-0000367-1.tif
7-0000368-1.tif
7-0000369-1.tif
7-0000370-1.tif
7-0000371-1.tif
7-0000372-1.tif
7-0000373-1.tif
7-0000374-1.tif
7-0000375-1.tif
7-0000376-1.tif
7-0000377-1.tif
7-0000378-1.tif
7-0000379-1.tif
7-0000380-1.tif
7-0000380-2.tif
7-0000381-1.tif
7-0000382-1.tif
7-0000384-1.tif
7-0000385-1.tif
7-0000386-1.tif
7-0000387-1.tif
7-0000387-2.tif
7-0000387-21.tif
7-0000389-1.tif
7-0000390-1.tif
7-0000391-1.tif
7-0000392-1.tif
7-0000393-1.tif
7-0000394-1.tif
7-0000395-1.tif
7-0000397-1.tif
7-0000398-1.tif
7-0000400-1.tif
7-0000400-11.tif
7-0000401-1.tif
7-0000402-1.tif
7-0000403-1.tif
7-0000403-11.tif
7-0000404-1.tif
7-0000406-1.tif
7-0000407-1.tif
7-0000408-1.tif
7-0000409-1.tif
7-0000410-1.tif
7-0000410-11.tif
7-0000410-2.tif
7-0000411-1.tif
7-0000412-1.tif
7-0000413-1.tif
7-0000414-1.tif
7-0000415-1.tif
7-0000416-1.tif
7-0000417-1.tif
7-0000419-1.tif
7-0000420-1.tif
7-0000421-1.tif
7-0000422-1.tif
7-0000423-1.tif
7-0000424-1.tif
7-0000428-1.tif
7-0000428-11.tif
7-0000429-1.tif
7-0000430-1.tif
7-0000431-1.tif
7-0000433-1.tif
7-0000434-1.tif
7-0000435-1.tif
7-0000437-1.tif
7-0000438-1.tif
7-0000439-1.tif
7-0000440-1.tif
7-0000441-1.tif
7-0000443-1.tif
7-0000446-1.tif
7-0000447-1.tif
7-0000448-1.tif
7-0000449-1.tif
7-0000450-1.tif
7-0000451-1.tif
7-0000452-3.tif
7-0000453-1.tif
7-0000454-1.tif
7-0000455-1.tif
7-0000455-1.tif
7-0000456-1.tif
7-0000457-1.tif
7-0000458-1.tif
7-0000459-1.tif
7-0000460-1.tif
7-0000460-11.tif
7-0000462-1.tif
7-0000465-1.tif
7-0000466-1.tif
7-0000467-1.tif
7-0000467-11.tif
7-0000467-2.tif
7-0000468-1.tif
7-0000469-1.tif
7-0000470-1.tif
7-0000471-1.tif
7-0000472-1.tif
7-0000473-1.tif
7-0000474-1.tif
7-0000475-1.tif
7-0000476-1.tif
7-0000478-1.tif
7-0000479-1.tif
7-0000481-1.tif
7-0000481-2.tif
7-0000482-1.tif
7-0000482-2.tif
7-0000483-1.tif
7-0000484-1.tif
7-0000486-1.tif
7-0000487-1.tif
7-0000488-1.tif
7-0000488-2.tif
7-0000488-21.tif
7-0000489-1.tif
7-0000490-1.tif
7-0000491-1.tif
7-0000492-1.tif
7-0000493-1.tif
7-0000494-1.tif
7-0000495-1.tif
7-0000496-1.tif
7-0000497-1.tif
7-0000498-1.tif
7-0000500-2.tif
7-0000500-21.tif
7-0000501-1.tif
7-0000502-1.tif
7-0000504-1.tif
7-0000505-1.tif
7-0000506-1.tif
7-0000507-1.tif
7-0000508-1.tif
7-0000509-1.tif
7-0000509-11.tif
7-0000510-1.tif
7-0000511-1.tif
7-0000513-1.tif
7-0000514-1.tif
7-0000515-1.tif
7-0000516-1.tif
7-0000517-1.tif
7-0000518-1.tif
7-0000520-1.tif
7-0000522-2.tif
7-0000523-1.tif
7-00005233-1.tif
7-0000525-1.tif
7-0000527-1.tif
7-0000528-1.tif
7-0000530-1.tif
7-0000531-1.tif
7-0000532-1.tif
7-0000534-1.tif
7-0000536-1.tif
7-0000537-1.tif
7-0000538-1.tif
7-0000539-1.tif
7-0000540-1.tif
7-0000541-1.tif
7-0000542-1.tif
7-0000543-1.tif
7-0000544-1.tif
7-0000545-1.tif
7-0000546-1.tif
7-0000547-1.tif
7-0000548-1.tif
7-0000550-1.tif
7-0000551-1.tif
7-0000552-1.tif
7-0000553-1.tif
7-0000554-1.tif
7-0000555-1.tif
7-0000556-1.tif
7-0000559-1.tif
7-0000559-2.tif
7-0000559-21.tif
7-0000560-1.tif
7-0000560-2.tif
7-0000560-21.tif
7-0000560-3.tif
7-0000560-31.tif
7-0000560-4.tif
7-0000561-1.tif
7-0000562-1.tif
7-0000563-1.tif
7-0000564-1.tif
7-0000565-1.tif
7-0000566-1.tif
7-0000566-2.tif
7-0000567-1.tif
7-0000568-1.tif
7-0000569-1.tif
7-0000570-1.tif
7-0000571-1.tif
7-0000572-1.tif
7-0000574-1.tif
7-0000575-1.tif
7-0000578-1.tif
7-0000578-11.tif
7-0000579-1.tif
7-0000580-1.tif
7-0000581-1.tif
7-0000582-1.tif
7-0000583-1.tif
7-0000584-1.tif
7-0000584-2.tif
7-0000584-3.tif
7-0000584-31.tif
7-0000585-1.tif
7-0000586-1.tif
7-0000588-1.tif
7-0000588-11.tif
7-0000589-1.tif
7-0000591-1.tif
7-0000592-1.tif
7-0000594-1.tif
7-0000596-1.tif
7-0000597-1.tif
7-0000598-1.tif
7-0000599-1.tif
7-0000600-1.tif
7-0000601-1.tif
7-0000602-1.tif
7-0000603-1.tif
7-0000605-1.tif
7-0000605-11.tif
7-0000606-1.tif
7-0000607-1.tif
7-0000609-1.tif
7-0000610-1.tif
7-0000611-1.tif
7-0000612-1.tif
7-0000612-11.tif
7-0000613-1.tif
7-0000614-1.tif
7-0000615-1.tif
7-0000616-1.tif
7-0000618-1.tif
7-0000619-1.tif
7-0000621-1.tif
7-0000622-1.tif
7-0000623-1.tif
7-0000624-1.tif
7-0000625-1.tif
7-0000628-1.tif
7-0000629-1.tif
7-0000629-11.tif
7-0000630-1.tif
7-0000631-1.tif
7-0000632-1.tif
7-0000634-1.tif
7-0000635-1.tif
7-0000635-11.tif
7-0000636-1.tif
7-0000637-1.tif
7-0000638-1.tif
7-0000640-1.tif
7-0000642-1.tif
7-0000644-1.tif
7-0000645-1.tif
7-0000646-1.tif
7-0000647-1.tif
7-0000648-1.tif
7-0000649-1.tif
7-0000652-1.tif
7-0000653-1.tif
7-0000654-1.tif
7-0000655-1.tif
7-0000656-1.tif
7-0000656-1.tif
7-0000657-1.tif
7-0000659-1.tif
7-0000660-1.tif
7-0000661-1.tif
7-0000663-1.tif
7-0000664-1.tif
7-0000665-1.tif
7-0000666-1.tif
7-0000667-1.tif
7-0000669-1.tif
7-0000670-1.tif
7-0000671-1.tif
7-0000674-1.tif
7-0000676-1.tif
7-0000677-1.tif
7-0000678-1.tif
7-0000678-5.tif
7-0000679-1.tif
7-0000680-1.tif
7-0000681-1.tif
7-0000682-1.tif
7-0000684-1.tif
7-0000686-1.tif
7-0000688-1.tif
7-0000688-11.tif
7-0000689-1.tif
7-0000690-1.tif
7-0000691-1.tif
7-0000692-1.tif
7-0000693-1.tif
7-0000694-1.tif
7-0000695-1.tif
7-0000696-1.tif
7-0000697-1.tif
7-0000698-1.tif
7-0000700-1.tif
7-0000701-1.tif
7-0000701-3.tif
7-0000702-1.tif
7-0000704-1.tif
7-0000705-1.tif
7-0000706-1.tif
7-0000709-1.tif
7-0000710-1.tif
7-0000712-1.tif
7-0000713-1.tif
7-0000714-1.tif
7-0000715-1.tif
7-0000716-1.tif
7-0000717-1.tif
7-0000718-1.tif
7-0000719-1.tif
7-0000720-1.tif
7-0000721-1.tif
7-0000722-1.tif
7-0000723-1.tif
7-0000724-1.tif
7-0000725-1.tif
7-0000725-11.tif
7-0000727-1.tif
7-0000728-1.tif
7-0000729-1.tif
7-0000731-1.tif
7-0000732-1.tif
7-0000733-1.tif
7-0000734-1.tif
7-0000736-1.tif
7-0000737-1.tif
7-0000738-1.tif
7-0000739-1.tif
7-0000740-1.tif
7-0000740-2.tif
7-0000740-21.tif
7-0000741-1.tif
7-0000742-1.tif
7-0000743-1.tif
7-0000744-1.tif
7-0000745-1.tif
7-0000747-1.tif
7-0000747-11.tif
7-0000748-1.tif
7-0000751-1.tif
7-0000752-1.tif
7-0000753-1.tif
7-0000754-1.tif
7-0000756-1.tif
7-0000756-11.tif
7-0000757-1.tif
7-0000758-1.tif
7-0000758-1.tif
7-0000759-1.tif
7-0000760-1.tif
7-0000761-1.tif
7-0000763-1.tif
7-0000764-1.tif
7-0000765-1.tif
7-0000766-1.tif
7-0000767-1.tif
7-0000768-1.tif
7-0000769-1.tif
7-0000770-1.tif
7-0000771-1.tif
7-0000772-1.tif
7-0000773-1.tif
7-0000773-11.tif
7-0000774-1.tif
7-0000776-1.tif
7-0000777-1.tif
7-0000778-1.tif
7-0000779-1.tif
7-0000780-1.tif
7-0000782-1.tif
7-0000783-1.tif
7-0000784-1.tif
7-0000785-1.tif
7-0000786-1.tif
7-0000787-1.tif
7-0000788-1.tif
7-0000788-1.tif
7-0000789-1.tif
7-0000790-1.tif
7-0000791-1.tif
7-0000792-1.tif
7-0000793-1.tif
7-0000794-1.tif
7-0000796-1.tif
7-0000797-1.tif
7-0000798-1.tif
7-0000799-1.tif
7-0000800-1.tif
7-0000801-1.tif
7-0000802-1.tif
7-0000803-1.tif
7-0000803-2.tif
7-0000803-21.tif
7-0000803-4.tif
7-0000803-41.tif
7-0000803-5.tif
7-0000803-51.tif
7-0000803-6.tif
7-0000803-61.tif
7-0000804-1.tif
7-0000805-1.tif
7-0000807-1.tif
7-0000808-1.tif
7-0000809-1.tif
7-0000810-1.tif
7-0000811-1.tif
7-0000813-2.tif
7-0000814-1.tif
7-0000815-1.tif
7-0000816-1.tif
7-0000817-1.tif
7-0000818-1.tif
7-0000820-1.tif
7-0000821-1.tif
7-0000822-1.tif
7-0000823-1.tif
7-0000824-1.tif
7-0000826-1.tif
7-0000828-1.tif
7-0000830-1.tif
7-0000831-1.tif
7-0000832-1.tif
7-0000833-1.tif
7-0000833-2.tif
7-0000833-21.tif
7-0000835-1.tif
7-0000837-1.tif
7-0000837-11.tif
7-0000839-1.tif
7-0000839-11.tif
7-0000840-1.tif
7-0000841-1.tif
7-0000842-1.tif
7-0000844-1.tif
7-0000845-1.tif
7-0000846-1.tif
7-0000847-1.tif
7-0000848-1.tif
7-0000849-1.tif
7-0000850-1.tif
7-0000851-1.tif
7-0000852-1.tif
7-0000853-1.tif
7-0000855-1.tif
7-0000856-1.tif
7-0000858-1.tif
7-0000859-1.tif
7-0000860-1.tif
7-0000861-1.tif
7-0000862-1.tif
7-0000863-1.tif
7-0000864-1.tif
7-0000866-1.tif
7-0000867-1.tif
7-0000868-1.tif
7-0000869-1.tif
7-0000870-1.tif
7-0000872-1.tif
7-0000873-1.tif
7-0000874-1.tif
7-0000874-11.tif
7-0000875-1.tif
7-0000876-1.tif
7-0000877-1.tif
7-0000878-1.tif
7-0000880-1.tif
7-0000881-1.tif
7-0000882-1.tif
7-0000885-1.tif
7-0000887-1.tif
7-0000888-1.tif
7-0000890-1.tif
7-0000890-11.tif
7-0000891-1.tif
7-0000892-1.tif
7-0000893-1.tif
7-0000894-1.tif
7-0000895-1.tif
7-0000896-1.tif
7-0000897-1.tif
7-0000898-1.tif
7-0000899-1.tif
7-0000900-1.tif
7-0000901-1.tif
7-0000902-1.tif
7-0000905-1.tif
7-0000906-1.tif
7-0000907-1.tif
7-0000908-1.tif
7-0000909-1.tif
7-0000910-1.tif
7-0000912-1.tif
7-0000914-1.tif
7-0000918-1.tif
7-0000920-1.tif
7-0000921-1.tif
7-0000921-2.tif
7-0000922-1.tif
7-0000923-1.tif
7-0000924-1.tif
7-0000925-1.tif
7-0000926-1.tif
7-0000927-1.tif
7-0000929-1.tif
7-0000930-1.tif
7-0000930-2.tif
7-0000930-21.tif
7-0000931-1.tif
7-0000932-1.tif
7-0000933-1.tif
7-0000934-1.tif
7-0000935-1.tif
7-0000937-1.tif
7-0000939-1.tif
7-0000939-11.tif
7-0000939-2.tif
7-0000940-1.tif
7-0000941-1.tif
7-0000942-1.tif
7-0000942-2.tif
7-0000942-21.tif
7-0000943-1.tif
7-0000945-1.tif
7-0000946-1.tif
7-0000947-1.tif
7-0000948-1.tif
7-0000949-1.tif
7-0000950-1.tif
7-0000951-1.tif
7-0000952-1.tif
7-0000953-1.tif
7-0000954-1.tif
7-0000955-1.tif
7-0000956-1.tif
7-0000957-1.tif
7-0000959-1.tif
7-0000960-1.tif
7-0000961-1.tif
7-0000962-1.tif
7-0000963-1.tif
7-0000964-1.tif
7-0000965-1.tif
7-0000966-1.tif
7-0000967-1.tif
7-0000968-1.tif
7-0000969-1.tif
7-0000969-11.tif
7-0000969-2.tif
7-0000969-21.tif
7-0000970-1.tif
7-0000971-1.tif
7-0000972-1.tif
7-0000974-1.tif
7-0000975-1.tif
7-0000976-1.tif
7-0000977-1.tif
7-0000978-2.tif
7-0000979-1.tif
7-0000980-1.tif
7-0000981-1.tif
7-0000983-1.tif
7-0000986-1.tif
7-0000987-1.tif
7-0000987-11.tif
7-0000987-2.tif
7-0000988-1.tif
7-0000989-1.tif
7-0000990-1.tif
7-0000991-1.tif
7-0000992-1.tif
7-0000992-11.tif
7-0000993-1.tif
7-0000993-11.tif
7-0000994-1.tif
7-0000997-1.tif
7-0000998-1.tif
7-0001002-1.tif
7-0001003-1.tif
7-0001005-1.tif
7-0001005-11.tif
7-0001005-111.tif
7-0001005-2.tif
7-0001006-1.tif
7-0001006-11.tif
7-0001008-1.tif
7-0001011-1.tif
7-0001013-1.tif
7-0001014-1.tif
7-0001015-1.tif
7-0001016-1.tif
7-0001017-1.tif
7-0001018-1.tif
7-0001019-1.tif
7-0001020-1.tif
7-0001021-1.tif
7-0001022-1.tif
7-0001023-1.tif
7-0001026-1.tif
7-0001028-1.tif
7-0001029-1.tif
7-0001033-1.tif
7-0001034-1.tif
7-0001035-2.tif
7-0001035-21.tif
7-0001035-211.tif
7-0001035-2111.tif
7-0001035-6.tif
7-0001035-61.tif
7-0001037-1.tif
7-0001038-1.tif
7-0001040-1.tif
7-0001041-1.tif
7-0001042-1.tif
7-0001043-1.tif
7-0001045-1.tif
7-0001046-1.tif
7-0001047-1.tif
7-0001048-1.tif
7-0001049-1.tif
7-0001050-1.tif
7-0001051-1.tif
7-0001053-1.tif
7-0001055-1.tif
7-0001056-1.tif
7-0001058-1.tif
7-0001059-1.tif
7-0001060-1.tif
7-0001061-1.tif
7-0001062-1.tif
7-0001063-1.tif
7-0001064-1.tif
7-0001066-1.tif
7-0001068-1.tif
7-0001070-1.tif
7-0001071-1.tif
7-0001072-1.tif
7-0001073-1.tif
7-0001075-1.tif
7-0001076-1.tif
7-0001077-1.tif
7-0001079-1.tif
7-0001079-2.tif
7-0001079-21.tif
7-0001081-1.tif
7-0001082-1.tif
7-0001083-1.tif
7-0001085-1.tif
7-0001086-1.tif
7-0001087-1.tif
7-0001088-1.tif
7-0001090-1.tif
7-0001092-1.tif
7-0001094-1.tif
7-0001094-11.tif
7-0001095-1.tif
7-0001096-1.tif
7-0001096-2.tif
7-0001096-21.tif
7-0001097-1.tif
7-0001098-1.tif
7-0001099-1.tif
7-0001100-1.tif
7-0001101-1.tif
7-0001103-1.tif
7-0001104-1.tif
7-0001105-1.tif
7-0001106-1.tif
7-0001107-1.tif
7-0001110-1.tif
7-0001112-1.tif
7-0001113-1.tif
7-0001114-1.tif
7-0001115-1.tif
7-0001116-1.tif
7-0001118-1.tif
7-0001119-1.tif
7-0001120-1.tif
7-0001120-2.tif
7-0001120-21.tif
7-0001122-1.tif
7-0001123-1.tif
7-0001124-1.tif
7-0001124-2.tif
7-0001127-1.tif
7-0001127-11.tif
7-0001127-3.tif
7-0001128-1.tif
7-0001129-1.tif
7-0001130-1.tif
7-0001131-1.tif
7-0001132-1.tif
7-0001135-1.tif
7-0001136-1.tif
7-0001137-1.tif
7-0001138-1.tif
7-0001138-11.tif
7-0001139-1.tif
7-0001141-1.tif
7-0001142-1.tif
7-0001143-1.tif
7-0001144-1.tif
7-0001144-11.tif
7-0001145-1.tif
7-0001146-1.tif
7-0001148-1.tif
7-0001149-1.tif
7-0001151-1.tif
7-0001152-1.tif
7-0001153-1.tif
7-0001153-2.tif
7-0001155-1.tif
7-0001156-1.tif
7-0001157-1.tif
7-0001158-1.tif
7-0001159-1.tif
7-0001160-1.tif
7-0001161-1.tif
7-0001162-1.tif
7-0001163-1.tif
7-0001164-1.tif
7-0001165-1.tif
7-0001166-1.tif
7-0001167-1.tif
7-0001169-1.tif
7-0001170-1.tif
7-0001172-1.tif
7-0001173-1.tif
7-0001174-1.tif
7-0001175-1.tif
7-0001176-1.tif
7-0001177-1.tif
7-0001178-1.tif
7-0001178-11.tif
7-0001178-1.tif
7-0001179-1.tif
7-0001181-1.tif
7-0001182-1.tif
7-0001183-1.tif
7-0001184-1.tif
7-0001185-1.tif
7-0001187-1.tif
7-0001187-11.tif
7-0001188-1.tif
7-0001189-1.tif
7-0001191-1.tif
7-0001191-11.tif
7-0001192-1.tif
7-0001193-1.tif
7-0001194-1.tif
7-0001195-1.tif
7-0001196-1.tif
7-0001197-2.tif
7-0001198-1.tif
7-0001199-1.tif
7-0001200-1.tif
7-0001201-1.tif
7-0001202-1.tif
7-0001202-2.tif
7-0001203-1.tif
7-0001204-1.tif
7-0001205-1.tif
7-0001206-1.tif
7-0001207-1.tif
7-0001208-1.tif
7-0001208-1.tif
7-0001209-1.tif
7-0001210-1.tif
7-0001211-1.tif
7-0001212-1.tif
7-0001213-1.tif
7-0001214-1.tif
7-0001216-1.tif
7-0001218-1.tif
7-0001219-1.tif
7-0001219-2.tif
7-0001221-1.tif
7-0001222-1.tif
7-0001227-1.tif
7-0001228-1.tif
7-0001230-1.tif
7-0001231-1.tif
7-0001231-11.tif
7-0001232-1.tif
7-0001233-1.tif
7-0001234-1.tif
7-0001236-1.tif
7-0001237-1.tif
7-0001237-11.tif
7-0001237-111.tif
7-0001238-1.tif
7-0001239-1.tif
7-0001240-1.tif
7-0001241-1.tif
7-0001243-1.tif
7-0001243-11.tif
7-0001244-1.tif
7-0001245-2.tif
7-0001245-21.tif
7-0001245-211.tif
7-0001245-3.tif
7-0001246-1.tif
7-0001247-1.tif
7-0001248-1.tif
7-0001248-1.tif
7-0001249-1.tif
7-0001250-1.tif
7-0001251-1.tif
7-0001252-1.tif
7-0001253-1.tif
7-0001254-1.tif
7-0001254-2.tif
7-0001255-1.tif
7-0001255-11.tif
7-0001257-1.tif
7-0001259-1.tif
7-0001259-11.tif
7-0001261-1.tif
7-0001262-1.tif
7-0001263-1.tif
7-0001263-2.tif
7-0001264-1.tif
7-0001264-11.tif
7-0001264-4.tif
7-0001264-41.tif
7-0001265-1.tif
7-0001266-1.tif
7-0001267-1.tif
7-0001268-1.tif
7-0001270-1.tif
7-0001272-1.tif
7-0001273-1.tif
7-0001274-1.tif
7-0001275-1.tif
7-0001276-1.tif
7-0001277-1.tif
7-0001278-1.tif
7-0001279-1.tif
7-0001281-1.tif
7-0001285-1.tif
7-0001286-1.tif
7-0001287-1.tif
7-0001288-1.tif
7-0001289-1.tif
7-0001291-1.tif
7-0001292-1.tif
7-0001293-1.tif
7-0001294-1.tif
7-0001295-1.tif
7-0001296-1.tif
7-0001297-1.tif
7-0001299-1.tif
7-0001300-1.tif
7-0001301-1.tif
7-0001302-1.tif
7-0001302-2.tif
7-0001302-21.tif
7-0001302-211.tif
7-0001303-2.tif
7-0001303-21.tif
7-0001303-211.tif
7-0001304-2.tif
7-0001304-21.tif
7-0001304-211.tif
7-0001305-2.tif
7-0001305-21.tif
7-0001305-211.tif
7-0001308-1.tif
7-0001309-1.tif
7-0001310-1.tif
7-0001311-1.tif
7-0001312-1.tif
7-0001313-1.tif
7-0001314-1.tif
7-0001316-1.tif
7-0001317-1.tif
7-0001318-1.tif
7-0001319-1.tif
7-0001320-1.tif
7-0001321-1.tif
7-0001322-1.tif
7-0001323-1.tif
7-0001324-1.tif
7-0001325-1.tif
7-0001326-1.tif
7-0001327-1.tif
7-0001328-1.tif
7-0001329-1.tif
7-0001330-1.tif
7-0001331-1.tif
7-0001332-1.tif
7-0001337-1.tif
7-0001338-1.tif
7-0001339-1.tif
7-0001341-1.tif
7-0001342-1.tif
7-0001342-2.tif
7-0001343-1.tif
7-0001344-1.tif
7-0001345-1.tif
7-0001346-1.tif
7-0001347-1.tif
7-0001348-1.tif
7-0001349-1.tif
7-0001350-1.tif
7-0001351-1.tif
7-0001351-11.tif
7-0001353-1.tif
7-0001354-1.tif
7-0001355-1.tif
7-0001356-1.tif
7-0001357-1.tif
7-0001358-1.tif
7-0001359-3.tif
7-0001360-1.tif
7-0001362-1.tif
7-0001363-1.tif
7-0001364-1.tif
7-0001365-1.tif
7-0001365-11.tif
7-0001365-2.tif
7-0001365-21.tif
7-0001367-1.tif
7-0001368-1.tif
7-0001369-1.tif
7-0001370-1.tif
7-0001371-1.tif
7-0001372-1.tif
7-0001373-1.tif
7-0001375-1.tif
7-0001375-11.tif
7-0001378-1.tif
7-0001378-2.tif
7-0001379-1.tif
7-0001380-1.tif
7-0001380-11.tif
7-0001382-1.tif
7-0001383-1.tif
7-0001384-1.tif
7-0001385-1.tif
7-0001386-1.tif
7-0001387-1.tif
7-0001388-1.tif
7-0001390-1.tif
7-0001392-1.tif
7-0001393-1.tif
7-0001394-1.tif
7-0001396-1.tif
7-0001398-1.tif
7-0001398-2.tif
7-0001399-1.tif
7-0001403-1.tif
7-0001404-1.tif
7-0001405-1.tif
7-0001406-1.tif
7-0001407-1.tif
7-0001407-11.tif
7-0001408-1.tif
7-0001409-1.tif
7-0001410-1.tif
7-0001411-1.tif
7-0001412-1.tif
7-0001413-1.tif
7-0001414-1.tif
7-0001415-1.tif
7-0001416-1.tif
7-0001417-1.tif
7-0001419-1.tif
7-0001421-1.tif
7-0001422-1.tif
7-0001423-1.tif
7-0001423-2.tif
7-0001424-1.tif
7-0001425-1.tif
7-0001427-1.tif
7-0001428-1.tif
7-0001429-1.tif
7-0001431-1.tif
7-0001433-1.tif
7-0001435-1.tif
7-0001435-2.tif
7-0001435-7.tif
7-0001435-71.tif
7-0001435-711.tif
7-0001435-8.tif
7-0001435-9.tif
7-0001436-1.tif
7-0001437-1.tif
7-0001438-1.tif
7-0001439-1.tif
7-0001440-1.tif
7-0001444-1.tif
7-0001445-1.tif
7-0001446-1.tif
7-0001446-2.tif
7-0001446-21.tif
7-0001447-1.tif
7-0001447-2.tif
7-0001448-1.tif
7-0001449-1.tif
7-0001450-1.tif
7-0001451-1.tif
7-0001452-1.tif
7-0001453-2.tif
7-0001454-1.tif
7-0001455-1.tif
7-0001456-1.tif
7-0001457-1.tif
7-0001458-1.tif
7-0001459-1.tif
7-0001460-1.tif
7-0001460-2.tif
7-0001461-1.tif
7-0001464-1.tif
7-0001465-1.tif
7-0001466-1.tif
7-0001467-1.tif
7-0001468-1.tif
7-0001468-11.tif
7-0001472-1.tif
7-0001475-1.tif
7-0001476-1.tif
7-0001478-1.tif
7-0001479-1.tif
7-0001481-1.tif
7-0001482-1.tif
7-0001484-1.tif
7-0001485-1.tif
7-0001486-1.tif
7-0001487-1.tif
7-0001487-2.tif
7-0001487-21.tif
7-0001487-211.tif
7-0001487-4.tif
7-0001487.tif
7-0001488-1.tif
7-0001489-1.tif
7-0001490-1.tif
7-0001491-1.tif
7-0001493-1.tif
7-0001495-1.tif
7-0001495-11.tif
7-0001496-1.tif
7-0001497-1.tif
7-0001498-1.tif
7-0001499-1.tif
7-0001500-1.tif
7-0001500-2.tif
7-0001500-21.tif
7-0001500-211.tif
7-0001500-3.tif
7-0001500-31.tif
7-0001502-1.tif
7-0001503-1.tif
7-0001504-1.tif
7-0001506-1.tif
7-0001506-11.tif
7-0001506-2.tif
7-0001506-21.tif
7-0001507-1.tif
7-0001508-1.tif
7-0001509-1.tif
7-0001509-2.tif
7-0001509-3.tif
7-0001510-1.tif
7-0001511-1.tif
7-0001512-1.tif
7-0001513-1.tif
7-0001514-1.tif
7-0001515-1.tif
7-0001517-1.tif
7-0001519-1.tif
7-0001520-1.tif
7-0001522-1.tif
7-0001522-11.tif
7-0001522-2.tif
7-0001522-8.tif
7-0001522-81.tif
7-0001522-9.tif
7-0001523-1.tif
7-0001524-1.tif
7-0001525-1.tif
7-0001526-1.tif
7-0001528-1.tif
7-0001530-1.tif
7-0001531-1.tif
7-0001531-11.tif
7-0001532-1.tif
7-0001533-1.tif
7-0001534-1.tif
7-0001535-1.tif
7-0001536-1.tif
7-0001538-1.tif
7-0001539-1.tif
7-0001540-1.tif
7-0001541-1.tif
7-0001541-11.tif
7-0001542-1.tif
7-0001543-1.tif
7-0001544-1.tif
7-0001545-1.tif
7-0001546-1.tif
7-0001547-1.tif
7-0001548-1.tif
7-0001549-1.tif
7-0001550-1.tif
7-0001551-1.tif
7-0001553-1.tif
7-0001554-1.tif
7-0001555-10.tif
7-0001555-2.tif
7-0001555-6.tif
7-0001555-8.tif
7-0001555-1.tif
7-0001556-1.tif
7-0001557-1.tif
7-0001557-11.tif
7-0001559-1.tif
7-0001561-1.tif
7-0001561-2.tif
7-0001562-1.tif
7-0001563-1.tif
7-0001565-1.tif
7-0001566-1.tif
7-0001569-1.tif
7-0001570-1.tif
7-0001571-1.tif
7-0001573-1.tif
7-0001574-1.tif
7-0001575-1.tif
7-0001576-1.tif
7-0001578-1.tif
7-0001579-1.tif
7-0001581-1.tif
7-0001583-1.tif
7-0001584-1.tif
7-0001585-1.tif
7-0001586-1.tif
7-0001587-1.tif
7-0001587-11.tif
7-0001588-1.tif
7-0001590-1.tif
7-0001591-1.tif
7-0001592-1.tif
7-0001593-1.tif
7-0001594-1.tif
7-0001595-1.tif
7-0001596-1.tif
7-0001597-1.tif
7-0001600-1.tif
7-0001601-1.tif
7-0001602-1.tif
7-0001603-1.tif
7-0001604-1.tif
7-0001605-1.tif
7-0001606-2.tif
7-0001607-1.tif
7-0001608-1.tif
7-0001610-1.tif
7-0001614-1.tif
7-0001615-1.tif
7-0001616-1.tif
7-0001617-1.tif
7-0001618-1.tif
7-0001619-1.tif
7-0001621-1.tif
7-0001622-1.tif
7-0001623-1.tif
7-0001624-1.tif
7-0001625-1.tif
7-0001626-1.tif
7-0001627-1.tif
7-0001629-1.tif
7-0001630-1.tif
7-0001631-1.tif
7-0001632-1.tif
7-0001633-1.tif
7-0001634-1.tif
7-0001635-1.tif
7-0001636-1.tif
7-0001637-1.tif
7-0001639-1.tif
7-0001640-1.tif
7-0001641-1.tif
7-0001642-1.tif
7-0001643-1.tif
7-0001643-11.tif
7-0001644-1.tif
7-0001646-1.tif
7-0001646-11.tif
7-0001646-2.tif
7-0001647-1.tif
7-0001647-11.tif
7-0001648-1.tif
7-0001649-1.tif
7-0001651-1.tif
7-0001651-11.tif
7-0001653-1.tif
7-0001653-11.tif
7-0001654-1.tif
7-0001655-1.tif
7-0001655-11.tif
7-0001656-1.tif
7-0001657-1.tif
7-0001657-11.tif
7-0001658-1.tif
7-0001659-1.tif
7-0001659-11.tif
7-0001660-1.tif
7-0001661-1.tif
7-0001662-1.tif
7-0001663-1.tif
7-0001665-2.tif
7-0001666-1.tif
7-0001666-11.tif
7-0001667-1.tif
7-0001668-1.tif
7-0001669-1.tif
7-0001670-1.tif
7-0001671-1.tif
7-0001672-1.tif
7-0001673-1.tif
7-0001674-1.tif
7-0001675-1.tif
7-0001676-1.tif
7-0001676-2.tif
7-0001679-1.tif
7-0001680-1.tif
7-0001681-1.tif
7-0001682-1.tif
7-0001683-1.tif
7-0001683-11.tif
7-0001683-2.tif
7-0001683-21.tif
7-0001684-1.tif
7-0001685-1.tif
7-0001687-1.tif
7-0001688-1.tif
7-0001689-1.tif
7-0001689-11.tif
7-0001690-1.tif
7-0001690-2.tif
7-0001691-1.tif
7-0001692-1.tif
7-0001694-1.tif
7-0001695-1.tif
7-0001696-1.tif
7-0001697-1.tif
7-0001697-11.tif
7-0001698-1.tif
7-0001698-2.tif
7-0001699-1.tif
7-0001700-1.tif
7-0001701-1.tif
7-0001702-1.tif
7-0001703-1.tif
7-0001704-1.tif
7-0001707-1.tif
7-0001708-1.tif
7-0001709-1.tif
7-0001710-1.tif
7-0001711-1.tif
7-0001713-1.tif
7-0001714-1.tif
7-0001715-1.tif
7-0001716-1.tif
7-0001718-1.tif
7-0001719-1.tif
7-0001721-1.tif
7-0001722-1.tif
7-0001723-1.tif
7-0001724-1.tif
7-0001725-1.tif
7-0001726-1.tif
7-0001727-1.tif
7-0001728-1.tif
7-0001729-1.tif
7-0001730-1.tif
7-0001731-1.tif
7-0001736-1.tif
7-0001738-1.tif
7-0001739-1.tif
7-0001740-1.tif
7-0001741-1.tif
7-0001742-1.tif
7-0001744-1.tif
7-0001745-1.tif
7-0001746-1.tif
7-0001747-1.tif
7-0001748-1.tif
7-0001749-1.tif
7-0001750-1.tif
7-0001751-1.tif
7-0001752-1.tif
7-0001753-1.tif
7-0001754-1.tif
7-0001755-1.tif
7-0001755-11.tif
7-0001756-1.tif
7-0001758-1.tif
7-0001760-1.tif
7-0001761-1.tif
7-0001762-1.tif
7-0001763-1.tif
7-0001764-1.tif
7-0001765-1.tif
7-0001767-1.tif
7-0001768-1.tif
7-0001769-1.tif
7-0001770-1.tif
7-0001772-1.tif
7-0001773-1.tif
7-0001774-1.tif
7-0001775-1.tif
7-0001776-1.tif
7-0001777-4.tif
7-0001778-1.tif
7-0001779-1.tif
7-0001780-1.tif
7-0001781-1.tif
7-0001782-1.tif
7-0001783-1.tif
7-0001784-1.tif
7-0001785-1.tif
7-0001786-1.tif
7-0001787-1.tif
7-0001788-1.tif
7-0001791-1.tif
7-0001792-1.tif
7-0001793-1.tif
7-0001794-1.tif
7-0001795-1.tif
7-0001796-1.tif
7-0001797-1.tif
7-0001798-1.tif
7-0001799-1.tif
7-0001801-1.tif
7-0001802-1.tif
7-0001803-1.tif
7-0001803-2.tif
7-0001803-3.tif
7-0001804-1.tif
7-0001805-1.tif
7-0001805-2.tif
7-0001806-1.tif
7-0001806-2.tif
7-0001806-21.tif
7-0001807-1.tif
7-0001808-1.tif
7-0001809-1.tif
7-0001809-2.tif
7-0001809-21.tif
7-0001811-1.tif
7-0001813-1.tif
7-0001814-1.tif
7-0001815-1.tif
7-0001816-1.tif
7-0001817-1.tif
7-0001818-1.tif
7-0001819-1.tif
7-0001821-1.tif
7-0001822-1.tif
7-0001823-1.tif
7-0001824-1.tif
7-0001825-1.tif
7-0001826-1.tif
7-0001827-1.tif
7-0001830-1.tif
7-0001831-1.tif
7-0001833-1.tif
7-0001834-1.tif
7-0001836-1.tif
7-0001837-1.tif
7-0001838-1.tif
7-0001839-1.tif
7-0001842-1.tif
7-0001842-11.tif
7-0001842-1.tif
7-0001843-1.tif
7-0001843-11.tif
7-0001844-1.tif
7-0001846-1.tif
7-0001847-1.tif
7-0001848-1.tif
7-0001849-1.tif
7-0001850-1.tif
7-0001851-1.tif
7-0001852-1.tif
7-0001853-1.tif
7-0001855-1.tif
7-0001856-1.tif
7-0001857-1.tif
7-0001858-1.tif
7-0001858-11.tif
7-0001858-2.tif
7-0001859-1.tif
7-0001860-1.tif
7-0001861-1.tif
7-0001862-1.tif
7-0001863-1.tif
7-0001864-1.tif
7-0001866-1.tif
7-0001871-1.tif
7-0001872-1.tif
7-0001875-1.tif
7-0001876-1.tif
7-0001877-1.tif
7-0001878-1.tif
7-0001880-1.tif
7-0001881-1.tif
7-0001882-1.tif
7-0001885-1.tif
7-0001886-1.tif
7-0001887-1.tif
7-0001887-11.tif
7-0001888-1.tif
7-0001889-1.tif
7-0001890-1.tif
7-0001891-1.tif
7-0001892-1.tif
7-0001893-1.tif
7-0001893-11.tif
7-0001894-1.tif
7-0001894-2.tif
7-0001895-1.tif
7-0001896-1.tif
7-0001897-1.tif
7-0001898-1.tif
7-0001899-1.tif
7-0001900-1.tif
7-0001901-1.tif
7-0001902-1.tif
7-0001903-1.tif
7-0001905-1.tif
7-0001906-1.tif
7-0001906-11.tif
7-0001907-1.tif
7-0001908-1.tif
7-0001909-1.tif
7-0001910-1.tif
7-0001913-1.tif
7-0001914-1.tif
7-0001915-1.tif
7-0001915-11.tif
7-0001916-1.tif
7-0001917-1.tif
7-0001918-1.tif
7-0001919-1.tif
7-0001921-1.tif
7-0001922-1.tif
7-0001923-1.tif
7-0001926-1.tif
7-0001927-1.tif
7-0001928-1.tif
7-0001929-1.tif
7-0001930-1.tif
7-0001931-1.tif
7-0001933-1.tif
7-0001934-1.tif
7-0001935-1.tif
7-0001936-1.tif
7-0001937-1.tif
7-0001937-2.tif
7-0001937-21.tif
7-0001938-1.tif
7-0001940-1.tif
7-0001940-1.tif
7-0001941-1.tif
7-0001942-1.tif
7-0001943-1.tif
7-0001945-1.tif
7-0001946-1.tif
7-0001947-1.tif
7-0001948-1.tif
7-0001950-1.tif
7-0001951-1.tif
7-0001954-1.tif
7-0001955-1.tif
7-0001956-1.tif
7-0001959-1.tif
7-0001960-1.tif
7-0001961-1.tif
7-0001962-1.tif
7-0001963-1.tif
7-0001964-1.tif
7-0001966-1.tif
7-0001967-1.tif
7-0001968-1.tif
7-0001969-1.tif
7-0001970-1.tif
7-0001971-1.tif
7-0001973-1.tif
7-0001974-1.tif
7-0001975-1.tif
7-0001976-1.tif
7-0001977-1.tif
7-0001978-1.tif
7-0001979-1.tif
7-0001980-1.tif
7-0001981-1.tif
7-0001981-11.tif
7-0001982-1.tif
7-0001986-1.tif
7-0001987-2.tif
7-0001987-21.tif
7-0001988-1.tif
7-0001989-1.tif
7-0001991-1.tif
7-0001992-1.tif
7-0001993-1.tif
7-0001994-1.tif
7-0001995-1.tif
7-0001996-1.tif
7-0001997-1.tif
7-0001998-1.tif
7-0001999-1.tif
7-0002000-1.tif
7-0002001-1.tif
7-0002003-1.tif
7-0002004-1.tif
7-0002006-1.tif
7-0002006-11.tif
7-0002007-1.tif
7-0002008-1.tif
7-0002009-1.tif
7-0002010-1.tif
7-0002011-1.tif
7-0002012-1.tif
7-0002013-1.tif
7-0002014-1.tif
7-0002015-1.tif
7-0002016-1.tif
7-0002017-1.tif
7-0002019-1.tif
7-0002020-1.tif
7-0002023-1.tif
7-0002024-1.tif
7-0002026-1.tif
7-0002027-1.tif
7-0002028-1.tif
7-0002029-1.tif
7-0002031-1.tif
7-0002032-1.tif
7-0002033-1.tif
7-0002034-1.tif
7-0002035-1.tif
7-0002036-1.tif
7-0002037-1.tif
7-0002037-11.tif
7-0002039-1.tif
7-0002040-1.tif
7-0002041-1.tif
7-0002042-1.tif
7-0002044-1.tif
7-0002045-1.tif
7-0002045-2.tif
7-0002046-1.tif
7-0002048-1.tif
7-0002049-1.tif
7-0002051-1.tif
7-0002052-1.tif
7-0002053-1.tif
7-0002056-1.tif
7-0002057-1.tif
7-0002058-1.tif
7-0002059-1.tif
7-0002060-1.tif
7-0002061-1.tif
7-0002062-1.tif
7-0002065-1.tif
7-0002067-1.tif
7-0002068-1.tif
7-0002068-11.tif
7-0002070-1.tif
7-0002073-1.tif
7-0002073-2.tif
7-0002073-21.tif
7-0002073-211.tif
7-0002073-3.tif
7-0002074-1.tif
7-0002075-1.tif
7-0002076-1.tif
7-0002078-1.tif
7-0002079-1.tif
7-0002080-1.tif
7-0002080-3.tif
7-0002080-31.tif
7-0002081-1.tif
7-0002083-1.tif
7-0002084-1.tif
7-0002085-2.tif
7-0002087-1.tif
7-0002088-1.tif
7-0002089-1.tif
7-0002089-11.tif
7-0002090-1.tif
7-0002091-1.tif
7-0002092-1.tif
7-0002094-1.tif
7-0002096-1.tif
7-0002097-1.tif
7-0002098-1.tif
7-0002099-1.tif
7-0002101-1.tif
7-0002102-1.tif
7-0002104-1.tif
7-0002105-1.tif
7-0002107-1.tif
7-0002108-1.tif
7-0002109-1.tif
7-0002110-1.tif
7-0002111-1.tif
7-0002112-2.tif
7-0002115-1.tif
7-0002115-11.tif
7-0002115-1.tif
7-0002116-1.tif
7-0002118-1.tif
7-0002119-1.tif
7-0002120-1.tif
7-0002122-1.tif
7-0002123-1.tif
7-0002124-1.tif
7-0002125-1.tif
7-0002128-1.tif
7-0002128-11.tif
7-0002130-1.tif
7-0002131-1.tif
7-0002132-1.tif
7-0002135-1.tif
7-0002135-11.tif
7-0002137-1.tif
7-0002138-1.tif
7-0002139-1.tif
7-0002140-1.tif
7-0002141-1.tif
7-0002141-2.tif
7-0002141-21.tif
7-0002144-1.tif
7-0002145-1.tif
7-0002147-1.tif
7-0002148-1.tif
7-0002149-1.tif
7-0002150-1.tif
7-0002152-1.tif
7-0002153-1.tif
7-0002154-1.tif
7-0002155-1.tif
7-0002156-1.tif
7-0002157-1.tif
7-0002158-1.tif
7-0002159-1.tif
7-0002160-1.tif
7-0002161-1.tif
7-0002162-1.tif
7-0002163-1.tif
7-0002163-11.tif
7-0002164-1.tif
7-0002166-1.tif
7-0002167-1.tif
7-0002168-1.tif
7-0002169-1.tif
7-0002170-1.tif
7-0002171-1.tif
7-0002172-1.tif
7-0002173-1.tif
7-0002173-11.tif
7-0002174-1.tif
7-0002175-1.tif
7-0002176-1.tif
7-0002177-1.tif
7-0002180-1.tif
7-0002181-1.tif
7-0002182-1.tif
7-0002183-1.tif
7-0002184-1.tif
7-0002185-1.tif
7-0002186-1.tif
7-0002189-1.tif
7-0002189-11.tif
7-0002190-1.tif
7-0002191-1.tif
7-0002192-1.tif
7-0002193-1.tif
7-0002195-1.tif
7-0002196-1.tif
7-0002198-1.tif
7-0002200-1.tif
7-0002201-1.tif
7-0002202-1.tif
7-0002203-1.tif
7-0002204-1.tif
7-0002205-1.tif
7-0002209-1.tif
7-0002210-1.tif
7-0002210-2.tif
7-0002211-1.tif
7-0002212-1.tif
7-0002213-1.tif
7-0002214-1.tif
7-0002216-1.tif
7-0002218-1.tif
7-0002219-1.tif
7-0002219-11.tif
7-0002220-1.tif
7-0002221-1.tif
7-0002225-1.tif
7-0002225-11.tif
7-0002226-1.tif
7-0002227-1.tif
7-0002228-1.tif
7-0002228-2.tif
7-0002228-21.tif
7-0002229-1.tif
7-0002230-1.tif
7-0002230-11.tif
7-0002230-4.tif
7-0002231-2.tif
7-0002231-4.tif
7-0002231-41.tif
7-0002231-411.tif
7-0002231-5.tif
7-0002231-51.tif
7-0002232-1.tif
7-0002233-1.tif
7-0002235-1.tif
7-0002238-1.tif
7-0002239-1.tif
7-0002240-1.tif
7-0002242-1.tif
7-0002243-1.tif
7-0002244-1.tif
7-0002244-2.tif
7-0002244-21.tif
7-0002245-1.tif
7-0002246-1.tif
7-0002247-1.tif
7-0002248-1.tif
7-0002249-1.tif
7-0002249-11.tif
7-0002249-2.tif
7-0002249-21.tif
7-0002252-1.tif
7-0002253-1.tif
7-0002256-1.tif
7-0002257-1.tif
7-0002258-1.tif
7-0002259-1.tif
7-0002260-1.tif
7-0002261-1.tif
7-0002263-1.tif
7-0002263-11.tif
7-0002264-1.tif
7-0002267-1.tif
7-0002270-1.tif
7-0002271-1.tif
7-0002272-2.tif
7-0002272-21.tif
7-0002272-3.tif
7-0002273-1.tif
7-0002276-1.tif
7-0002276-2.tif
7-0002276-3.tif
7-0002276-4.tif
7-0002276-5.tif
7-0002277-1.tif
7-0002279-1.tif
7-0002280-1.tif
7-0002281-1.tif
7-0002282-1.tif
7-0002283-1.tif
7-0002284-1.tif
7-0002285-1.tif
7-0002286-1.tif
7-0002287-1.tif
7-0002288-1.tif
7-0002288-1.tif
7-0002289-1.tif
7-0002289-1.tif
7-0002290-1.tif
7-0002290-2.tif
7-0002291-1.tif
7-0002292-1.tif
7-0002293-1.tif
7-0002295-1.tif
7-0002296-1.tif
7-0002297-1.tif
7-0002298-1.tif
7-0002300-1.tif
7-0002301-1.tif
7-0002302-1.tif
7-0002303-1.tif
7-0002303-2.tif
7-0002304-1.tif
7-0002305-1.tif
7-0002306-1.tif
7-0002307-1.tif
7-0002309-1.tif
7-0002311-1.tif
7-0002312-1.tif
7-0002313-1.tif
7-0002314-1.tif
7-0002315-1.tif
7-0002321-1.tif
7-0002323-1.tif
7-0002324-1.tif
7-0002324-2.tif
7-0002324-21.tif
7-0002324-211.tif
7-0002325-1.tif
7-0002326-1.tif
7-0002327-1.tif
7-0002328-1.tif
7-0002329-1.tif
7-0002331-1.tif
7-0002332-1.tif
7-0002334-1.tif
7-0002335-1.tif
7-0002336-1.tif
7-0002337-1.tif
7-0002338-1.tif
7-0002339-1.tif
7-0002340-1.tif
7-0002341-1.tif
7-0002343-1.tif
7-0002344-1.tif
7-0002345-1.tif
7-0002347-1.tif
7-0002350-2.tif
7-0002351-1.tif
7-0002352-1.tif
7-0002353-1.tif
7-0002353-11.tif
7-0002354-1.tif
7-0002355-1.tif
7-0002356-1.tif
7-0002357-1.tif
7-0002360-1.tif
7-0002362-1.tif
7-0002363-1.tif
7-0002364-1.tif
7-0002365-1.tif
7-0002368-1.tif
7-0002369-1.tif
7-0002370-1.tif
7-0002371-1.tif
7-0002372-1.tif
7-0002372-11.tif
7-0002373-1.tif
7-0002373-11.tif
7-0002374-1.tif
7-0002375-1.tif
7-0002376-1.tif
7-0002377-1.tif
7-0002378-1.tif
7-0002382-1.tif
7-0002383-1.tif
7-0002384-1.tif
7-0002386-1.tif
7-0002387-1.tif
7-0002388-1.tif
7-0002389-1.tif
7-0002390-1.tif
7-0002391-1.tif
7-0002392-1.tif
7-0002394-1.tif
7-0002394-11.tif
7-0002395-1.tif
7-0002397-4.tif
7-0002397-41.tif
7-0002398-1.tif
7-0002400-1.tif
7-0002401-1.tif
7-0002402-1.tif
7-0002403-1.tif
7-0002404-1.tif
7-0002405-1.tif
7-0002407-1.tif
7-0002408-1.tif
7-0002410-1.tif
7-0002411-1.tif
7-0002412-1.tif
7-0002413-1.tif
7-0002414-1.tif
7-0002416-1.tif
7-0002417-1.tif
7-0002418-1.tif
7-0002419-1.tif
7-0002423-1.tif
7-0002424-1.tif
7-0002425-1.tif
7-0002426-1.tif
7-0002427-1.tif
7-0002428-1.tif
7-0002430-1.tif
7-0002431-1.tif
7-0002432-1.tif
7-0002435-1.tif
7-0002436-1.tif
7-0002437-1.tif
7-0002438-1.tif
7-0002439-1.tif
7-0002441-1.tif
7-0002442-1.tif
7-0002443-1.tif
7-0002445-1.tif
7-0002446-1.tif
7-0002450-1.tif
7-0002452-1.tif
7-0002453-1.tif
7-0002454-1.tif
7-0002455-1.tif
7-0002456-1.tif
7-0002457-1.tif
7-0002458-1.tif
7-0002459-1.tif
7-0002460-1.tif
7-0002461-1.tif
7-0002463-1.tif
7-0002464-1.tif
7-0002465-1.tif
7-0002466-1.tif
7-0002467-1.tif
7-0002468-1.tif
7-0002469-1.tif
7-0002470-1.tif
7-0002471-1.tif
7-0002472-1.tif
7-0002475-1.tif
7-0002476-1.tif
7-0002478-1.tif
7-0002479-1.tif
7-0002480-1.tif
7-0002481-1.tif
7-0002485-1.tif
7-0002486-1.tif
7-0002486-11.tif
7-0002486-2.tif
7-0002486-21.tif
7-0002487-1.tif
7-0002488-1.tif
7-0002488-11.tif
7-0002489-1.tif
7-0002490-1.tif
7-0002491-1.tif
7-0002492-1.tif
7-0002493-1.tif
7-0002494-1.tif
7-0002496-1.tif
7-0002498-1.tif
7-0002499-1.tif
7-0002500-1.tif
7-0002502-1.tif
7-0002503-1.tif
7-0002504-1-1.tif
7-0002504-1.tif
7-0002505-1.tif
7-0002508-1.tif
7-0002509-1.tif
7-0002510-1.tif
7-0002511-1.tif
7-0002512-1.tif
7-0002513-1.tif
7-0002515-1.tif
7-0002518-1.tif
7-0002520-1.tif
7-0002521-1.tif
7-0002522-1.tif
7-0002524-1.tif
7-0002525-1.tif
7-0002526-1.tif
7-0002528-1.tif
7-0002529-1.tif
7-0002530-1.tif
7-0002531-1.tif
7-0002532-1.tif
7-0002533-1.tif
7-0002533-2.tif
7-0002534-1.tif
7-0002535-1.tif
7-0002536-1.tif
7-0002537-1.tif
7-0002538-1.tif
7-0002540-1.tif
7-0002543-1.tif
7-0002544-1.tif
7-0002545-1.tif
7-0002546-1.tif
7-0002548-1.tif
7-0002549-1.tif
7-0002550-1.tif
7-0002551-1.tif
7-0002551-2.tif
7-0002554-1.tif
7-0002555-1.tif
7-0002556-1.tif
7-0002557-1.tif
7-0002559-1.tif
7-0002560-1.tif
7-0002562-1.tif
7-0002563-1.tif
7-0002564-1.tif
7-0002565-1.tif
7-0002566-1.tif
7-0002567-1.tif
7-0002571-1.tif
7-0002572-1.tif
7-0002573-1.tif
7-0002574-1.tif
7-0002576-1.tif
7-0002577-1.tif
7-0002579-1.tif
7-0002580-1.tif
7-0002582-1.tif
7-0002583-1.tif
7-0002584-1.tif
7-0002585-1.tif
7-0002586-1.tif
7-0002588-1.tif
7-0002589-1.tif
7-0002589-2.tif
7-0002589-3.tif
7-0002590-1.tif
7-0002591-1.tif
7-0002592-1.tif
7-0002593-1.tif
7-0002594-1.tif
7-0002595-1.tif
7-0002596-1.tif
7-0002597-1.tif
7-0002598-1.tif
7-0002599-1.tif
7-0002600-1.tif
7-0002601-1.tif
7-0002603-1.tif
7-0002604-1.tif
7-0002605-1.tif
7-0002606-1.tif
7-0002607-1.tif
7-0002608-1.tif
7-0002609-1.tif
7-0002610-1.tif
7-0002610-11.tif
7-0002612-1.tif
7-0002613-1.tif
7-0002614-1.tif
7-0002618-1.tif
7-0002618-2.tif
7-0002618-21.tif
7-0002618-211.tif
7-0002618-5.tif
7-0002619-1.tif
7-0002620-1.tif
7-0002621-1.tif
7-0002622-1.tif
7-0002623-1.tif
7-0002624-1.tif
7-0002625-1.tif
7-0002625-11.tif
7-0002628-1.tif
7-0002629-1.tif
7-0002630-1.tif
7-0002631-1.tif
7-0002632-1.tif
7-0002633-1.tif
7-0002633-2.tif
7-0002633-21.tif
7-0002634-1.tif
7-0002634-2.tif
7-0002641-1.tif
7-0002642-1.tif
7-0002644-1.tif
7-0002645-1.tif
7-0002646-1.tif
7-0002647-1.tif
7-0002648-1.tif
7-0002649-1.tif
7-0002650-1.tif
7-0002650-11.tif
7-0002651-1.tif
7-0002653-1.tif
7-0002653-11.tif
7-0002654-1.tif
7-0002655-1.tif
7-0002656-1.tif
7-0002657-1.tif
7-0002658-1.tif
7-0002659-1.tif
7-0002663-1.tif
7-0002664-1.tif
7-0002666-1.tif
7-0002667-1.tif
7-0002668-1.tif
7-0002668-11.tif
7-0002670-1.tif
7-0002671-1.tif
7-0002671-2.tif
7-0002671-21.tif
7-0002672-1.tif
7-0002673-1.tif
7-0002675-1.tif
7-0002677-1.tif
7-0002677-11.tif
7-0002678-1.tif
7-0002679-1.tif
7-0002680-1.tif
7-0002681-1.tif
7-0002682-1.tif
7-0002683-1.tif
7-0002683-11.tif
7-0002685-1.tif
7-0002686-1.tif
7-0002687-1.tif
7-0002688-1.tif
7-0002689-1.tif
7-0002691-1.tif
7-0002705-1.tif
7-0002706-1.tif
7-0002707-1.tif
7-0002708-1.tif
7-0002709-1.tif
7-0002711-1.tif
7-0002714-1.tif
7-0002714-2.tif
7-0002714-21.tif
7-0002714-211.tif
7-0002714-2111.tif
7-0002716-1.tif
7-0002720-1.tif
7-0002721-1.tif
7-0002722-1.tif
7-0002723-1.tif
7-0002724-1.tif
7-0002725-1.tif
7-0002726-1.tif
7-0002727-1.tif
7-0002729-1.tif
7-0002729-2.tif
7-0002729-21.tif
7-0002730-1.tif
7-0002731-1.tif
7-0002732-1.tif
7-0002732-2.tif
7-0002732-3.tif
7-0002733-1.tif
7-0002734-1.tif
7-0002735-1.tif
7-0002735-2.tif
7-0002737-1.tif
7-0002738-1.tif
7-0002741-1.tif
7-0002743-1.tif
7-0002744-1.tif
7-0002744-2.tif
7-0002745-1.tif
7-0002746-1.tif
7-0002747-1.tif
7-0002748-1.tif
7-0002749-1.tif
7-0002750-1.tif
7-0002752-1.tif
7-0002753-1.tif
7-0002754-1.tif
7-0002754-11.tif
7-0002755-1.tif
7-0002756-1.tif
7-0002757-1.tif
7-0002758-1.tif
7-0002759-1.tif
7-0002759-11.tif
7-0002760-1.tif
7-0002762-1.tif
7-0002763-1.tif
7-0002764-1.tif
7-0002765-1.tif
7-0002766-1.tif
7-0002767-1.tif
7-0002768-1.tif
7-0002769-3.tif
7-0002769-31.tif
7-0002769-311.tif
7-0002770-1.tif
7-0002771-1.tif
7-0002772-1.tif
7-0002773-1.tif
7-0002774-1.tif
7-0002775-1.tif
7-0002776-1.tif
7-0002777-1.tif
7-0002777-11.tif
7-0002778-1.tif
7-0002779-2.tif
7-0002779-4.tif
7-0002781-1.tif
7-0002783-1.tif
7-0002785-1.tif
7-0002787-1.tif
7-0002788-1.tif
7-0002788-11.tif
7-0002789-1.tif
7-0002790-1.tif
7-0002791-1.tif
7-0002793-1.tif
7-0002795-1.tif
7-0002796-1.tif
7-0002796-11.tif
7-0002799-1.tif
7-0002800-1.tif
7-0002801-1.tif
7-0002802-1.tif
7-0002803-1.tif
7-0002804-1.tif
7-0002805-1.tif
7-0002806-1.tif
7-0002808-1.tif
7-0002809-1.tif
7-0002810-1.tif
7-0002811-1.tif
7-0002812-1.tif
7-0002814-1.tif
7-0002815-1.tif
7-0002815-2.tif
7-0002815-21.tif
7-0002815-211.tif
7-0002816-1.tif
7-0002819-1.tif
7-0002819-2.tif
7-0002819-21.tif
7-0002824-1.tif
7-0002825-1.tif
7-0002826-1.tif
7-0002827-1.tif
7-0002828-1.tif
7-0002829-1.tif
7-0002831-1.tif
7-0002831-11.tif
7-0002831-2.tif
7-0002831-21.tif
7-0002831-211.tif
7-0002831-3.tif
7-0002831-31.tif
7-0002831-4.tif
7-0002831-41.tif
7-0002831-5.tif
7-0002831-51.tif
7-0002831-511.tif
7-0002832-1.tif
7-0002833-1.tif
7-0002834-1.tif
7-0002836-1.tif
7-0002837-1.tif
7-0002840-1.tif
7-0002841-1.tif
7-0002842-1.tif
7-0002843-1.tif
7-0002844-1.tif
7-0002845-1.tif
7-0002846-1.tif
7-0002847-1.tif
7-0002848-1.tif
7-0002849-1.tif
7-0002850-1.tif
7-0002853-1.tif
7-0002854-1.tif
7-0002855-1.tif
7-0002857-1.tif
7-0002857-2.tif
7-0002857-21.tif
7-0002857-211.tif
7-0002858-2.tif
7-0002859-1.tif
7-0002860-1.tif
7-0002861-1.tif
7-0002862-1.tif
7-0002863-1.tif
7-0002864-1.tif
7-0002865-1.tif
7-0002866-1.tif
7-0002866-11.tif
7-0002867-1.tif
7-0002868-1.tif
7-0002869-1.tif
7-0002870-1.tif
7-0002871-1.tif
7-0002872-1.tif
7-0002873-1.tif
7-0002875-1.tif
7-0002876-1.tif
7-0002877-1.tif
7-0002878-1.tif
7-0002880-1.tif
7-0002880-11.tif
7-0002881-1.tif
7-0002882-1.tif
7-0002883-1.tif
7-0002884-1.tif
7-0002887-1.tif
7-0002888-1.tif
7-0002889-1.tif
7-0002890-1.tif
7-0002892-1.tif
7-0002893-1.tif
7-0002894-1.tif
7-0002895-1.tif
7-0002897-1.tif
7-0002898-1.tif
7-0002899-1.tif
7-0002899-11.tif
7-0002900-1.tif
7-0002901-1.tif
7-0002902-1.tif
7-0002903-1.tif
7-0002904-1.tif
7-0002905-1.tif
7-0002906-1.tif
7-0002907-1.tif
7-0002909-1.tif
7-0002910-1.tif
7-0002911-1.tif
7-0002912-1.tif
7-0002913-1.tif
7-0002914-1.tif
7-0002915-1.tif
7-0002915-11.tif
7-0002916-1.tif
7-0002917-1.tif
7-0002918-1.tif
7-0002919-1.tif
7-0002921-1.tif
7-0002922-1.tif
7-0002922-11.tif
7-0002924-1.tif
7-0002927-1.tif
7-0002928-1.tif
7-0002929-1.tif
7-0002931-1.tif
7-0002932-1.tif
7-0002933-1.tif
7-0002933-2.tif
7-0002933-21.tif
7-0002935-1.tif
7-0002936-1.tif
7-0002937-1.tif
7-0002939-1.tif
7-0002940-1.tif
7-0002941-1.tif
7-0002942-1.tif
7-0002944-1.tif
7-0002946-1.tif
7-0002947-1.tif
7-0002948-1.tif
7-0002948-11.tif
7-0002949-1.tif
7-0002949-2.tif
7-0002949-21.tif
7-0002950-1.tif
7-0002952-1.tif
7-0002953-1.tif
7-0002955-1.tif
7-0002957-1.tif
7-0002959-1.tif
7-0002960-1.tif
7-0002961-1.tif
7-0002965-1.tif
7-0002966-1.tif
7-0002967-1.tif
7-0002969-1.tif
7-0002970-1.tif
7-0002971-1.tif
7-0002972-1.tif
7-0002973-1.tif
7-0002974-1.tif
7-0002975-1.tif
7-0002975-11.tif
7-0002976-1.tif
7-0002977-1.tif
7-0002978-1.tif
7-0002981-1.tif
7-0002982-1.tif
7-0002983-1.tif
7-0002984-1.tif
7-0002985-1.tif
7-0002986-1.tif
7-0002987-1.tif
7-0002988-1.tif
7-0002990-1.tif
7-0002990-2.tif
7-0002991-1.tif
7-0002991-2.tif
7-0002991-21.tif
7-0002992-1.tif
7-0002993-1.tif
7-0002994-1.tif
7-0002995-1.tif
7-0002996-1.tif
7-0002998-1.tif
7-0002999-1.tif
7-0003001-1.tif
7-0003002-1.tif
7-0003003-1.tif
7-0003005-1.tif
7-0003006-1.tif
7-0003007-1.tif
7-0003007-11.tif
7-0003007-2.tif
7-0003008-1.tif
7-0003009-1.tif
7-0003010-2.tif
7-0003011-1.tif
7-0003012-1.tif
7-0003012-11.tif
7-0003012-111.tif
7-0003013-1.tif
7-0003014-1.tif
7-0003015-1.tif
7-0003016-1.tif
7-0003017-1.tif
7-0003018-1.tif
7-0003020-1.tif
7-0003021-1.tif
7-0003024-1.tif
7-0003025-1.tif
7-0003026-1.tif
7-0003027-1.tif
7-0003028-1.tif
7-0003030-1.tif
7-0003031-1.tif
7-0003032-1.tif
7-0003033-1.tif
7-0003034-1.tif
7-0003035-1.tif
7-0003037-1.tif
7-0003038-1.tif
7-0003039-1.tif
7-0003041-1.tif
7-0003042-1.tif
7-0003044-1.tif
7-0003047-1.tif
7-0003048-1.tif
7-0003048-11.tif
7-0003049-1.tif
7-0003049-11.tif
7-0003051-1.tif
7-0003052-1.tif
7-0003053-1.tif
7-0003055-1.tif
7-0003056-1.tif
7-0003058-1.tif
7-0003059-1.tif
7-0003060-1.tif
7-0003060-11.tif
7-0003062-1.tif
7-0003064-1.tif
7-0003065-1.tif
7-0003066-1.tif
7-0003067-1.tif
7-0003068-1.tif
7-0003069-1.tif
7-0003070-1.tif
7-0003070-2.tif
7-0003072-1.tif
7-0003072-2.tif
7-0003074-1.tif
7-0003076-1.tif
7-0003077-1.tif
7-0003078-1.tif
7-0003079-2.tif
7-0003080-11.tif
7-0003081-1.tif
7-0003082-1.tif
7-0003083-1.tif
7-0003084-1.tif
7-0003085-1.tif
7-0003086-1.tif
7-0003088-1.tif
7-0003088-11.tif
7-0003089-1.tif
7-0003090-1.tif
7-0003091-1.tif
7-0003092-1.tif
7-0003094-1.tif
7-0003094-2.tif
7-0003094-21.tif
7-0003095-1.tif
7-0003096-1.tif
7-0003097-1.tif
7-0003097-11.tif
7-0003097-111.tif
7-0003098-1.tif
7-0003099-1.tif
7-0003100-1.tif
7-0003101-1.tif
7-0003102-1.tif
7-0003103-1.tif
7-0003104-1.tif
7-0003105-1.tif
7-0003106-1.tif
7-0003107-1.tif
7-0003109-1.tif
7-0003112-1.tif
7-0003113-1.tif
7-0003113-11.tif
7-0003113-111.tif
7-0003113-2.tif
7-0003113-1.tif
7-0003114-1.tif
7-0003115-1.tif
7-0003116-1.tif
7-0003118-1.tif
7-0003119-1.tif
7-0003120-1.tif
7-0003121-1.tif
7-0003122-1.tif
7-0003123-1.tif
7-0003124-1.tif
7-0003124-2.tif
7-0003124-21.tif
7-0003124-3.tif
7-0003124-31.tif
7-0003125-1.tif
7-0003126-1.tif
7-0003126-3.tif
7-0003126-31.tif
7-0003126-311.tif
7-0003127-1.tif
7-0003128-1.tif
7-0003128-3.tif
7-0003130-1.tif
7-0003132-1.tif
7-0003132-11.tif
7-0003133-1.tif
7-0003135-1.tif
7-0003136-1.tif
7-0003139-1.tif
7-0003140-1.tif
7-0003145-1.tif
7-0003146-1.tif
7-0003149-1.tif
7-0003150-1.tif
7-0003151-1.tif
7-0003152-1.tif
7-0003153-1.tif
7-0003154-1.tif
7-0003156-1.tif
7-0003158-1.tif
7-0003159-1.tif
7-0003160-1.tif
7-0003161-1.tif
7-0003162-1.tif
7-0003163-1.tif
7-0003164-1.tif
7-0003165-1.tif
7-0003167-1.tif
7-0003169-1.tif
7-0003171-1.tif
7-0003172-1.tif
7-0003173-1.tif
7-0003174-1.tif
7-0003175-1.tif
7-0003175-11.tif
7-0003175-2.tif
7-0003175-21.tif
7-0003175-211.tif
7-0003177-1.tif
7-0003180-1.tif
7-0003183-1.tif
7-0003183-11.tif
7-0003185-1.tif
7-0003187-1.tif
7-0003187-2.tif
7-0003187-21.tif
7-0003188-1.tif
7-0003188-11.tif
7-0003191-1.tif
7-0003193-1.tif
7-0003195-1.tif
7-0003196-1.tif
7-0003201-1.tif
7-0003201-11.tif
7-0003202-1.tif
7-0003203-1.tif
7-0003205-1.tif
7-0003206-1.tif
7-0003207-1.tif
7-0003208-1.tif
7-0003209-1.tif
7-0003211-1.tif
7-0003212-1.tif
7-0003214-1.tif
7-0003215-1.tif
7-0003216-1.tif
7-0003219-1.tif
7-0003220-1.tif
7-0003221-1.tif
7-0003222-1.tif
7-0003223-1.tif
7-0003225-1.tif
7-0003228-1.tif
7-0003229-1.tif
7-0003230-1.tif
7-0003231-1.tif
7-0003232-1.tif
7-0003233-1.tif
7-0003234-1.tif
7-0003235-1.tif
7-0003236-1.tif
7-0003237-1.tif
7-0003238-1.tif
7-0003240-1.tif
7-0003241-1.tif
7-0003242-1.tif
7-0003243-1.tif
7-0003244-1.tif
7-0003244-2.tif
7-0003245-1.tif
7-0003247-1.tif
7-0003250-1.tif
7-0003252-1.tif
7-0003255-1.tif
7-0003255-4.tif
7-0003255-41.tif
7-0003257-1.tif
7-0003258-1.tif
7-0003263-1.tif
7-0003263-11.tif
7-0003264-2.tif
7-0003265-1.tif
7-0003268-1.tif
7-0003268-11.tif
7-0003269-1.tif
7-0003271-1.tif
7-0003272-1.tif
7-0003273-1.tif
7-0003275-1.tif
7-0003276-1.tif
7-0003280-1.tif
7-0003282-1.tif
7-0003284-1.tif
7-0003285-1.tif
7-0003286-1.tif
7-0003288-1.tif
7-0003289-1.tif
7-0003290-1.tif
7-0003292-1.tif
7-0003294-1.tif
7-0003295-1.tif
7-0003296-1.tif
7-0003297-1.tif
7-0003298-1.tif
7-0003299-1.tif
7-0003301-1.tif
7-0003302-1.tif
7-0003302-11.tif
7-0003304-1.tif
7-0003306-1.tif
7-0003308-1.tif
7-0003310-1.tif
7-0003311-1.tif
7-0003312-1.tif
7-0003314-1.tif
7-0003315-1.tif
7-0003316-1.tif
7-0003317-1.tif
7-0003318-1.tif
7-0003319-1.tif
7-0003320-1.tif
7-0003321-1.tif
7-0003322-1.tif
7-0003324-1.tif
7-0003325-1.tif
7-0003326-1.tif
7-0003326-2.tif
7-0003326-21.tif
7-0003327-1.tif
7-0003328-1.tif
7-0003330-1.tif
7-0003331-1.tif
7-0003332-1.tif
7-0003333-1.tif
7-0003334-1.tif
7-0003335-1.tif
7-0003336-1.tif
7-0003337-1.tif
7-0003338-1.tif
7-0003339-1.tif
7-0003341-1.tif
7-0003346-1.tif
7-0003347-1.tif
7-0003349-1.tif
7-0003351-1.tif
7-0003352-1.tif
7-0003353-1.tif
7-0003354-1.tif
7-0003355-1.tif
7-0003356-1.tif
7-0003358-1.tif
7-0003360-1.tif
7-0003361-1.tif
7-0003361-2.tif
7-0003361-1.tif
7-0003363-1.tif
7-0003364-1.tif
7-0003364-2.tif
7-0003365-1.tif
7-0003366-1.tif
7-0003368-1.tif
7-0003369-1.tif
7-0003370-1.tif
7-0003371-1.tif
7-0003372-1.tif
7-0003373-1.tif
7-0003374-1.tif
7-0003375-1.tif
7-0003375-2.tif
7-0003375-21.tif
7-0003376-1.tif
7-0003377-1.tif
7-0003378-1.tif
7-0003379-1.tif
7-0003379-11.tif
7-0003380-1.tif
7-0003381-1.tif
7-0003382-1.tif
7-0003383-1.tif
7-0003384-1.tif
7-0003385-1.tif
7-0003386-1.tif
7-0003387-1.tif
7-0003390-1.tif
7-0003391-1.tif
7-0003392-1.tif
7-0003392-2.tif
7-0003392-21.tif
7-0003393-1.tif
7-0003394-1.tif
7-0003395-1.tif
7-0003396-1.tif
7-0003397-1.tif
7-0003399-1.tif
7-0003400-1.tif
7-0003401-1.tif
7-0003402-1.tif
7-0003404-1.tif
7-0003405-1.tif
7-0003408-1.tif
7-0003410-1.tif
7-0003411-1.tif
7-0003411-11.tif
7-0003412-1.tif
7-0003413-1.tif
7-0003414-1.tif
7-0003415-1.tif
7-0003418-1.tif
7-0003419-1.tif
7-0003420-1.tif
7-0003421-1.tif
7-0003422-1.tif
7-0003423-1.tif
7-0003424-1.tif
7-0003424-11.tif
7-0003426-1.tif
7-0003427-1.tif
7-0003428-1.tif
7-0003429-1.tif
7-0003430-1.tif
7-0003431-1.tif
7-0003432-1.tif
7-0003433-1.tif
7-0003434-1.tif
7-0003435-1.tif
7-0003435-2.tif
7-0003435-21.tif
7-0003435-211.tif
7-0003436-1.tif
7-0003438-1.tif
7-0003439-1.tif
7-0003439-11.tif
7-0003440-1.tif
7-0003441-1.tif
7-0003442-1.tif
7-0003443-1.tif
7-0003443-11.tif
7-0003443-2.tif
7-0003444-1.tif
7-0003445-1.tif
7-0003446-1.tif
7-0003447-1.tif
7-0003448-1.tif
7-0003448-11.tif
7-0003449-1.tif
7-0003451-1.tif
7-0003453-1.tif
7-0003454-1.tif
7-0003455-1.tif
7-0003456-1.tif
7-0003457-1.tif
7-0003458-1.tif
7-0003459-1.tif
7-0003460-1.tif
7-0003461-1.tif
7-0003461-2.tif
7-0003462-1.tif
7-0003462-11.tif
7-0003462-2.tif
7-0003462-21.tif
7-0003463-1.tif
7-0003464-1.tif
7-0003465-1.tif
7-0003466-1.tif
7-0003467-1.tif
7-0003468-1.tif
7-0003469-1.tif
7-0003471-1.tif
7-0003472-1.tif
7-0003472-11.tif
7-0003472-2.tif
7-0003473-1.tif
7-0003478-1.tif
7-0003478-11.tif
7-0003479-1.tif
7-0003484-1.tif
7-0003485-1.tif
7-0003486-1.tif
7-0003487-1.tif
7-0003488-1.tif
7-0003489-1.tif
7-0003490-1.tif
7-0003491-1.tif
7-0003492-1.tif
7-0003493-1.tif
7-0003494-1.tif
7-0003495-1.tif
7-0003497-1.tif
7-0003501-1.tif
7-0003502-1.tif
7-0003503-1.tif
7-0003504-1.tif
7-0003505-1.tif
7-0003506-1.tif
7-0003507-1.tif
7-0003508-1.tif
7-0003508-11.tif
7-0003509-1.tif
7-0003511-1.tif
7-0003512-1.tif
7-0003515-1.tif
7-0003516-1.tif
7-0003516-11.tif
7-0003518-1.tif
7-0003519-1.tif
7-0003520-1.tif
7-0003521-1.tif
7-0003522-1.tif
7-0003523-1.tif
7-0003524-1.tif
7-0003525-1.tif
7-0003526-1.tif
7-0003527-1.tif
7-0003528-1.tif
7-0003530-1.tif
7-0003531-1.tif
7-0003532-1.tif
7-0003533-1.tif
7-0003538-1.tif
7-0003540-1.tif
7-0003541-1.tif
7-0003543-1.tif
7-0003544-1.tif
7-0003545-1.tif
7-0003546-1.tif
7-0003548-1.tif
7-0003550-1.tif
7-0003551-1.tif
7-0003552-1.tif
7-0003553-1.tif
7-0003554-1.tif
7-0003556-1.tif
7-0003557-1.tif
7-0003558-1.tif
7-0003559-1.tif
7-0003560-1.tif
7-0003562-1.tif
7-0003565-1.tif
7-0003566-1.tif
7-0003567-1.tif
7-0003569-1.tif
7-0003571-1.tif
7-0003572-1.tif
7-0003572-11.tif
7-0003573-1.tif
7-0003574-1.tif
7-0003575-1.tif
7-0003576-1.tif
7-0003577-1.tif
7-0003577-11.tif
7-0003578-1.tif
7-0003579-1.tif
7-0003580-1.tif
7-0003581-1.tif
7-0003582-1.tif
7-0003582-2.tif
7-0003583-1.tif
7-0003584-1.tif
7-0003586-1.tif
7-0003588-1.tif
7-0003589-1.tif
7-0003592-1.tif
7-0003593-1.tif
7-0003594-1.tif
7-0003596-1.tif
7-0003596-2.tif
7-0003597-1.tif
7-0003598-1.tif
7-0003599-1.tif
7-0003601-1.tif
7-0003602-1.tif
7-0003603-1.tif
7-0003604-1.tif
7-0003605-1.tif
7-0003606-1.tif
7-0003607-1.tif
7-0003609-1.tif
7-0003610-1.tif
7-0003611-1.tif
7-0003612-1.tif
7-0003613-1.tif
7-0003614-1.tif
7-0003615-1.tif
7-0003617-1.tif
7-0003618-1.tif
7-0003619-1.tif
7-0003620-1.tif
7-0003621-1.tif
7-0003622-1.tif
7-0003623-1.tif
7-0003624-2.tif
7-0003625-1.tif
7-0003626-2.tif
7-0003627-1.tif
7-0003627-11.tif
7-0003627-1.tif
7-0003628-1.tif
7-0003629-1.tif
7-0003633-1.tif
7-0003634-1.tif
7-0003635-1.tif
7-0003637-1.tif
7-0003638-1.tif
7-0003639-1.tif
7-0003640-1.tif
7-0003642-1.tif
7-0003643-1.tif
7-0003644-1.tif
7-0003646-1.tif
7-0003647-1.tif
7-0003648-1.tif
7-0003649-1.tif
7-0003649-11.tif
7-0003650-1.tif
7-0003651-1.tif
7-0003652-1.tif
7-0003653-1.tif
7-0003654-1.tif
7-0003655-1.tif
7-0003657-1.tif
7-0003657-11.tif
7-0003658-1.tif
7-0003659-1.tif
7-0003660-1.tif
7-0003661-1.tif
7-0003662-1.tif
7-0003663-1.tif
7-0003665-1.tif
7-0003666-1.tif
7-0003667-1.tif
7-0003668-1.tif
7-0003669-1.tif
7-0003670-1.tif
7-0003672-1.tif
7-0003674-1.tif
7-0003677-1.tif
7-0003678-1.tif
7-0003679-1.tif
7-0003680-1.tif
7-0003683-1.tif
7-0003684-1.tif
7-0003685-1.tif
7-0003686-1.tif
7-0003687-1.tif
7-0003688-1.tif
7-0003688-1.tif
7-0003689-1.tif
7-0003690-1.tif
7-0003691-1.tif
7-0003693-1.tif
7-0003694-1.tif
7-0003695-1.tif
7-0003696-1.tif
7-0003697-1.tif
7-0003698-1.tif
7-0003699-1.tif
7-0003703-1.tif
7-0003704-1.tif
7-0003705-1.tif
7-0003707-1.tif
7-0003708-1.tif
7-0003709-1.tif
7-0003710-1.tif
7-0003711-1.tif
7-0003712-1.tif
7-0003713-1.tif
7-0003714-1.tif
7-0003714-11.tif
7-0003714-2.tif
7-0003714-1.tif
7-0003715-1.tif
7-0003715-11.tif
7-0003716-1.tif
7-0003718-1.tif
7-0003719-1.tif
7-0003724-1.tif
7-0003725-1.tif
7-0003728-1.tif
7-0003729-1.tif
7-0003730-1.tif
7-0003732-1.tif
7-0003733-1.tif
7-0003734-1.tif
7-0003735-1.tif
7-0003736-1.tif
7-0003738-1.tif
7-0003739-1.tif
7-0003741-1.tif
7-0003746-1.tif
7-0003747-1.tif
7-0003747-2.tif
7-0003747-3.tif
7-0003747-31.tif
7-0003747-1.tif
7-0003748-1.tif
7-0003751-1.tif
7-0003753-1.tif
7-0003754-1.tif
7-0003755-1.tif
7-0003756-1.tif
7-0003759-1.tif
7-0003760-1.tif
7-0003761-1.tif
7-0003762-1.tif
7-0003764-1.tif
7-0003766-1.tif
7-0003768-1.tif
7-0003770-1.tif
7-0003772-1.tif
7-0003774-1.tif
7-0003775-1.tif
7-0003776-1.tif
7-0003778-1.tif
7-0003779-1.tif
7-0003779-2.tif
7-0003779-21.tif
7-0003780-1.tif
7-0003782-1.tif
7-0003784-1.tif
7-0003785-1.tif
7-0003786-1.tif
7-0003786-11.tif
7-0003786-111.tif
7-0003787-1.tif
7-0003788-1.tif
7-0003789-1.tif
7-0003791-1.tif
7-0003793-1.tif
7-0003794-1.tif
7-0003795-1.tif
7-0003796-1.tif
7-0003797-1.tif
7-0003798-1.tif
7-0003799-1.tif
7-0003800-1.tif
7-0003801-1.tif
7-0003802-1.tif
7-0003802-1.tif
7-0003803-1.tif
7-0003804-1.tif
7-0003805-1.tif
7-0003806-1.tif
7-0003807-1.tif
7-0003808-1.tif
7-0003810-1.tif
7-0003811-1.tif
7-0003811-11.tif
7-0003812-1.tif
7-0003814-1.tif
7-0003815-1.tif
7-0003815-2.tif
7-0003815-3.tif
7-0003815-4.tif
7-0003815-5.tif
7-0003815-8.tif
7-0003815-81.tif
7-0003815-811.tif
7-0003816-1.tif
7-0003820-1.tif
7-0003820-11.tif
7-0003821-1.tif
7-0003823-1.tif
7-0003824-1.tif
7-0003825-1.tif
7-0003826-1.tif
7-0003827-1.tif
7-0003829-1.tif
7-0003831-1.tif
7-0003832-1.tif
7-0003834-1.tif
7-0003835-1.tif
7-0003836-1.tif
7-0003837-1.tif
7-0003839-1.tif
7-0003841-1.tif
7-0003843-1.tif
7-0003845-1.tif
7-0003847-1.tif
7-0003848-1.tif
7-0003849-1.tif
7-0003851-1.tif
7-0003853-1.tif
7-0003853-11.tif
7-0003854-1.tif
7-0003855-1.tif
7-0003855-11.tif
7-0003858-1.tif
7-0003860-1.tif
7-0003863-1.tif
7-0003864-1.tif
7-0003865-1.tif
7-0003866-1.tif
7-0003869-1.tif
7-0003870-1.tif
7-0003872-1.tif
7-0003873-1.tif
7-0003874-1.tif
7-0003876-1.tif
7-0003877-1.tif
7-0003878-1.tif
7-0003879-1.tif
7-0003881-1.tif
7-0003884-1.tif
7-0003885-1.tif
7-0003886-1.tif
7-0003887-1.tif
7-0003887-11.tif
7-0003888-2.tif
7-0003889-1.tif
7-0003890-1.tif
7-0003890-2.tif
7-0003891-2.tif
7-0003892-2.tif
7-0003893-2.tif
7-0003894-2.tif
7-0003895-1.tif
7-0003895-2.tif
7-0003896-1.tif
7-0003897-1.tif
7-0003899-1.tif
7-0003899-2.tif
7-0003900-1.tif
7-0003900-2.tif
7-0003901-1.tif
7-0003902-1.tif
7-0003903-1.tif
7-0003903-2.tif
7-0003905-2.tif
7-0003905-21.tif
7-0003906-2.tif
7-0003908-2.tif
7-0003909-1.tif
7-0003910-1.tif
7-0003911-1.tif
7-0003911-2.tif
7-0003912-2.tif
7-0003913-2.tif
7-0003914-1.tif
7-0003914-2.tif
7-0003915-2.tif
7-0003916-2.tif
7-0003918-1.tif
7-0003918-2.tif
7-0003919-1.tif
7-0003919-2.tif
7-0003920-1.tif
7-0003920-2.tif
7-0003920-21.tif
7-0003921-1.tif
7-0003922-2.tif
7-0003923-1.tif
7-0003924-1.tif
7-0003924-2.tif
7-0003925-2.tif
7-0003926-2.tif
7-0003927-1.tif
7-0003928-1.tif
7-0003928-2.tif
7-0003929-1.tif
7-0003930-1.tif
7-0003931-2.tif
7-0003932-1.tif
7-0003932-2.tif
7-0003932-21.tif
7-0003934-1.tif
7-0003935-2.tif
7-0003938-1.tif
7-0003939-1.tif
7-0003940-1.tif
7-0003942-1.tif
7-0003943-1.tif
7-0003944-1.tif
7-0003946-1.tif
7-0003948-1.tif
7-0003950-1.tif
7-0003951-1.tif
7-0003952-1.tif
7-0003954-1.tif
7-0003955-1.tif
7-0003957-1.tif
7-0003958-1.tif
7-0003958-2.tif
7-0003959-1.tif
7-0003960-1.tif
7-0003962-1.tif
7-0003964-1.tif
7-0003965-1.tif
7-0003966-1.tif
7-0003967-1.tif
7-0003969-1.tif
7-0003970-1.tif
7-0003971-1.tif
7-0003974-1.tif
7-0003975-1.tif
7-0003976-1.tif
7-0003976-2.tif
7-0003978-1.tif
7-0003979-1.tif
7-0003980-1.tif
7-0003982-1.tif
7-0003983-1.tif
7-0003985-1.tif
7-0003986-1.tif
7-0003986-2.tif
7-0003987-1.tif
7-0003988-1.tif
7-0003989-1.tif
7-0003992-1.tif
7-0003993-1.tif
7-0003994-1.tif
7-0003996-1.tif
7-0003997-1.tif
7-0003999-1.tif
7-0004000-1.tif
7-0004003-1.tif
7-0004004-1.tif
7-0004006-1.tif
7-0004007-1.tif
7-0004008-1.tif
7-0004009-1.tif
7-0004010-1.tif
7-0004014-1.tif
7-0004015-1.tif
7-0004016-1.tif
7-0004017-2.tif
7-0004017-21.tif
7-0004019-1.tif
7-0004020-1.tif
7-0004022-1.tif
7-0004023-1.tif
7-0004026-1.tif
7-0004027-2.tif
7-0004028-1.tif
7-0004028-11.tif
7-0004030-1.tif
7-0004031-1.tif
7-0004032-1.tif
7-0004032-2.tif
7-0004032-21.tif
7-0004032-3.tif
7-0004032-31.tif
7-0004033-1.tif
7-0004035-1.tif
7-0004036-1.tif
7-0004038-1.tif
7-0004038-2.tif
7-0004038-21.tif
7-0004041-1.tif
7-0004041-11.tif
7-0004042-1.tif
7-0004043-1.tif
7-0004044-1.tif
7-0004045-1.tif
7-0004047-1.tif
7-0004047-11.tif
7-0004048-1.tif
7-0004049-1.tif
7-0004057-1.tif
7-0004058-1.tif
7-0004059-1.tif
7-0004061-1.tif
7-0004063-1.tif
7-0004067-1.tif
7-0004068-1.tif
7-0004069-1.tif
7-0004071-1.tif
7-0004072-1.tif
7-0004073-1.tif
7-0004074-1.tif
7-0004075-1.tif
7-0004076-1.tif
7-0004079-1.tif
7-0004080-1.tif
7-0004081-1.tif
7-0004082-1.tif
7-0004085-3.tif
7-0004085-31.tif
7-0004087-1.tif
7-0004088-1.tif
7-0004088-11.tif
7-0004090-1.tif
7-0004090-11.tif
7-0004091-1.tif
7-0004092-1.tif
7-0004094-1.tif
7-0004094-1.tif
7-0004095-1.tif
7-0004096-1.tif
7-0004098-1.tif
7-0004099-1.tif
7-0004100-1.tif
7-0004101-1.tif
7-0004102-1.tif
7-0004104-1.tif
7-0004105-1.tif
7-0004106-1.tif
7-0004107-1.tif
7-0004108-1.tif
7-0004110-1.tif
7-0004110-11.tif
7-0004111-1.tif
7-0004112-1.tif
7-0004113-1.tif
7-0004115-1.tif
7-0004116-1.tif
7-0004117-1.tif
7-0004118-1.tif
7-0004119-1.tif
7-0004120-1.tif
7-0004122-1.tif
7-0004123-1.tif
7-0004124-1.tif
7-0004125-1.tif
7-0004126-1.tif
7-0004127-1.tif
7-0004128-1.tif
7-0004129-1.tif
7-0004131-1.tif
7-0004132-1.tif
7-0004134-1.tif
7-0004135-1.tif
7-0004135-11.tif
7-0004135-2.tif
7-0004136-1.tif
7-0004137-1.tif
7-0004139-1.tif
7-0004140-1.tif
7-0004140-2.tif
7-0004141-1.tif
7-0004143-1.tif
7-0004145-1.tif
7-0004146-1.tif
7-0004147-1.tif
7-0004148-1.tif
7-0004149-1.tif
7-0004150-1.tif
7-0004151-1.tif
7-0004151-11.tif
7-0004151-2.tif
7-0004151-21.tif
7-0004152-1.tif
7-0004153-1.tif
7-0004154-1.tif
7-0004155-1.tif
7-0004156-1.tif
7-0004157-1.tif
7-0004158-1.tif
7-0004159-1.tif
7-0004160-1.tif
7-0004163-1.tif
7-0004165-1.tif
7-0004167-1.tif
7-0004168-1.tif
7-0004169-1.tif
7-0004170-1.tif
7-0004171-1.tif
7-0004171-11.tif
7-0004172-1.tif
7-0004173-1.tif
7-0004175-1.tif
7-0004175-11.tif
7-0004175-2.tif
7-0004175-3.tif
7-0004177-1.tif
7-0004178-1.tif
7-0004180-1.tif
7-0004182-1.tif
7-0004184-1.tif
7-0004184-2.tif
7-0004185-1.tif
7-0004186-1.tif
7-0004187-1.tif
7-0004188-1.tif
7-0004190-1.tif
7-0004190-1.tif
7-0004191-1.tif
7-0004192-1.tif
7-0004193-1.tif
7-0004194-1.tif
7-0004196-1.tif
7-0004200-1.tif
7-0004201-1.tif
7-0004201-11.tif
7-0004204-1.tif
7-0004208-1.tif
7-0004211-1.tif
7-0004212-1.tif
7-0004213-1.tif
7-0004214-1.tif
7-0004216-1.tif
7-0004217-1.tif
7-0004217-11.tif
7-0004218-1.tif
7-0004218-2.tif
7-0004219-1.tif
7-0004220-1.tif
7-0004221-1.tif
7-0004222-1.tif
7-0004223-1.tif
7-0004226-1.tif
7-0004227-1.tif
7-0004228-1.tif
7-0004228-11.tif
7-0004229-1.tif
7-0004230-1.tif
7-0004232-1.tif
7-0004233-1.tif
7-0004234-1.tif
7-0004235-1.tif
7-0004235-11.tif
7-0004237-1.tif
7-0004237-11.tif
7-0004237-3.tif
7-0004237-31.tif
7-0004240-1.tif
7-0004241-1.tif
7-0004242-1.tif
7-0004243-1.tif
7-0004244-1.tif
7-0004245-1.tif
7-0004245-2.tif
7-0004246-1.tif
7-0004246-11.tif
7-0004247-1.tif
7-0004248-1.tif
7-0004249-1.tif
7-0004249-11.tif
7-0004250-1.tif
7-0004251-1.tif
7-0004251-11.tif
7-0004251-111.tif
7-0004252-1.tif
7-0004252-1.tif
7-0004253-1.tif
7-0004254-1.tif
7-0004255-1.tif
7-0004256-1.tif
7-0004256-11.tif
7-0004260-1.tif
7-0004261-1.tif
7-0004261-2.tif
7-0004261-3.tif
7-0004263-1.tif
7-0004264-1.tif
7-0004265-1.tif
7-0004265-11.tif
7-0004268-1.tif
7-0004269-1.tif
7-0004270-1.tif
7-0004271-1.tif
7-0004272-1.tif
7-0004272-2.tif
7-0004273-1.tif
7-0004274-1.tif
7-0004275-1.tif
7-0004276-1.tif
7-0004277-1.tif
7-0004278-1.tif
7-0004279-1.tif
7-0004280-1.tif
7-0004281-1.tif
7-0004282-1.tif
7-0004283-1.tif
7-0004284-1.tif
7-0004285-1.tif
7-0004287-1.tif
7-0004288-1.tif
7-0004289-1.tif
7-0004290-1.tif
7-0004291-1.tif
7-0004292-1.tif
7-0004294-1.tif
7-0004295-1.tif
7-0004296-1.tif
7-0004296-11.tif
7-0004296-2.tif
7-0004297-1.tif
7-0004299-1.tif
7-0004302-1.tif
7-0004304-1.tif
7-0004304-2.tif
7-0004304-21.tif
7-0004306-1.tif
7-0004307-1.tif
7-0004307-11.tif
7-0004308-1.tif
7-0004309-1.tif
7-0004310-1.tif
7-0004310-2.tif
7-0004310-3.tif
7-0004310-31.tif
7-0004311-1.tif
7-0004312-1.tif
7-0004313-1.tif
7-0004314-1.tif
7-0004315-1.tif
7-0004316-1.tif
7-0004319-1.tif
7-0004320-1.tif
7-0004321-1.tif
7-0004323-1.tif
7-0004326-1.tif
7-0004327-1.tif
7-0004328-1.tif
7-0004335-1.tif
7-0004336-1.tif
7-0004337-1.tif
7-0004339-1.tif
7-0004340-1.tif
7-0004342-1.tif
7-0004343-1.tif
7-0004344-1.tif
7-0004345-1.tif
7-0004346-1.tif
7-0004347-1.tif
7-0004349-1.tif
7-0004350-1.tif
7-0004352-1.tif
7-0004353-1.tif
7-0004354-1.tif
7-0004355-1.tif
7-0004356-1.tif
7-0004357-1.tif
7-0004360-1.tif
7-0004362-1.tif
7-0004363-1.tif
7-0004364-1.tif
7-0004364-2.tif
7-0004364-21.tif
7-0004364-3.tif
7-0004365-1.tif
7-0004365-2.tif
7-0004366-1.tif
7-0004367-1.tif
7-0004368-1.tif
7-0004369-1.tif
7-0004369-11.tif
7-0004371-1.tif
7-0004372-1.tif
7-0004373-1.tif
7-0004377-1.tif
7-0004378-1.tif
7-0004379-1.tif
7-0004382-1.tif
7-0004383-1.tif
7-0004384-1.tif
7-0004387-1.tif
7-0004389-1.tif
7-0004390-1.tif
7-0004390-11.tif
7-0004391-1.tif
7-0004392-1.tif
7-0004395-1.tif
7-0004396-1.tif
7-0004397-1.tif
7-0004398-1.tif
7-0004399-1.tif
7-0004400-1.tif
7-0004401-1.tif
7-0004402-1.tif
7-0004403-1.tif
7-0004404-1.tif
7-0004406-1.tif
7-0004408-1.tif
7-0004411-1.tif
7-0004413-1.tif
7-0004414-1.tif
7-0004415-1.tif
7-0004418-1.tif
7-0004419-1.tif
7-0004419-11.tif
7-0004420-1.tif
7-0004421-1.tif
7-0004422-1.tif
7-0004423-1.tif
7-0004423-2.tif
7-0004423-21.tif
7-0004424-1.tif
7-0004425-1.tif
7-0004426-1.tif
7-0004427-1.tif
7-0004429-1.tif
7-0004430-1.tif
7-0004432-1.tif
7-0004432-2.tif
7-0004432-21.tif
7-0004432-3.tif
7-0004432-31.tif
7-0004432-1.tif
7-0004433-1.tif
7-0004434-1.tif
7-0004435-1.tif
7-0004436-1.tif
7-0004437-1.tif
7-0004438-1.tif
7-0004439-1.tif
7-0004441-1.tif
7-0004442-1.tif
7-0004443-1.tif
7-0004444-1.tif
7-0004445-1.tif
7-0004446-1.tif
7-0004446-11.tif
7-0004446-111.tif
7-0004446-3.tif
7-0004446-31.tif
7-0004446-311.tif
7-0004448-1.tif
7-0004450-1.tif
7-0004450-11.tif
7-0004451-1.tif
7-0004452-1.tif
7-0004454-1.tif
7-0004455-1.tif
7-0004456-1.tif
7-0004456-2.tif
7-0004457-1.tif
7-0004458-1.tif
7-0004459-1.tif
7-0004460-1.tif
7-0004460-2.tif
7-0004461-1.tif
7-0004462-1.tif
7-0004462-2.tif
7-0004463-1.tif
7-0004463-2.tif
7-0004464-1.tif
7-0004464-2.tif
7-0004464-21.tif
7-0004465-1.tif
7-0004465-11.tif
7-0004466-1.tif
7-0004467-1.tif
7-0004468-1.tif
7-0004469-1.tif
7-0004470-1.tif
7-0004471-1.tif
7-0004472-1.tif
7-0004473-1.tif
7-0004473-11.tif
7-0004474-1.tif
7-0004475-1.tif
7-0004476-1.tif
7-0004477-1.tif
7-0004478-1.tif
7-0004479-1.tif
7-0004480-1.tif
7-0004481-1.tif
7-0004481-2.tif
7-0004481-21.tif
7-0004482-1.tif
7-0004483-1.tif
7-0004484-1.tif
7-0004485-1.tif
7-0004486-1.tif
7-0004491-1.tif
7-0004492-1.tif
7-0004493-1.tif
7-0004495-1.tif
7-0004495-11.tif
7-0004496-1.tif
7-0004496-2.tif
7-0004496-21.tif
7-0004497-1.tif
7-0004497-11.tif
7-0004498-1.tif
7-0004498-11.tif
7-0004498-111.tif
7-0004499-1.tif
7-0004499-11.tif
7-0004500-1.tif
7-0004500-11.tif
7-0004500-4.tif
7-0004500-5.tif
7-0004500-1.tif
7-0004502-1.tif
7-0004503-1.tif
7-0004504-1.tif
7-0004504-11.tif
7-0004505-1.tif
7-0004506-1.tif
7-0004507-1.tif
7-0004508-1.tif
7-0004508-1.tif
7-0004512-1.tif
7-0004513-1.tif
7-0004513-2.tif
7-0004513-21.tif
7-0004513-211.tif
7-0004515-1.tif
7-0004515-2.tif
7-0004515-21.tif
7-0004517-1.tif
7-0004518-1.tif
7-0004519-1.tif
7-0004520-1.tif
7-0004521-1.tif
7-0004522-1.tif
7-0004523-1.tif
7-0004524-1.tif
7-0004525-1.tif
7-0004526-1.tif
7-0004527-1.tif
7-0004529-1.tif
7-0004530-1.tif
7-0004532-1.tif
7-0004533-1.tif
7-0004536-1.tif
7-0004536-11.tif
7-0004536-2.tif
7-0004537-1.tif
7-0004538-1.tif
7-0004539-1.tif
7-0004540-1.tif
7-0004541-1.tif
7-0004542-1.tif
7-0004543-1.tif
7-0004543-2.tif
7-0004543-1.tif
7-0004544-1.tif
7-0004546-1.tif
7-0004546-11.tif
7-0004547-1.tif
7-0004548-1.tif
7-0004549-1.tif
7-0004552-1.tif
7-0004553-1.tif
7-0004554-1.tif
7-0004556-1.tif
7-0004557-1.tif
7-0004558-1.tif
7-0004561-1.tif
7-0004562-1.tif
7-0004563-1.tif
7-0004564-1.tif
7-0004566-1.tif
7-0004567-1.tif
7-0004568-1.tif
7-0004569-1.tif
7-0004570-1.tif
7-0004572-1.tif
7-0004572-11.tif
7-0004577-1.tif
7-0004578-1.tif
7-0004580-1.tif
7-0004583-1.tif
7-0004586-1.tif
7-0004587-1.tif
7-0004588-1.tif
7-0004589-1.tif
7-0004589-11.tif
7-0004589-2.tif
7-0004589-21.tif
7-0004589-3.tif
7-0004589-31.tif
7-0004591-1.tif
7-0004592-1.tif
7-0004593-1.tif
7-0004594-1.tif
7-0004595-1.tif
7-0004596-1.tif
7-0004596-1.tif
7-0004597-1.tif
7-0004598-1.tif
7-0004601-1.tif
7-0004602-1.tif
7-0004603-1.tif
7-0004604-1.tif
7-0004605-1.tif
7-0004606-1.tif
7-0004607-1.tif
7-0004608-1.tif
7-0004611-1.tif
7-0004612-1.tif
7-0004613-1.tif
7-0004615-1.tif
7-0004616-1.tif
7-0004617-1.tif
7-0004619-1.tif
7-0004620-1.tif
7-0004621-1.tif
7-0004621-2.tif
7-0004622-1.tif
7-0004622-11.tif
7-0004622-3.tif
7-0004622-31.tif
7-0004622-311.tif
7-0004623-1.tif
7-0004624-1.tif
7-0004625-1.tif
7-0004626-1.tif
7-0004627-1.tif
7-0004628-1.tif
7-0004629-1.tif
7-0004630-1.tif
7-0004631-1.tif
7-0004631-11.tif
7-0004631-2.tif
7-0004633-1.tif
7-0004634-1.tif
7-0004635-1.tif
7-0004636-1.tif
7-0004637-1.tif
7-0004639-1.tif
7-0004641-1.tif
7-0004642-1.tif
7-0004643-1.tif
7-0004644-1.tif
7-0004645-1.tif
7-0004646-1.tif
7-0004648-1.tif
7-0004649-1.tif
7-0004650-1.tif
7-0004652-1.tif
7-0004653-1.tif
7-0004655-1.tif
7-0004656-1.tif
7-0004657-1.tif
7-0004658-1.tif
7-0004658-11.tif
7-0004659-1.tif
7-0004660-1.tif
7-0004661-1.tif
7-0004662-1.tif
7-0004663-1.tif
7-0004663-2.tif
7-0004663-21.tif
7-0004663-211.tif
7-0004664-1.tif
7-0004665-1.tif
7-0004666-1.tif
7-0004666-2.tif
7-0004667-1.tif
7-0004668-1.tif
7-0004669-1.tif
7-0004670-1.tif
7-0004671-1.tif
7-0004672-1.tif
7-0004673-1.tif
7-0004674-1.tif
7-0004674-2.tif
7-0004674-21.tif
7-0004675-1.tif
7-0004676-1.tif
7-0004678-1.tif
7-0004679-1.tif
7-0004681-1.tif
7-0004683-1.tif
7-0004684-1.tif
7-0004685-1.tif
7-0004685-11.tif
7-0004687-1.tif
7-0004689-1.tif
7-0004690-1.tif
7-0004691-1.tif
7-0004692-1.tif
7-0004693-1.tif
7-0004694-1.tif
7-0004695-1.tif
7-0004696-1.tif
7-0004696-2.tif
7-0004696-21.tif
7-0004697-1.tif
7-0004698-2.tif
7-0004699-1.tif
7-0004701-1.tif
7-0004703-1.tif
7-0004705-1.tif
7-0004706-1.tif
7-0004707-1.tif
7-0004707-11.tif
7-0004707-2.tif
7-0004713-1.tif
7-0004714-1.tif
7-0004715-1.tif
7-0004716-1.tif
7-0004717-1.tif
7-0004718-1.tif
7-0004719-1.tif
7-0004720-1.tif
7-0004721-1.tif
7-0004722-1.tif
7-0004722-11.tif
7-0004723-1.tif
7-0004724-1.tif
7-0004725-1.tif
7-0004726-1.tif
7-0004727-1.tif
7-0004728-1.tif
7-0004730-1.tif
7-0004731-1.tif
7-0004732-1.tif
7-0004733-1.tif
7-0004734-1.tif
7-0004734-3.tif
7-0004735-1.tif
7-0004736-1.tif
7-0004737-1.tif
7-0004738-1.tif
7-0004739-1.tif
7-0004741-1.tif
7-0004742-1.tif
7-0004744-1.tif
7-0004745-1.tif
7-0004746-1.tif
7-0004747-1.tif
7-0004748-1.tif
7-0004749-1.tif
7-0004755-1.tif
7-0004756-1.tif
7-0004757-1.tif
7-0004757-11.tif
7-0004758-1.tif
7-0004759-1.tif
7-0004760-1.tif
7-0004761-1.tif
7-0004762-1.tif
7-0004763-1.tif
7-0004764-1.tif
7-0004765-1.tif
7-0004766-1.tif
7-0004767-1.tif
7-0004768-1.tif
7-0004768-11.tif
7-0004769-1.tif
7-0004770-1.tif
7-0004772-1.tif
7-0004773-1.tif
7-0004774-1.tif
7-0004775-1.tif
7-0004776-1.tif
7-0004777-1.tif
7-0004778-1.tif
7-0004778-11.tif
7-0004780-1.tif
7-0004781-1.tif
7-0004782-1.tif
7-0004783-1.tif
7-0004784-1.tif
7-0004786-1.tif
7-0004788-1.tif
7-0004789-1.tif
7-0004790-1.tif
7-0004791-1.tif
7-0004792-1.tif
7-0004793-1.tif
7-0004793-11.tif
7-0004793-111.tif
7-0004793-2.tif
7-0004796-1.tif
7-0004796-11.tif
7-0004797-1.tif
7-0004798-1.tif
7-0004799-1.tif
7-0004804-1.tif
7-0004804-2.tif
7-0004804-21.tif
7-0004804-3.tif
7-0004805-1.tif
7-0004808-1.tif
7-0004809-1.tif
7-0004809-2.tif
7-0004809-21.tif
7-0004812-1.tif
7-0004813-1.tif
7-0004814-1.tif
7-0004815-1.tif
7-0004816-1.tif
7-0004817-1.tif
7-0004818-1.tif
7-0004819-1.tif
7-0004820-1.tif
7-0004821-1.tif
7-0004822-1.tif
7-0004823-1.tif
7-0004824-1.tif
7-0004825-1.tif
7-0004825-2.tif
7-0004826-1.tif
7-0004826-11.tif
7-0004826-111.tif
7-0004826-2.tif
7-0004826-21.tif
7-0004826-1.tif
7-0004827-1.tif
7-0004827-11.tif
7-0004828-1.tif
7-0004829-1.tif
7-0004830-1.tif
7-0004832-1.tif
7-0004833-1.tif
7-0004834-1.tif
7-0004835-1.tif
7-0004836-1.tif
7-0004838-1.tif
7-0004839-1.tif
7-0004840-1.tif
7-0004841-1.tif
7-0004842-1.tif
7-0004843-1.tif
7-0004846-2.tif
7-0004847-1.tif
7-0004848-1.tif
7-0004851-1.tif
7-0004852-1.tif
7-0004853-1.tif
7-0004854-1.tif
7-0004856-1.tif
7-0004858-1.tif
7-0004859-1.tif
7-0004860-1.tif
7-0004861-1.tif
7-0004862-1.tif
7-0004862-11.tif
7-0004864-1.tif
7-0004866-1.tif
7-0004868-1.tif
7-0004869-1.tif
7-0004870-1.tif
7-0004872-1.tif
7-0004873-1.tif
7-0004874-1.tif
7-0004876-1.tif
7-0004877-1.tif
7-0004878-1.tif
7-0004878-11.tif
7-0004879-1.tif
7-0004880-1.tif
7-0004881-1.tif
7-0004882-1.tif
7-0004884-1.tif
7-0004886-1.tif
7-0004887-1.tif
7-0004888-1.tif
7-0004889-1.tif
7-0004890-1.tif
7-0004890-11.tif
7-0004891-1.tif
7-0004893-1.tif
7-0004898-1.tif
7-0004899-1.tif
7-0004899-11.tif
7-0004900-1.tif
7-0004901-1.tif
7-0004902-1.tif
7-0004904-1.tif
7-0004904-11.tif
7-0004904-2.tif
7-0004908-1.tif
7-0004909-1.tif
7-0004911-1.tif
7-0004912-1.tif
7-0004913-1.tif
7-0004914-1.tif
7-0004914-11.tif
7-0004915-1.tif
7-0004919-1.tif
7-0004920-1.tif
7-0004921-1.tif
7-0004922-1.tif
7-0004922-11.tif
7-0004923-1.tif
7-0004924-1.tif
7-0004925-1.tif
7-0004926-1.tif
7-0004927-1.tif
7-0004928-1.tif
7-0004931-1.tif
7-0004931-2.tif
7-0004931-21.tif
7-0004931-3.tif
7-0004931-31.tif
7-0004933-1.tif
7-0004934-1.tif
7-0004935-1.tif
7-0004936-1.tif
7-0004937-1.tif
7-0004938-1.tif
7-0004938-11.tif
7-0004940-1.tif
7-0004942-1.tif
7-0004942-2.tif
7-0004942-21.tif
7-0004943-1.tif
7-0004944-1.tif
7-0004947-1.tif
7-0004949-1.tif
7-0004950-1.tif
7-0004951-1.tif
7-0004952-1.tif
7-0004952-11.tif
7-0004953-1.tif
7-0004954-1.tif
7-0004955-1.tif
7-0004958-1.tif
7-0004959-1.tif
7-0004960-1.tif
7-0004961-1.tif
7-0004962-1.tif
7-0004962-11.tif
7-0004963-1.tif
7-0004964-1.tif
7-0004965-1.tif
7-0004965-11.tif
7-0004966-1.tif
7-0004968-1.tif
7-0004969-1.tif
7-0004970-1.tif
7-0004971-1.tif
7-0004972-1.tif
7-0004973-1.tif
7-0004974-1.tif
7-0004975-1.tif
7-0004975-11.tif
7-0004976-1.tif
7-0004977-1.tif
7-0004978-1.tif
7-0004979-1.tif
7-0004980-1.tif
7-0004981-1.tif
7-0004982-1.tif
7-0004983-2.tif
7-0004984-1.tif
7-0004985-1.tif
7-0004987-1.tif
7-0004989-1.tif
7-0004990-1.tif
7-0004991-1.tif
7-0004992-1.tif
7-0004993-1.tif
7-0004994-1.tif
7-0004995-1.tif
7-0004996-1.tif
7-0004997-1.tif
7-0004998-1.tif
7-0004999-1.tif
7-0005000-1.tif
7-0005001-1.tif
7-0005002-1.tif
7-0005003-1.tif
7-0005003-11.tif
7-0005004-1.tif
7-0005004-2.tif
7-0005005-1.tif
7-0005006-1.tif
7-0005007-1.tif
7-0005008-1.tif
7-0005009-1.tif
7-0005010-1.tif
7-0005010-1.tif
7-0005011-1.tif
7-0005012-1.tif
7-0005013-1.tif
7-0005014-1.tif
7-0005015-1.tif
7-0005016-1.tif
7-0005017-1.tif
7-0005018-1.tif
7-0005019-1.tif
7-0005020-1.tif
7-0005021-1.tif
7-0005022-1.tif
7-0005023-1.tif
7-0005024-1.tif
7-0005025-1.tif
7-0005026-1.tif
7-0005028-1.tif
7-0005029-1.tif
7-0005030-1.tif
7-0005031-1.tif
7-0005032-1.tif
7-0005033-1.tif
7-0005033-1.tif
7-0005034-1.tif
7-0005035-1.tif
7-0005037-1.tif
7-0005038-1.tif
7-0005039-1.tif
7-0005039-11.tif
7-0005039-2.tif
7-0005039-3.tif
7-0005039-31.tif
7-0005040-1.tif
7-0005041-1.tif
7-0005042-1.tif
7-0005044-1.tif
7-0005045-1.tif
7-0005046-1.tif
7-0005046-11.tif
7-0005047-1.tif
7-0005047-2.tif
7-0005048-1.tif
7-0005049-1.tif
7-0005050-1.tif
7-0005052-1.tif
7-0005053-1.tif
7-0005054-1.tif
7-0005055-1.tif
7-0005055-1.tif
7-0005056-1.tif
7-0005056-11.tif
7-0005056-2.tif
7-0005056-1.tif
7-0005057-1.tif
7-0005058-1.tif
7-0005059-1.tif
7-0005060-1.tif
7-0005061-1.tif
7-0005062-1.tif
7-0005063-1.tif
7-0005064-1.tif
7-0005065-1.tif
7-0005066-1.tif
7-0005067-1.tif
7-0005068-1.tif
7-0005069-1.tif
7-0005070-1.tif
7-0005071-1.tif
7-0005071-2.tif
7-0005071-21.tif
7-0005073-1.tif
7-0005074-1.tif
7-0005075-1.tif
7-0005076-1.tif
7-0005077-1.tif
7-0005078-1.tif
7-0005079-1.tif
7-0005079-11.tif
7-0005079-111.tif
7-0005080-1.tif
7-0005081-1.tif
7-0005081-1.tif
7-0005082-1.tif
7-0005083-1.tif
7-0005084-1.tif
7-0005085-1.tif
7-0005086-1.tif
7-0005087-1.tif
7-0005089-1.tif
7-0005090-1.tif
7-0005091-1.tif
7-0005092-1.tif
7-0005093-1.tif
7-0005094-1.tif
7-0005095-1.tif
7-0005096-1.tif
7-0005096-1.tif
7-0005097-1.tif
7-0005099-1.tif
7-0005100-1.tif
7-0005101-1.tif
7-0005101-11.tif
7-0005102-1.tif
7-0005103-1.tif
7-0005104-1.tif
7-0005105-1.tif
7-0005105-11.tif
7-0005106-1.tif
7-0005107-1.tif
7-0005108-1.tif
7-0005109-1.tif
7-0005110-1.tif
7-0005111-1.tif
7-0005112-1.tif
7-0005112-11.tif
7-0005113-1.tif
7-0005115-1.tif
7-0005116-1.tif
7-0005117-1.tif
7-0005118-1.tif
7-0005119-1.tif
7-0005120-1.tif
7-0005122-1.tif
7-0005123-1.tif
7-0005124-1.tif
7-0005125-1.tif
7-0005126-1.tif
7-0005127-1.tif
7-0005128-1.tif
7-0005129-1.tif
7-0005130-1.tif
7-0005131-1.tif
7-0005134-1.tif
7-0005134-11.tif
7-0005135-1.tif
7-0005136-1.tif
7-0005136-11.tif
7-0005137-1.tif
7-0005137-11.tif
7-0005137-2.tif
7-0005138-1.tif
7-0005139-1.tif
7-0005139-11.tif
7-0005140-1.tif
7-0005140-11.tif
7-0005141-1.tif
7-0005141-2.tif
7-0005142-1.tif
7-0005142-2.tif
7-0005142-21.tif
7-0005144-1.tif
7-0005144-11.tif
7-0005145-1.tif
7-0005147-1.tif
7-0005148-1.tif
7-0005149-1.tif
7-0005150-1.tif
7-0005151-1.tif
7-0005152-1.tif
7-0005153-1.tif
7-0005154-1.tif
7-0005156-1.tif
7-0005157-1.tif
7-0005157-11.tif
7-0005157-111.tif
7-0005158-1.tif
7-0005159-1.tif
7-0005161-1.tif
7-0005161-11.tif
7-0005162-1.tif
7-0005163-1.tif
7-0005163-1.tif
7-0005164-1.tif
7-0005164-2.tif
7-0005165-1.tif
7-0005166-1.tif
7-0005167-1.tif
7-0005168-1.tif
7-0005169-1.tif
7-0005170-1.tif
7-0005170-11.tif
7-0005170-2.tif
7-0005170-21.tif
7-0005171-1.tif
7-0005172-1.tif
7-0005173-1.tif
7-0005174-1.tif
7-0005175-1.tif
7-0005175-1.tif
7-0005176-1.tif
7-0005177-1.tif
7-0005178-1.tif
7-0005179-1.tif
7-0005179-11.tif
7-0005180-1.tif
7-0005181-1.tif
7-0005182-1.tif
7-0005183-1.tif
7-0005184-1.tif
7-0005186-1.tif
7-0005187-1.tif
7-0005188-1.tif
7-0005189-1.tif
7-0005190-1.tif
7-0005191-1.tif
7-0005192-1.tif
7-0005193-1.tif
7-0005194-1.tif
7-0005194-1.tif
7-0005195-1.tif
7-0005195-11.tif
7-0005196-1.tif
7-0005196-11.tif
7-0005197-1.tif
7-0005197-11.tif
7-0005198-1.tif
7-0005199-1.tif
7-0005199-1.tif
7-0005200-1.tif
7-0005201-1.tif
7-0005201-11.tif
7-0005201-111.tif
7-0005201-2.tif
7-0005201-4.tif
7-0005202-1.tif
7-0005202-1.tif
7-0005203-1.tif
7-0005203-1.tif
7-0005204-1.tif
7-0005204-1.tif
7-0005205-1.tif
7-0005205-1.tif
7-0005206-1.tif
7-0005206-1.tif
7-0005207-1.tif
7-0005208-1.tif
7-0005209-1.tif
7-0005210-1.tif
7-0005210-1.tif
7-0005211-1.tif
7-0005211-1.tif
7-0005212-1.tif
7-0005213-1.tif
7-0005214-1.tif
7-0005215-1.tif
7-0005216-1.tif
7-0005217-1.tif
7-0005217-11.tif
7-0005218-1.tif
7-0005219-1.tif
7-0005220-1.tif
7-0005221-1.tif
7-0005222-1.tif
7-0005223-1.tif
7-0005224-1.tif
7-0005225-1.tif
7-0005226-1.tif
7-0005227-1.tif
7-0005227-11.tif
7-0005227-111.tif
7-0005228-1.tif
7-0005229-1.tif
7-0005230-1.tif
7-0005230-11.tif
7-0005231-1.tif
7-0005232-1.tif
7-0005232-11.tif
7-0005233-1.tif
7-0005234-1.tif
7-0005235-1.tif
7-0005236-1.tif
7-0005236-11.tif
7-0005237-1.tif
7-0005238-1.tif
7-0005238-11.tif
7-0005238-1.tif
7-0005239-1.tif
7-0005240-1.tif
7-0005240-11.tif
7-0005241-1.tif
7-0005241-11.tif
7-0005242-1.tif
7-0005242-11.tif
7-0005243-1.tif
7-0005244-1.tif
7-0005244-11.tif
7-0005245-1.tif
7-0005245-11.tif
7-0005246-1.tif
7-0005246-11.tif
7-0005247-1.tif
7-0005248-1.tif
7-0005248-11.tif
7-0005248-111.tif
7-0005249-1.tif
7-0005250-1.tif
7-0005251-1.tif
7-0005251-11.tif
7-0005252-1.tif
7-0005252-11.tif
7-0005253-1.tif
7-0005254-1.tif
7-0005255-1.tif
7-0005256-1.tif
7-0005257-1.tif
7-0005258-1.tif
7-0005258-11.tif
7-0005259-1.tif
7-0005259-11.tif
7-0005260-1.tif
7-0005260-11.tif
7-0005260-2.tif
7-0005261-1.tif
7-0005261-11.tif
7-0005262-1.tif
7-0005263-1.tif
7-0005263-11.tif
7-0005264-1.tif
7-0005265-1.tif
7-0005266-1.tif
7-0005266-11.tif
7-0005267-1.tif
7-0005267-11.tif
7-0005268-1.tif
7-0005269-1.tif
7-0005269-11.tif
7-0005270-1.tif
7-0005271-1.tif
7-0005272-1.tif
7-0005272-11.tif
7-0005273-1.tif
7-0005273-11.tif
7-0005274-1.tif
7-0005274-11.tif
7-0005275-1.tif
7-0005276-1.tif
7-0005276-11.tif
7-0005277-1.tif
7-0005278-1.tif
7-0005278-11.tif
7-0005278-111.tif
7-0005279-1.tif
7-0005280-1.tif
7-0005281-1.tif
7-0005281-11.tif
7-0005282-1.tif
7-0005282-11.tif
7-0005283-1.tif
7-0005283-2.tif
7-0005284-1.tif
7-0005284-11.tif
7-0005284-1.tif
7-0005285-1.tif
7-0005286-1.tif
7-0005286-11.tif
7-0005287-1.tif
7-0005287-11.tif
7-0005288-1.tif
7-0005289-1.tif
7-0005289-11.tif
7-0005290-1.tif
7-0005291-1.tif
7-0005292-1.tif
7-0005293-1.tif
7-0005293-11.tif
7-0005294-1.tif
7-0005295-1.tif
7-0005296-1.tif
7-0005297-1.tif
7-0005298-1.tif
7-0005298-11.tif
7-0005298-111.tif
7-0005299-1.tif
7-0005300-1.tif
7-0005300-11.tif
7-0005300-1.tif
7-0005301-1.tif
7-0005302-1.tif
7-0005303-1.tif
7-0005304-1.tif
7-0005304-11.tif
7-0005305-1.tif
7-0005305-11.tif
7-0005306-1.tif
7-0005307-1.tif
7-0005307-11.tif
7-0005308-1.tif
7-0005309-1.tif
7-0005309-11.tif
7-0005310-1.tif
7-0005310-11.tif
7-0005311-1.tif
7-0005313-1.tif
7-0005313-11.tif
7-0005314-1.tif
7-0005314-11.tif
7-0005315-1.tif
7-0005315-11.tif
7-0005316-1.tif
7-0005316-11.tif
7-0005317-1.tif
7-0005318-1.tif
7-0005318-11.tif
7-0005319-1.tif
7-0005319-11.tif
7-0005320-1.tif
7-0005321-1.tif
7-0005322-1.tif
7-0005323-1.tif
7-0005323-11.tif
7-0005324-1.tif
7-0005325-1.tif
7-0005325-11.tif
7-0005326-1.tif
7-0005326-11.tif
7-0005327-1.tif
7-0005328-1.tif
7-0005328-11.tif
7-0005329-1.tif
7-0005330-1.tif
7-0005330-11.tif
7-0005331-1.tif
7-0005331-11.tif
7-0005332-1.tif
7-0005333-1.tif
7-0005334-1.tif
7-0005334-11.tif
7-0005334-2.tif
7-0005334-21.tif
7-0005335-1.tif
7-0005335-11.tif
7-0005336-1.tif
7-0005337-1.tif
7-0005337-11.tif
7-0005338-1.tif
7-0005339-1.tif
7-0005340-1.tif
7-0005341-1.tif
7-0005342-1.tif
7-0005342-11.tif
7-0005343-1.tif
7-0005343-11.tif
7-0005343-111.tif
7-0005344-1.tif
7-0005345-1.tif
7-0005345-11.tif
7-0005346-1.tif
7-0005347-1.tif
7-0005348-1.tif
7-0005349-1.tif
7-0005349-11.tif
7-0005350-1.tif
7-0005350-11.tif
7-0005350-111.tif
7-0005351-1.tif
7-0005351-11.tif
7-0005352-1.tif
7-0005352-11.tif
7-0005353-1.tif
7-0005353-11.tif
7-0005354-1.tif
7-0005355-1.tif
7-0005356-1.tif
7-0005357-1.tif
7-0005358-1.tif
7-0005358-11.tif
7-0005359-1.tif
7-0005359-11.tif
7-0005360-1.tif
7-0005360-2.tif
7-0005360-21.tif
7-0005361-1.tif
7-0005362-1.tif
7-0005362-11.tif
7-0005363-1.tif
7-0005363-11.tif
7-0005364-1.tif
7-0005365-1.tif
7-0005365-11.tif
7-0005366-1.tif
7-0005366-11.tif
7-0005367-1.tif
7-0005367-11.tif
7-0005368-1.tif
7-0005368-2.tif
7-0005368-21.tif
7-0005369-1.tif
7-0005369-11.tif
7-0005370-1.tif
7-0005371-1.tif
7-0005371-11.tif
7-0005372-1.tif
7-0005372-11.tif
7-0005373-1.tif
7-0005373-11.tif
7-0005374-1.tif
7-0005374-11.tif
7-0005375-1.tif
7-0005375-11.tif
7-0005376-1.tif
7-0005376-11.tif
7-0005377-1.tif
7-0005377-11.tif
7-0005378-1.tif
7-0005378-11.tif
7-0005379-1.tif
7-0005379-11.tif
7-0005380-1.tif
7-0005381-1.tif
7-0005381-11.tif
7-0005382-1.tif
7-0005382-11.tif
7-0005383-1.tif
7-0005383-11.tif
7-0005384-1.tif
7-0005384-11.tif
7-0005385-1.tif
7-0005385-11.tif
7-0005386-1.tif
7-0005386-11.tif
7-0005387-1.tif
7-0005387-11.tif
7-0005388-1.tif
7-0005388-11.tif
7-0005389-1.tif
7-0005390-1.tif
7-0005390-11.tif
7-0005391-1.tif
7-0005391-11.tif
7-0005392-1.tif
7-0005393-1.tif